<svg width="119" height="127" viewBox="0 0 119 127" fill="none" xmlns="http://www.w3.org/2000/svg">
<path d="M35.4181 21.0801C35.3677 20.8612 35.5412 20.7436 35.6758 20.6561C37.4671 19.3859 39.2965 18.184 41.1142 16.9585C42.04 16.338 42.9682 15.7011 43.9195 15.1274C43.9232 15.0973 43.9358 15.0698 43.9452 15.042C43.2821 12.678 42.4304 10.3569 41.6809 8.0298C41.6809 8.0171 41.685 8.00818 41.6865 7.99566C41.4619 7.55237 41.1179 7.4028 40.4863 7.21986C38.485 6.73553 35.8806 7.57786 34.0967 8.48822C32.7814 9.27793 31.3464 9.85578 30.1005 10.768C30.0291 10.818 29.9399 10.8447 29.8515 10.8149C29.6863 10.7662 29.6053 10.5558 29.6513 10.3931C29.7471 10.3429 29.8362 10.2799 29.9288 10.2238C29.9706 10.2294 30.0133 10.2256 30.0569 10.1961C30.5643 9.85528 31.0695 9.49021 31.5909 9.16271C33.4522 8.12693 35.4002 7.26554 37.4953 6.86144C38.864 6.72467 41.5561 5.89899 42.1459 7.98639C42.1481 7.99428 42.1532 7.99963 42.1551 8.00821C42.8515 10.2648 43.6804 12.4805 44.3717 14.739C44.5902 14.6546 44.8189 14.6045 45.0614 14.669C45.3313 14.739 45.5798 14.9272 45.7807 15.1574C48.018 18.2312 49.5744 21.8368 51.2826 25.2807C51.4313 25.4511 51.5288 25.739 51.6617 25.9038C52.8284 28.0193 54.8244 29.0398 56.9943 30.2871C58.7003 31.199 60.33 32.3379 61.7963 33.7461C64.9676 36.6878 67.2587 40.6404 69.4144 44.5341C69.9685 45.5643 70.541 46.5891 71.0775 47.6305C74.8535 54.61 79.1284 61.2544 82.9856 68.1826C87.7385 76.987 92.9071 85.5299 97.5092 94.426C97.5149 94.4336 97.52 94.4444 97.5257 94.4502C98.3694 95.7252 98.4377 97.3232 98.3406 98.7636C98.0657 103.798 94.9534 107.583 91.558 110.098C90.416 110.939 89.2614 111.78 88.0516 112.492C87.8943 112.518 87.7861 112.243 87.927 112.154C90.7019 110.223 93.376 108.391 95.3462 105.489C97.2578 102.83 98.1676 98.7121 97.4436 95.4119C97.2963 95.2859 97.2332 95.051 97.1452 94.8721C91.7056 84.5413 85.5006 73.5578 79.6705 63.0968C77.17 58.7939 74.5921 54.5468 72.1475 50.2077C71.808 49.5858 71.4692 48.9607 71.1417 48.3309C71.1316 48.3202 71.1182 48.3164 71.1093 48.3011C67.7363 42.2232 64.2951 35.7754 58.9597 32.2334C56.5045 30.4871 53.3923 29.6332 51.5132 26.9299C51.4163 26.906 51.3226 26.8363 51.2694 26.7132C49.5976 23.2557 47.9402 19.7611 46.0061 16.4653C45.7133 16.0008 45.311 15.5236 45.0622 15.4584C44.8844 15.3773 44.7063 15.5396 44.3486 15.6576C44.3078 15.6645 44.2697 15.6617 44.232 15.6526C41.5099 17.5198 38.8014 19.4119 36.0413 21.2119C35.8535 21.3756 35.4991 21.4715 35.4181 21.0801Z" fill="url(#paint0_linear_2465_73)"/>
<path d="M46.5814 16.7192C46.8346 17.1349 46.2939 17.502 46.0666 17.0686C45.8278 16.6602 46.3526 16.3058 46.5814 16.7192Z" fill="url(#paint1_linear_2465_73)"/>
<path d="M48.4664 22.3519C47.8483 20.9556 47.2246 19.5517 46.4802 18.2259C46.4297 18.1216 46.3368 18.0248 46.355 17.9035C46.3756 17.7424 46.5803 17.7118 46.6614 17.8634C48.5951 21.097 49.7519 25.2436 51.8222 28.1215C52.9925 29.7222 54.4535 30.4843 56.0436 31.4475C56.2655 31.6626 56.0627 31.9121 55.7425 31.6557C54.9278 31.1524 54.2236 30.9236 53.4252 30.3722C50.8689 28.53 49.7087 25.1183 48.4664 22.3519Z" fill="url(#paint2_linear_2465_73)"/>
<path d="M58.6907 33.5978C57.972 33.0844 57.2354 32.5845 56.502 32.1207C56.3657 31.9522 56.5368 31.6921 56.7125 31.8164C59.0766 33.2801 61.3908 34.9924 63.3364 37.1852C66.5041 40.9631 68.8718 45.4633 71.3964 49.7703C71.4919 49.8962 71.5559 50.1173 71.387 50.1691C71.1292 50.1817 71.0446 49.7295 70.8881 49.5346C67.2288 43.4272 64.1068 37.4693 58.6907 33.5978Z" fill="url(#paint3_linear_2465_73)"/>
<path d="M84.4125 74.9372C83.6018 73.4612 82.8202 71.9674 82.032 70.479C79.2378 65.4196 76.288 60.4645 73.4222 55.4539C72.6003 54.0207 71.821 52.5583 71.0026 51.1248C70.8898 50.9335 71.1401 50.7424 71.2568 50.9527C75.4354 58.5094 80.0799 65.7528 84.0857 73.4243C84.6595 74.4909 85.2458 75.5597 85.7647 76.655C85.7842 76.7345 85.7504 76.8176 85.6942 76.8545C85.6172 76.9076 85.5002 76.8714 85.4468 76.7729C85.2017 76.3487 84.9605 75.9217 84.7158 75.495C84.6996 75.4665 84.6852 75.4376 84.669 75.4092C84.5698 75.3068 84.487 75.1228 84.4125 74.9372Z" fill="url(#paint4_linear_2465_73)"/>
<path d="M85.4152 77.366C85.7452 77.134 86.1117 77.7816 85.7766 78.0027C85.4464 78.2354 85.0804 77.5864 85.4152 77.366Z" fill="url(#paint5_linear_2465_73)"/>
<path d="M85.8272 110.449C90.7537 107.614 95.3585 102.381 94.232 95.5696C94.1853 95.3173 94.1178 95.0699 94.046 94.8241C93.5978 93.677 92.9018 92.5404 92.2548 91.4121C90.4975 88.2915 88.764 85.1543 87.063 81.9963C86.5255 80.9885 85.9268 80.0065 85.3739 79.0175C85.3268 78.8092 85.5859 78.7031 85.6891 78.8988C88.4342 83.8975 91.2372 88.8572 94.0873 93.7849C94.5233 94.6492 94.8797 95.6372 94.9066 96.5944C94.9012 96.6193 94.8906 96.6368 94.8794 96.654C95.0458 97.9568 94.8738 99.28 94.6295 100.504C93.6452 104.861 90.5421 107.821 87.3364 109.968C86.8717 110.257 86.4141 110.648 85.8918 110.782C85.7577 110.741 85.7132 110.521 85.8272 110.449Z" fill="url(#paint6_linear_2465_73)"/>
<path d="M43.099 66.8865C42.4808 65.8981 41.8934 64.8811 41.2923 63.8792C39.0478 60.0335 36.8165 56.0289 35.8076 51.6114C35.3016 49.5462 35.0897 47.4426 35.0981 45.365C35.0374 42.6838 35.0863 40.2741 33.864 38.1881C33.7881 37.9837 33.5949 37.7612 33.5203 37.5395C31.4469 34.3312 29.1739 31.2018 27.6424 27.6425C27.5425 27.3424 27.4971 27.0149 27.5602 26.7193C27.6139 26.4517 27.7567 26.2496 27.9242 26.0739C26.3742 24.3926 24.9203 22.593 23.3734 20.9066C23.3686 20.9006 23.3648 20.8924 23.36 20.8864C21.9044 19.3797 23.7815 17.1091 24.5019 15.8275C25.9098 13.7452 27.6974 12.0914 29.5893 10.6127C29.6178 10.5962 29.644 10.5754 29.6722 10.5578C29.7141 10.5652 29.7585 10.5616 29.8025 10.5314C30.1852 10.2738 30.5649 10.0007 30.9527 9.74125C31.0816 9.79284 31.1833 9.93528 31.1549 10.0962C31.14 10.1966 31.079 10.2712 31.0056 10.32C29.701 11.1343 28.5874 12.284 27.3523 13.2211C25.8099 14.5644 23.9586 16.7422 23.4668 18.92C23.3367 19.6202 23.3066 20.0231 23.5708 20.4403C23.5813 20.4449 23.5915 20.4447 23.6016 20.4499C25.1827 22.2209 26.712 24.0884 28.3623 25.7905C28.3899 25.7943 28.4179 25.7937 28.4442 25.8039C29.3388 25.1273 30.2751 24.5006 31.1971 23.8686C33.014 22.6327 34.8161 21.3739 36.6585 20.1848C36.7892 20.0915 36.9649 19.9732 37.1217 20.1195C37.408 20.3732 37.171 20.6785 36.9532 20.7902C34.4538 22.547 31.9103 24.2259 29.374 25.917C29.3797 25.9246 29.3867 25.9313 29.3918 25.9385C30.185 26.7219 30.9855 27.4986 31.7936 28.2606C32.25 28.6553 32.5577 29.0528 32.9304 29.1651C33.4893 29.2826 34.2089 28.7284 35.0194 28.439C38.0194 27.1177 41.3058 24.9562 44.0492 22.6312C44.2587 22.472 44.8423 21.7442 44.8958 21.4093C44.9513 21.3172 44.9233 20.8674 44.8948 20.7867C44.5499 19.6572 44.0615 18.5757 43.6581 17.4661C43.5159 17.035 43.3141 16.6077 43.2128 16.1695C43.2114 16.1177 43.2318 16.0675 43.2676 16.0406C43.3501 15.9519 43.513 16.019 43.549 16.1529C44.0362 17.6857 44.7171 19.1453 45.2797 20.647C45.3897 21.112 45.3913 21.6215 45.1796 22.0053C44.3916 23.2898 43.1054 24.0034 41.9919 24.8672C39.4739 26.769 36.8378 28.5242 33.9164 29.6169C32.8289 30.1783 31.959 29.022 31.1033 28.2505C30.3798 27.5474 29.5873 26.7772 28.92 26.2185C28.859 26.2586 28.7982 26.2998 28.7368 26.3406C28.7267 26.3808 28.7132 26.4196 28.6889 26.4562C28.4332 26.7549 28.2195 26.8558 28.209 27.0673C28.1515 27.3395 28.3647 27.9454 28.6165 28.4392C30.4677 31.8034 32.6045 34.9832 34.7051 38.1597C34.7825 38.2671 34.7981 38.3887 34.7743 38.4956C36.1621 41.5392 35.4804 44.9711 35.825 48.1548C36.3656 54.9608 40.1376 61.2038 43.6361 67.213C43.6447 67.229 43.6416 67.2431 43.6454 67.2585C44.019 67.8598 44.3819 68.47 44.7416 69.0798C47.2246 73.4082 49.5717 77.8247 51.9977 82.1898C58.0093 92.5602 64.2833 103.53 70.3614 113.46C70.4695 113.625 70.6349 113.791 70.6733 113.993C73.0651 116.17 76.8573 117.113 79.8955 116.423C83.1587 115.783 85.8552 113.976 88.6781 112.117C88.8133 112.018 88.9922 112.246 88.9004 112.388C87.7771 113.258 86.5709 114.015 85.3714 114.759C81.7918 116.968 77.2947 118.333 73.0305 116.363C71.8038 115.816 70.5186 115.038 69.8456 113.644C69.8433 113.636 69.837 113.626 69.8328 113.617C64.5627 105.147 59.8347 96.2795 54.707 87.7015C50.7243 80.8417 47.1608 73.6943 43.099 66.8865Z" fill="url(#paint7_linear_2465_73)"/>
<path d="M30.613 28.2975C30.8416 28.73 31.3813 28.3631 31.1275 27.9488C30.899 27.5329 30.3749 27.8895 30.613 28.2975Z" fill="url(#paint8_linear_2465_73)"/>
<path d="M34.0204 32.9026C33.1388 31.6677 32.2533 30.423 31.4888 29.0934C31.4244 28.9977 31.3859 28.8619 31.2772 28.8263C31.1346 28.7752 31.0171 28.9623 31.1071 29.1103C32.9226 32.4665 35.8427 35.4669 37.3009 38.7978C38.1043 40.6694 38.0825 42.451 38.1697 44.4509C38.2488 44.7657 38.5459 44.6791 38.4773 44.248C38.4239 43.219 38.5496 42.4217 38.4492 41.3891C38.0668 38.0419 35.758 35.3679 34.0204 32.9026Z" fill="url(#paint9_linear_2465_73)"/>
<path d="M37.9197 48.5491C37.8138 47.6007 37.7268 46.6426 37.6681 45.7034C37.5897 45.492 37.2947 45.5428 37.3196 45.7754C37.4804 48.7886 37.8706 51.8648 38.8306 54.7935C40.5674 59.6547 43.2697 64.0492 45.7386 68.5127C45.7999 68.664 45.9567 68.8288 46.0763 68.685C46.2036 68.4343 45.8616 68.146 45.7701 67.9008C42.3035 61.493 38.7207 55.6873 37.9197 48.5491Z" fill="url(#paint10_linear_2465_73)"/>
<path d="M59.4788 93.0581C58.6265 91.6124 57.7474 90.1851 56.8733 88.7558C53.9593 83.7802 51.1981 78.7005 48.3554 73.6769C47.5432 72.2383 46.6885 70.8288 45.8738 69.3938C45.7664 69.1982 45.4996 69.3578 45.62 69.5652C49.9722 77.0005 53.8593 84.7512 58.3814 92.0689C59.0021 93.1035 59.6206 94.1501 60.2898 95.1426C60.3465 95.1974 60.4299 95.2012 60.4851 95.1628C60.563 95.1112 60.5857 94.9797 60.5278 94.8854C60.2889 94.4574 60.0443 94.0328 59.8037 93.6046C59.7875 93.5762 59.7697 93.5494 59.7535 93.5209C59.7133 93.3755 59.5987 93.2137 59.4788 93.0581Z" fill="url(#paint11_linear_2465_73)"/>
<path d="M60.3902 95.5449C60.0529 95.7653 60.4217 96.4116 60.7516 96.1815C61.088 95.9613 60.7192 95.315 60.3902 95.5449Z" fill="url(#paint12_linear_2465_73)"/>
<path d="M60.991 96.3535C63.8534 101.23 66.6598 106.145 69.4172 111.093C69.9297 111.897 70.5767 112.681 71.3457 113.13C71.3681 113.134 71.3877 113.132 71.4066 113.13C72.3944 113.867 73.5483 114.283 74.654 114.586C78.6393 115.552 82.4181 113.838 85.5829 111.668C86.0233 111.343 86.5435 111.069 86.8828 110.621C86.908 110.475 86.7489 110.334 86.6402 110.412C82.1566 113.954 75.8623 116.124 70.8079 112.021C70.6228 111.867 70.4511 111.69 70.282 111.512C69.5447 110.569 68.9257 109.391 68.2914 108.262C67.6578 107.154 67.0155 106.05 66.3743 104.946C66.8418 105.428 67.4598 105.769 68.0491 105.944C71.1132 106.983 73.4726 104.074 74.9442 101.59C76.6054 98.3217 77.6013 94.6078 79.159 91.2641C79.9584 89.4261 80.8761 87.8331 82.4033 86.8207C83.2744 86.197 84.2814 85.6854 85.2493 85.5855C86.5925 85.4596 88.007 85.6166 89.2529 86.3577C89.4186 86.4677 89.5721 86.2394 89.4482 86.0732C88.917 85.6435 88.2802 85.4617 87.6746 85.2914C84.2076 84.4237 80.9426 86.5534 79.3888 89.8163C78.8796 90.8712 78.41 91.9563 77.9525 93.0481C77.8331 93.0981 77.7598 93.3252 77.7096 93.3775C77.4075 93.9127 76.8664 94.6946 76.4598 95.0542C73.4251 97.5509 69.0565 97.5924 66.4589 100.984C66.0759 101.507 65.7112 102.105 65.6285 102.823C65.5837 103.153 65.6074 103.461 65.6788 103.745C64.7634 102.178 63.8402 100.614 62.9081 99.0561C62.3243 98.0893 61.7887 97.0726 61.2261 96.0985C61.0779 95.9595 60.8773 96.1668 60.991 96.3535ZM67.9242 105.352C67.2496 105.076 66.4191 104.529 66.184 103.772C65.7189 102.023 67.7166 100.272 69.0109 99.3934C70.793 98.4071 72.9194 97.7588 74.8231 96.7231C75.6832 96.2754 76.5151 95.7245 77.1711 94.9638C76.7621 95.9883 76.3593 97.0162 75.9567 98.0416C74.9276 101.009 73.4615 103.613 71.073 105.098C70.1411 105.664 69.06 105.835 67.9242 105.352Z" fill="url(#paint13_linear_2465_73)"/>
<path d="M44.6406 15.7415C44.0384 13.2217 43.4195 10.7069 42.7298 8.20686C43.5751 10.6807 44.4422 13.1569 45.0548 15.6984C45.0918 15.9926 44.708 16.0339 44.6406 15.7415Z" fill="url(#paint14_linear_2465_73)"/>
<path d="M44.1378 16.1296C43.6441 14.0559 43.2505 11.9574 42.7375 9.88685C43.3771 11.9062 43.9978 13.9409 44.4787 16.002C44.5756 16.2749 44.2306 16.4171 44.1378 16.1296Z" fill="url(#paint15_linear_2465_73)"/>
<path d="M42.956 12.8605C43.0203 13.1474 44.4292 17.15 43.7535 16.4335C43.4978 15.24 43.2338 14.0482 42.956 12.8605Z" fill="url(#paint16_linear_2465_73)"/>
<path d="M42.9413 14.86C43.1512 15.4012 43.3244 15.9616 43.4499 16.5246C43.4517 16.5689 43.4063 16.5941 43.3724 16.5704C43.19 16.0265 43.1235 15.4175 42.9413 14.86Z" fill="url(#paint17_linear_2465_73)"/>
<path d="M36.4255 9.84498C37.8218 12.7392 39.3798 15.5569 40.5859 18.5478C40.8001 18.9268 40.4581 19.3151 40.2006 18.9077C38.9794 15.7809 37.7324 12.9915 36.4255 9.84498Z" fill="url(#paint18_linear_2465_73)"/>
<path d="M37.1533 12.5393C38.1002 14.478 38.9878 16.4492 39.8535 18.4297C39.9602 18.7197 40.1328 19.0054 40.1668 19.313C40.1687 19.5146 39.9162 19.5672 39.8209 19.3862C38.8127 17.1572 38.1143 14.7908 37.1533 12.5393Z" fill="url(#paint19_linear_2465_73)"/>
<path d="M37.6019 14.4648C38.2512 16.1503 39.0311 17.7897 39.5729 19.5171C39.6518 19.6944 39.5828 19.9394 39.3862 19.8298C38.6975 18.1106 38.191 16.2434 37.6019 14.4648Z" fill="url(#paint20_linear_2465_73)"/>
<path d="M38.9165 20.0296C38.4734 18.6704 38.066 17.2995 37.6733 15.9242C38.1724 17.2512 38.7237 18.5597 39.163 19.9071C39.1926 19.9935 39.2245 20.1062 39.1532 20.1625C39.0699 20.247 38.9379 20.1542 38.9165 20.0296Z" fill="url(#paint21_linear_2465_73)"/>
<path d="M37.7458 17.6899C38.1186 18.5602 38.4602 19.4491 38.7632 20.3467C38.7838 20.4103 38.7439 20.4756 38.6874 20.4719C38.2747 19.8659 38.0526 18.465 37.7458 17.6899Z" fill="url(#paint22_linear_2465_73)"/>
<path d="M37.7492 19.2337C37.8524 19.5706 38.058 19.9231 38.1014 20.2577C37.958 20.2044 37.8332 19.4649 37.7492 19.2337Z" fill="url(#paint23_linear_2465_73)"/>
<path d="M38.3351 13.0217C38.4688 13.3489 42.1116 19.8743 40.8361 18.7362C39.9907 16.7954 39.2228 14.9929 38.3351 13.0217Z" fill="url(#paint24_linear_2465_73)"/>
<path d="M40.2395 16.2282C40.5783 16.9453 40.9402 17.6522 41.2311 18.3933C41.242 18.4281 41.2278 18.472 41.1986 18.4826C41.1713 18.4982 41.1309 18.4819 41.1121 18.4478C40.7933 17.72 40.5211 16.9711 40.2395 16.2282Z" fill="url(#paint25_linear_2465_73)"/>
<path d="M40.8816 16.8555C41.0005 17.2389 41.2282 17.6405 41.2918 18.0156C41.1281 17.9627 40.9835 17.123 40.8816 16.8555Z" fill="url(#paint26_linear_2465_73)"/>
<path d="M41.3967 17.4476C41.4376 17.5719 41.531 17.7082 41.5371 17.8256C41.4664 17.728 41.4439 17.569 41.3967 17.4476Z" fill="url(#paint27_linear_2465_73)"/>
<path d="M32.8739 23.2041C33.0829 23.5707 33.401 23.7832 33.3578 24.129C33.3255 24.2753 33.1628 24.3509 33.0361 24.281C31.2609 21.7852 29.5194 19.18 27.7671 16.6381C29.4733 18.8242 31.2382 20.9495 32.8739 23.2041Z" fill="url(#paint28_linear_2465_73)"/>
<path d="M33.7241 23.662C33.8871 23.9982 33.4864 24.1632 33.3319 23.8375C31.9589 21.8201 30.6313 19.7705 29.1685 17.9015C30.8347 19.7654 32.3657 21.6924 33.7241 23.662Z" fill="url(#paint29_linear_2465_73)"/>
<path d="M34.1808 23.5016C34.2208 23.7486 33.9378 23.7647 33.8457 23.5586C32.7173 21.9444 31.8767 20.8833 30.6556 19.178C31.8416 20.6002 33.1652 21.92 34.1808 23.5016Z" fill="url(#paint30_linear_2465_73)"/>
<path d="M34.5605 23.1686C34.6629 23.2726 34.5957 23.464 34.4643 23.4195C33.499 22.2839 32.7717 21.2013 31.9023 19.9853C32.7835 21.0511 33.7304 22.0478 34.5605 23.1686Z" fill="url(#paint31_linear_2465_73)"/>
<path d="M34.8837 23.0736C34.8584 23.1358 34.7826 23.1218 34.746 23.066C34.239 22.4022 33.7288 21.7344 33.2738 21.0225C33.7523 21.7068 34.5464 22.3296 34.8837 23.0736Z" fill="url(#paint32_linear_2465_73)"/>
<path d="M35.1067 22.8132C34.8178 22.6631 34.4339 21.8354 34.1941 21.4967C34.4552 21.9284 34.974 22.3591 35.1067 22.8132Z" fill="url(#paint33_linear_2465_73)"/>
<path d="M34.8999 21.8016C35.039 22.0465 35.241 22.2433 35.3725 22.4829C35.2749 22.5322 34.9702 21.9259 34.8999 21.8016Z" fill="url(#paint34_linear_2465_73)"/>
<path d="M31.5037 22.5333C31.9658 23.2085 32.4989 23.8617 32.8639 24.6035C32.9153 24.8218 32.6699 24.9609 32.5257 24.7961C31.2171 22.7931 29.9961 20.7188 28.695 18.7103C29.6721 19.9677 30.6527 21.3733 31.5037 22.5333Z" fill="url(#paint35_linear_2465_73)"/>
<path d="M32.2357 25.1201C31.3492 23.8956 30.6533 22.4754 29.8442 21.1766C30.0454 21.5596 33.0124 25.2712 32.2357 25.1201Z" fill="url(#paint36_linear_2465_73)"/>
<path d="M31.9267 24.9592C31.9505 25 31.9416 25.0559 31.9082 25.0778C31.8745 25.1004 31.8259 25.0846 31.8034 25.0428C31.3882 24.3942 31.0126 23.7155 30.615 23.052C31.0598 23.6798 31.5339 24.2891 31.9267 24.9592Z" fill="url(#paint37_linear_2465_73)"/>
<path d="M30.7781 24.0962C30.8722 24.2453 30.9929 24.3912 31.1059 24.5391C31.0507 24.4287 30.9939 24.3181 30.9402 24.2061C31.1747 24.64 31.546 25.0555 31.7019 25.5079C31.6891 25.5341 31.6509 25.5355 31.6307 25.5124C31.5197 25.3291 31.4166 25.1395 31.3157 24.9505C31.1592 24.8301 30.9029 24.2621 30.7781 24.0962Z" fill="url(#paint38_linear_2465_73)"/>
<path d="M30.0836 25.6483C30.1682 25.7591 30.2925 25.8628 30.3258 26.0059C30.3622 26.1565 30.2343 26.2868 30.1061 26.2401C28.6235 24.7223 27.3335 22.9213 25.8721 21.3558C27.3014 22.7506 28.7301 24.1538 30.0836 25.6483Z" fill="url(#paint39_linear_2465_73)"/>
<path d="M30.7952 26.0559C30.7835 26.1405 30.6861 26.1685 30.6289 26.1058C29.9151 25.311 29.2509 24.4606 28.5862 23.6151C29.296 24.4347 30.2223 25.1349 30.7952 26.0559Z" fill="url(#paint40_linear_2465_73)"/>
<path d="M31.0546 25.7828C31.1163 25.8452 31.0523 25.9537 30.9815 25.9056C30.4492 25.3825 30.0006 24.7225 29.579 24.0813C30.0372 24.6862 30.602 25.1747 31.0546 25.7828Z" fill="url(#paint41_linear_2465_73)"/>
<path d="M31.3957 25.6911C31.4104 25.7516 31.3415 25.7911 31.3011 25.745C30.9502 25.2614 30.6191 24.7565 30.3326 24.2215C30.6694 24.7159 31.0806 25.1676 31.3957 25.6911Z" fill="url(#paint42_linear_2465_73)"/>
<path d="M30.4512 25.9917C32.5304 24.6628 34.7612 23.6146 36.8474 22.2906C35.4916 23.3584 34.0584 24.2899 32.6375 25.2446C34.8939 23.8611 37.3061 22.7881 39.5302 21.3363C37.1321 23.1318 34.246 25.103 31.8945 26.5614C31.8994 26.5712 31.9055 26.5818 31.9087 26.5914C32.1219 26.4748 32.3585 26.381 32.4964 26.2588C34.4391 25.2117 36.3966 24.1952 38.3097 23.0872C36.374 24.4372 34.4448 25.8027 32.4463 27.0402C32.5171 27.0537 32.594 27.0761 32.6963 27.1281C34.9883 25.6778 37.8116 24.2087 40.2936 22.7238C38.7229 23.8804 37.121 24.9832 35.5325 26.1101C38.0144 24.6829 40.4908 23.2436 42.8857 21.6513C39.8448 23.8612 36.8407 26.1702 33.6492 28.1101C33.7036 28.1224 33.7562 28.1388 33.8091 28.1582C36.4181 26.5545 39.1689 25.1404 41.7976 23.5512C39.8124 24.9521 37.817 26.3329 35.8083 27.6945C35.7623 27.7175 35.6866 27.7665 35.5921 27.8309C38.5908 26.2464 41.9839 24.2653 44.9041 22.3675C42.7031 24.0298 40.4846 25.6561 38.1893 27.1564C37.5877 27.5362 36.9917 27.9519 36.3811 28.3328C39.0244 27.0355 41.6805 25.2271 44.1701 23.4906C41.9814 25.3146 39.7725 27.1145 37.3791 28.6034C36.4898 29.1001 35.5897 29.6223 34.5945 29.8527C34.4902 29.8755 34.3711 29.8604 34.285 29.7637C34.1822 29.6573 34.1696 29.4998 34.2156 29.3787C34.1744 29.3913 34.1344 29.4084 34.0925 29.4205C33.7967 29.4033 33.6858 29.1665 33.7296 28.9559C33.4149 29.054 33.1917 29.0094 33.1874 28.6745C32.8129 28.5704 32.464 28.3787 32.5831 27.9774C32.6064 27.9505 32.637 27.9242 32.6654 27.8972C32.3632 27.9774 32.16 27.9093 32.1676 27.5761C32.124 27.5678 32.0801 27.5602 32.0388 27.5561C31.7565 27.4742 31.6021 27.516 31.4641 27.2145C31.4526 27.1175 31.4735 27.0367 31.5062 26.9632C31.2854 26.8818 31.0671 26.6931 31.0721 26.4379C31.0655 26.3856 31.0785 26.3442 31.0982 26.3066C30.9174 26.4154 30.7393 26.4886 30.5731 26.4765C30.4036 26.4051 30.3358 26.1259 30.4512 25.9917Z" fill="url(#paint43_linear_2465_73)"/>
<path d="M39.9219 21.9455C39.8773 21.9714 39.8386 22.0145 39.7914 22.0273C39.8242 21.9895 39.8793 21.9746 39.9219 21.9455Z" fill="url(#paint44_linear_2465_73)"/>
<path d="M37.5332 21.7949C37.5684 21.7827 37.5976 21.7475 37.6305 21.7252L37.5332 21.7949Z" fill="url(#paint45_linear_2465_73)"/>
<path d="M54.4955 52.6343C54.4906 52.4595 54.6592 52.375 54.794 52.4722C54.9896 52.6573 55.0801 52.9555 55.2573 53.166C55.7102 53.8075 56.4993 54.8882 57.0264 55.5975C57.9719 56.8125 59.4643 58.6656 60.4625 58.8254C61.0795 58.8589 61.5584 57.9735 62.0596 57.2768C62.2191 57.1692 62.4623 57.2996 62.5257 57.5333C62.5442 57.5717 62.5674 57.9923 62.5822 58.2438C62.6205 59.3518 63.2273 60.641 63.8627 60.9522C65.0058 61.4513 65.9576 61.5261 67.1432 61.5393C67.7139 61.5338 68.2318 61.4751 68.6886 61.445C68.8997 61.4755 68.9623 61.8642 68.7599 61.9059C67.2047 62.0713 65.5802 62.21 63.9694 61.563C63.6323 61.4342 63.313 61.2099 63.0506 60.9055C62.4595 60.1776 62.1739 59.2422 62.0943 58.3285C61.8381 58.7255 61.4921 59.1739 61.0978 59.3239C59.5345 60.127 57.2136 56.5121 56.3421 55.3349C55.7235 54.4652 55.2003 53.8098 54.5846 52.8838C54.5329 52.812 54.492 52.7238 54.4955 52.6343Z" fill="url(#paint46_linear_2465_73)"/>
<path d="M69.6196 80.0864C69.7676 80.1736 69.918 80.0406 69.8955 79.8585C69.8271 79.575 69.6128 79.3455 69.513 79.067C69.1701 78.3087 68.6054 77.0085 68.2385 76.1437C67.6305 74.621 66.7241 72.248 67.0464 71.1628C67.3019 70.5221 68.282 70.4495 69.1103 70.2647C69.2763 70.1537 69.2754 69.846 69.1039 69.6739C69.0792 69.6364 68.7286 69.4174 68.5198 69.286C67.5861 68.7325 66.7571 67.5175 66.7824 66.7305C66.8802 65.341 67.2535 64.3421 67.7873 63.1341C68.0553 62.5576 68.343 62.0614 68.5794 61.6118C68.6507 61.3849 68.3452 61.14 68.2172 61.3265C67.3595 62.8244 66.4933 64.4042 66.3091 66.3373C66.2648 66.7384 66.3107 67.1662 66.4506 67.5733C66.8045 68.5113 67.4766 69.2352 68.2242 69.7397C67.766 69.8157 67.2213 69.9574 66.9109 70.287C65.5023 71.4959 67.538 75.5268 68.1499 76.957C68.612 77.9888 68.9348 78.8228 69.4461 79.8778C69.4851 79.966 69.5413 80.0485 69.6196 80.0864Z" fill="url(#paint47_linear_2465_73)"/>
<path d="M54.5546 52.4806C54.4069 52.3945 54.2561 52.5263 54.278 52.708C54.3474 52.993 54.5614 53.2233 54.6608 53.5006C55.0035 54.2578 55.5685 55.5591 55.9357 56.4232C56.5444 57.9463 57.4494 60.3184 57.1271 61.4037C56.8719 62.0436 55.8921 62.1174 55.0633 62.3018C54.8972 62.4128 54.8982 62.7205 55.069 62.8921C55.0933 62.9284 55.4446 63.1479 55.6534 63.2794C56.5864 63.8342 57.4152 65.0481 57.3905 65.8355C57.294 67.2259 56.9194 68.2239 56.3862 69.4324C56.1185 70.0082 55.8299 70.5046 55.5945 70.954C55.5231 71.1808 55.8286 71.4258 55.9566 71.2393C56.8143 69.7414 57.6802 68.1605 57.8648 66.2284C57.9091 65.8274 57.8641 65.3993 57.7236 64.9917C57.3694 64.0544 56.6973 63.3306 55.949 62.8256C56.4079 62.7501 56.9525 62.6084 57.2624 62.2783C58.6716 61.0681 56.6342 57.0369 56.0236 55.6076C55.5612 54.5766 55.2387 53.7418 54.7271 52.6875C54.6894 52.6021 54.6322 52.5179 54.5546 52.4806Z" fill="url(#paint48_linear_2465_73)"/>
<path d="M69.678 79.934C69.6833 80.11 69.5137 80.1929 69.3793 80.0968C69.1843 79.9121 69.0932 79.6152 68.9159 79.403C68.4624 78.7611 67.6739 77.6808 67.1462 76.971C66.2007 75.7561 64.7086 73.9023 63.7104 73.7425C63.0937 73.7101 62.6155 74.5959 62.1136 75.2921C61.9541 75.3997 61.7112 75.2687 61.6475 75.0357C61.629 74.9973 61.6055 74.5755 61.591 74.3252C61.5524 73.2178 60.9456 71.9268 60.3105 71.6167C59.1674 71.1176 58.2163 71.0432 57.03 71.0296C56.4586 71.0347 55.9414 71.0938 55.484 71.1235C55.2735 71.0935 55.2106 70.7037 55.4139 70.6634C56.9685 70.4977 58.5924 70.3585 60.2031 71.0055C60.5403 71.1343 60.8605 71.3583 61.123 71.6628C61.7144 72.3917 61.9999 73.3272 62.0792 74.2398C62.3354 73.8445 62.6811 73.3951 63.076 73.2455C64.6387 72.4402 66.9593 76.0558 67.8311 77.2341C68.4498 78.1038 68.9729 78.7592 69.5893 79.6856C69.641 79.7574 69.6818 79.8456 69.678 79.934Z" fill="url(#paint49_linear_2465_73)"/>
<path d="M62.6942 35.3336C61.6869 34.3602 60.6622 33.4122 59.6534 32.4529C60.8895 33.3104 62.1355 34.2521 63.2724 35.3319C62.7019 34.6745 62.1257 34.0239 61.5343 33.3885C62.7254 34.2665 63.8171 35.4102 64.5997 36.7398C65.2372 37.4888 65.8198 38.2905 66.303 39.1767C65.3179 37.9741 64.2545 36.8623 63.1605 35.7864C64.5187 37.1685 65.7338 38.7479 66.7746 40.4381C66.9184 40.6664 67.0835 40.929 67.21 41.1373C66.9809 40.8358 66.7495 40.5373 66.5182 40.2387C64.0703 37.1451 61.515 34.141 58.3555 32.1709C59.9202 32.9743 61.3692 34.0625 62.6942 35.3336Z" fill="url(#paint50_linear_2465_73)"/>
<path d="M82.8669 70.2292C80.2773 66.4642 78.0448 62.426 75.8744 58.3597C77.1263 60.2657 78.3784 62.224 79.5726 64.2124C79.7888 64.5069 80.0015 64.8053 80.2105 65.1065C79.5581 63.8236 78.9243 62.5292 78.2772 61.2455C80.5038 64.6122 82.4269 68.2479 84.1951 71.8923C84.1136 71.7807 84.0375 71.6647 83.9582 71.5519C84.2768 72.1962 84.5876 72.8414 84.8864 73.4927C84.168 72.4354 83.5049 71.3416 82.8669 70.2292Z" fill="url(#paint51_linear_2465_73)"/>
<path d="M88.3577 81.8272C89.4263 83.5453 90.4932 85.3092 91.5096 87.1012C91.0815 86.1736 90.6619 85.242 90.2476 84.3078C92.454 88.0035 94.5794 91.774 96.0933 95.8597C95.3878 94.7131 94.7272 93.5398 94.0943 92.3479C91.9752 88.9795 90.1149 85.4349 88.3577 81.8272Z" fill="url(#paint52_linear_2465_73)"/>
<path d="M64.0439 104.825C64.0465 104.829 64.0487 104.831 64.0519 104.837C63.3102 103.508 62.5855 102.169 61.8593 100.828C62.804 102.113 63.7235 103.439 64.5859 104.808C63.4807 102.808 62.3967 100.793 61.2862 98.7978C64.006 102.421 66.4645 106.45 68.0271 110.756C67.5717 110.018 67.1349 109.268 66.6969 108.519C67.1086 109.34 67.4871 110.179 67.8337 111.032C68.0454 111.45 68.2499 111.869 68.4369 112.291C66.7359 109.975 65.38 107.403 64.0439 104.825Z" fill="url(#paint53_linear_2465_73)"/>
<path d="M41.0611 61.806C38.8266 57.6632 36.1083 53.2356 36.3916 48.3922C36.3956 48.2272 36.4003 48.0218 36.406 47.8899C36.4382 48.3363 36.4775 48.7838 36.5343 49.2299C36.7766 50.8798 37.3439 52.6448 37.9803 54.3212C37.306 52.3468 36.8531 50.3096 36.7678 48.1984C36.7556 48.0504 36.7398 47.8772 36.7321 47.7634C36.8111 48.1738 36.8894 48.5838 36.9686 48.9936C37.8752 54.5215 40.4976 59.2379 42.8645 64.2502C41.4445 61.7804 39.9811 59.2291 38.8416 56.5671C39.5369 58.3501 40.2386 60.0693 41.0611 61.806Z" fill="url(#paint54_linear_2465_73)"/>
<path d="M56.5634 69.52C56.066 69.6033 55.4372 70.5712 56.1569 70.6307C56.4154 70.4864 56.4665 70.3291 56.5878 70.2668C56.6406 70.2156 56.6722 70.2159 56.7171 70.2073C56.9995 70.4 57.1787 70.3028 57.2411 70.1335C57.4744 70.4424 57.819 70.8133 57.9723 70.3287C57.9717 70.2386 57.9563 70.1518 57.9335 70.0645C57.9917 70.1439 58.0495 70.2203 58.1058 70.2911C58.2501 70.4893 58.5085 70.7269 58.6877 70.511C58.7273 70.4408 58.7382 70.3678 58.737 70.2937C58.7907 70.3718 58.8435 70.4501 58.8957 70.5244C58.9415 70.6124 59.1723 70.9087 59.3931 70.673C59.4888 70.5937 59.4473 70.3992 59.4214 70.3133C59.3631 70.194 59.3039 70.0713 59.2424 69.9462C59.4415 70.2621 59.6397 70.5801 59.8398 70.8958C59.9353 71.1532 60.256 71.2603 60.3158 70.9633C60.3093 70.6872 60.1934 70.6772 60.0744 70.3944C59.6543 69.578 59.2819 68.8111 58.9367 68.0432C59.5095 69.107 60.0655 70.1836 60.6153 71.263C60.6942 71.4121 60.8652 71.4205 60.9516 71.3212C61.0373 71.4976 61.1095 71.6999 61.2854 71.7634C61.4117 71.7688 61.4927 71.7418 61.546 71.6947C61.6072 71.8115 61.6715 71.9286 61.7336 72.0452C61.8312 72.1936 61.9293 72.3995 62.0304 72.6155C61.686 72.7246 61.9824 73.4785 61.9474 73.8181C61.9614 74.1601 62.4196 74.2795 62.4923 73.9562C62.5111 73.809 62.5005 73.6532 62.4814 73.4959C62.5863 73.6594 62.6969 73.7906 62.8168 73.8577C63.5258 73.8346 62.6275 72.6432 62.4752 72.2413C62.4166 72.1281 62.3536 72.0137 62.295 71.9005C62.5592 72.3703 62.8237 72.8394 63.0848 73.3107C63.1389 73.4099 63.2318 73.45 63.3175 73.4436C63.3919 73.6374 63.587 73.7867 63.7715 73.6561C63.9184 73.5599 63.9248 73.3833 63.8639 73.235C63.8666 73.2143 63.8732 73.1981 63.8713 73.1768C63.555 72.2652 63.0646 71.4289 62.5682 70.5948C62.3203 70.0602 62.0745 69.5245 61.819 68.9919C61.9598 69.1903 62.1001 69.392 62.2412 69.5915C63.0333 71.0241 63.8217 72.4117 64.5812 73.6633C64.685 73.8549 64.9345 73.8781 65.0112 73.687C65.0231 73.6337 65.0229 73.5956 65.0235 73.5597C65.3793 74.0779 65.7323 74.5986 66.0793 75.1233C66.1614 75.2764 66.3649 75.2467 66.3869 75.0836C66.3524 74.788 66.0661 74.56 65.9267 74.2983C65.045 72.9681 64.1391 71.6564 63.2309 70.3458C62.3435 68.8071 61.4609 67.2635 60.5976 65.7089C62.6021 68.9 64.703 72.016 66.6485 75.252C66.8522 75.496 67.3234 76.7743 67.6237 76.4399C67.8072 76.7829 67.9874 77.1292 68.1547 77.4836C68.2661 77.772 68.4705 78.1695 68.7397 77.9013C68.7965 77.8249 68.817 77.7142 68.7844 77.61C68.521 76.9832 68.2123 76.3784 67.8835 75.7867C66.5233 73.366 65.0819 70.9983 63.6623 68.6178C60.966 63.976 58.3581 59.2725 55.6826 54.6163C55.5559 54.376 55.2353 54.5044 55.2931 54.7618C55.6334 55.4656 56.0236 56.1426 56.4239 56.8139C56.298 56.6576 56.06 56.761 56.1085 56.973C56.6578 58.13 57.3387 59.2246 57.9427 60.3535C59.1238 62.3798 60.3922 64.5276 61.663 66.6797C61.5634 66.5208 61.4638 66.3638 61.3642 66.2067C60.1211 64.1716 58.8527 62.1534 57.6159 60.1136C57.6124 60.103 57.6048 60.0959 57.6003 60.0874C57.5946 60.0761 57.5879 60.0633 57.5822 60.0521C57.5809 60.053 57.5796 60.0539 57.5796 60.0539C57.5046 59.9402 57.3762 59.8826 57.2757 59.9522C57.1778 60.0144 57.1527 60.179 57.222 60.296C57.2405 60.3324 57.2606 60.369 57.2797 60.404C57.1497 60.4394 57.0469 60.5671 57.0896 60.7516C57.2331 61.0832 57.3949 61.4076 57.5526 61.7336C57.5412 61.7275 57.5317 61.7191 57.5202 61.7147C57.4576 61.6105 57.3914 61.5102 57.3297 61.4057C57.3153 61.3803 57.2994 61.3566 57.2838 61.3322C57.2819 61.3308 57.2819 61.3272 57.28 61.3259C57.2514 61.2861 57.2212 61.2479 57.1816 61.2212C56.9722 61.0738 56.7276 61.3066 56.8123 61.5638C56.8409 61.6109 56.8711 61.6563 56.8988 61.7018L56.8976 61.7046C56.9017 61.7083 56.9017 61.7083 56.9042 61.7101C56.9405 61.7697 56.9774 61.8262 57.0137 61.884C57.1906 62.1917 57.3704 62.4987 57.5474 62.8065C57.7062 63.1668 57.8744 63.5228 58.0471 63.8747C57.6968 63.3042 57.3477 62.731 56.9965 62.1609C56.9382 62.0633 56.8509 61.9709 56.7478 61.9897C56.5797 62.0005 56.5485 62.2368 56.6433 62.3842C56.8213 62.7298 57.0095 63.0698 57.1985 63.4095C56.6841 62.6951 56.1978 62.1369 56.0317 62.3699C55.9261 62.4378 55.9201 62.6192 56.0071 62.7286L56.011 62.7349C56.0514 62.9006 56.1657 63.0345 56.2498 63.178C56.2896 63.2555 56.3511 63.2838 56.4138 63.293C56.7191 63.7479 57.1778 64.4671 57.5157 65.0171C57.2801 65.1023 57.476 65.5807 57.5695 65.8223C57.8277 66.4934 58.1146 67.1511 58.4114 67.8056C58.1289 67.3502 57.8505 66.8913 57.6024 66.4137C57.5396 66.2822 57.4171 66.1735 57.2922 66.2125C57.0771 66.2748 57.1356 66.5599 57.24 66.743C57.4985 67.3002 57.7474 67.86 57.9967 68.4208C57.8225 68.1729 57.6651 67.9376 57.5353 67.7278C57.4881 67.6317 57.4394 67.5371 57.3925 67.4402C57.3901 67.4512 57.3872 67.461 57.3841 67.4715C57.3637 67.4338 57.336 67.3901 57.3185 67.3553C57.1998 67.2401 57.0147 67.2862 56.9569 67.4307C56.9302 67.6792 57.0624 67.9531 57.2114 68.2251C57.1297 68.1239 57.0355 68.0557 56.9118 68.0829C56.7565 68.1279 56.7128 68.3311 56.7742 68.5023C56.8202 68.6321 56.8753 68.7564 56.9264 68.8843C56.7792 68.6996 56.6244 68.6082 56.4404 68.8605C56.3993 69.0782 56.4759 69.2999 56.5634 69.52ZM59.9886 63.0121C58.8259 61.0736 57.6856 59.1209 56.611 57.1251C56.8754 57.5634 57.1395 58.0005 57.3979 58.441C58.2568 59.9671 59.1235 61.4888 59.9886 63.0121Z" fill="url(#paint55_linear_2465_73)"/>
<path d="M59.313 70.5395C59.3098 70.5326 59.3065 70.5258 59.3045 70.5209C59.3004 70.5065 59.298 70.4979 59.2943 70.4896C59.2984 70.5017 59.3025 70.5137 59.313 70.5395Z" fill="url(#paint56_linear_2465_73)"/>
<path d="M59.2949 70.4984C59.2864 70.4753 59.2848 70.4719 59.2949 70.4984V70.4984Z" fill="url(#paint57_linear_2465_73)"/>
<path d="M67.195 62.2995C67.4845 61.8498 68.5586 61.6652 68.287 62.3952C68.0544 62.5838 67.902 62.5639 67.7963 62.6542C67.7315 62.6824 67.7177 62.7145 67.6909 62.7547C67.7233 63.1168 67.5645 63.248 67.3971 63.2339C67.5466 63.5995 67.6986 64.1008 67.2334 64.0353C67.1589 63.9953 67.0954 63.9403 67.0344 63.8798C67.0733 63.972 67.1094 64.0632 67.1435 64.1494C67.243 64.3779 67.3232 64.736 67.0655 64.8148C66.9902 64.824 66.9256 64.8008 66.8647 64.7675C66.9055 64.8538 66.9453 64.9403 66.9845 65.0246C67.0364 65.1087 67.1768 65.4652 66.8853 65.5776C66.7782 65.6362 66.6372 65.5092 66.5769 65.4455C66.506 65.3355 66.4306 65.2225 66.3549 65.1064C66.5262 65.4429 66.6988 65.7765 66.8692 66.1132C67.0383 66.3195 66.985 66.6807 66.7135 66.6069C66.489 66.478 66.5326 66.3607 66.353 66.119C65.8691 65.3453 65.4054 64.6409 64.9276 63.9637C65.5471 64.9965 66.184 66.0169 66.8265 67.034C66.9131 67.1775 66.8446 67.349 66.7257 67.3894C66.8323 67.5513 66.966 67.7122 66.9397 67.9121C66.8889 68.0379 66.8305 68.1051 66.7683 68.1351C66.8373 68.2474 66.9044 68.362 66.9722 68.4752C67.0518 68.6356 67.1762 68.8225 67.3097 69.0186C67.5519 68.7307 68.0391 69.3547 68.3348 69.4707C68.6094 69.6363 68.5034 70.1383 68.2056 70.0652C68.077 70.0174 67.9545 69.9377 67.8334 69.8498C67.9206 70.0246 67.9797 70.1915 67.9808 70.3389C67.6484 71.0212 67.0685 69.6149 66.8064 69.2869C66.7399 69.18 66.6734 69.0677 66.6066 68.9596C66.8745 69.4266 67.1416 69.8938 67.4124 70.3583C67.4709 70.4551 67.4627 70.5644 67.4183 70.6449C67.5455 70.8039 67.5814 71.0597 67.3919 71.1832C67.2481 71.2833 67.0998 71.2128 67.0047 71.086C66.987 71.0791 66.9699 71.0799 66.9537 71.0677C66.3457 70.3534 65.8768 69.5032 65.4119 68.6477C65.0828 68.1681 64.7525 67.6894 64.4287 67.2035C64.5295 67.4293 64.6312 67.6566 64.7328 67.8839C65.5586 69.2937 66.348 70.6809 67.0376 71.9789C67.149 72.1649 67.0577 72.4192 66.8655 72.4096C66.8174 72.3978 66.7863 72.3798 66.7552 72.3655C67.0232 72.942 67.2944 73.519 67.5709 74.0915C67.6603 74.2396 67.5451 74.4256 67.4018 74.3749C67.1737 74.21 67.1146 73.8294 66.9613 73.5761C66.2613 72.1234 65.5869 70.6551 64.9129 69.186C64.0439 67.6348 63.1683 66.0872 62.2757 64.553C64.0053 67.9293 65.6316 71.3669 67.4244 74.7057C67.5346 75.0131 68.3744 76.0416 67.9668 76.1864C68.1666 76.5191 68.3705 76.8483 68.5874 77.1693C68.7746 77.4053 69.0113 77.7817 68.6699 77.9264C68.5823 77.9478 68.4825 77.9192 68.4107 77.8403C68.0137 77.3044 67.6536 76.7335 67.3146 76.1493C65.9305 73.7447 64.6257 71.2857 63.301 68.841C60.6873 64.1438 57.9839 59.5055 55.3484 54.823C55.2074 54.5919 55.4551 54.3359 55.6402 54.5072C56.0686 55.1518 56.4505 55.8338 56.8233 56.5231C56.7515 56.331 56.9418 56.1438 57.0945 56.2852C57.8008 57.3349 58.3969 58.4864 59.0562 59.5785C60.1958 61.6329 61.396 63.8272 62.598 66.0247C62.5124 65.8555 62.428 65.6891 62.3423 65.5218C61.2221 63.4031 60.1285 61.2665 59.0029 59.1522C58.9966 59.1442 58.994 59.1333 58.9886 59.125C58.9819 59.1141 58.9756 59.1024 58.9679 59.0916C58.9679 59.0916 58.9692 59.0907 58.9705 59.0898C58.9106 58.9667 58.9202 58.8159 59.0219 58.7472C59.1167 58.6791 59.2628 58.7272 59.328 58.8478C59.349 58.8823 59.37 58.9168 59.3913 58.9524C59.4777 58.8423 59.6289 58.7971 59.7597 58.9207C59.9688 59.2074 60.1626 59.5095 60.3613 59.8098C60.361 59.796 60.3587 59.7826 60.3596 59.7697C60.3017 59.6624 60.2488 59.5532 60.1909 59.4459C60.1762 59.4213 60.1641 59.3947 60.1501 59.3687C60.1495 59.3664 60.1475 59.3633 60.1466 59.3617C60.1262 59.3168 60.1089 59.2704 60.1037 59.2197C60.0763 58.9489 60.3759 58.8133 60.5494 59.0099C60.5749 59.0584 60.5991 59.1079 60.6239 59.1559C60.6239 59.1559 60.6258 59.1572 60.6271 59.1563C60.628 59.1615 60.628 59.1615 60.629 59.1649C60.6615 59.2273 60.6917 59.2891 60.7233 59.3499C60.8983 59.66 61.0705 59.9707 61.2434 60.2819C61.47 60.5962 61.6863 60.9186 61.8984 61.2444C61.5858 60.6486 61.2696 60.053 60.9581 59.4562C60.9037 59.3559 60.8666 59.2287 60.9283 59.1358C61.0114 58.9782 61.219 59.051 61.2983 59.2102C61.5031 59.5374 61.6992 59.8728 61.8936 60.2081C61.5359 59.3872 61.2931 58.6643 61.5575 58.6056C61.6602 58.533 61.8117 58.6076 61.8628 58.7409L61.8666 58.7472C61.9844 58.8608 62.0431 59.032 62.1256 59.1772C62.1714 59.2507 62.1672 59.3238 62.1465 59.389C62.3855 59.8902 62.7712 60.6572 63.0724 61.2324C63.2465 61.0403 63.5529 61.4434 63.7102 61.6424C64.1459 62.1925 64.5595 62.7653 64.9652 63.3462C64.7168 62.8675 64.4631 62.3932 64.1815 61.9376C64.1011 61.8192 64.066 61.6509 64.1537 61.5453C64.3009 61.3625 64.5085 61.5467 64.612 61.7299C64.9538 62.2293 65.3038 62.7216 65.6545 63.2144C65.5277 62.9343 65.4047 62.6768 65.2897 62.4565C65.2318 62.3674 65.1746 62.2787 65.117 62.1888C65.1268 62.1911 65.136 62.193 65.1452 62.1949C65.1236 62.1581 65.0997 62.1116 65.0787 62.0789C65.0379 61.9121 65.1568 61.7512 65.3011 61.7592C65.5173 61.8425 65.6833 62.0938 65.8405 62.3606C65.7939 62.2359 65.7793 62.1125 65.8571 62.0046C65.9627 61.8725 66.149 61.9206 66.2627 62.0558C66.3485 62.1589 66.4264 62.2683 66.5081 62.3749C66.4222 62.1477 66.4156 61.9575 66.7047 61.8888C66.9053 61.9422 67.0536 62.1151 67.195 62.2995ZM60.3304 62.7585C59.2552 60.7607 58.1576 58.7789 56.9969 56.842C57.2392 57.2956 57.4805 57.7477 57.7288 58.1956C58.5999 59.7129 59.4634 61.2359 60.3304 62.7585Z" fill="url(#paint58_linear_2465_73)"/>
<path d="M66.6025 65.2433C66.5991 65.2377 66.5953 65.233 66.5923 65.2287C66.584 65.2187 66.578 65.2124 66.573 65.2058C66.5798 65.2148 66.5874 65.2243 66.6025 65.2433Z" fill="url(#paint59_linear_2465_73)"/>
<path d="M66.5741 65.2101C66.5611 65.1931 66.5586 65.1902 66.5741 65.2101V65.2101Z" fill="url(#paint60_linear_2465_73)"/>
<path d="M67.8935 107.199C68.1872 107.319 68.4939 107.387 68.793 107.377C69.4136 107.341 70.2171 107.05 70.6253 106.83C74.2756 104.465 75.8648 101.461 77.5943 97.3458C78.3301 95.4063 78.7459 93.2732 79.6818 91.457C81.0009 88.806 83.182 86.6094 85.9963 86.3279C81.4583 87.3916 80.5189 92.3349 79.3501 96.7298C80.1939 94.4625 80.8846 92.0255 82.3633 90.2626C81.0927 92.2064 80.8697 94.6546 80.3001 97.054C80.2486 97.2957 80.1837 97.5329 80.1237 97.7725C80.197 97.6275 80.2683 97.4868 80.3422 97.3404C80.0823 98.4493 79.7281 99.526 79.3202 100.57C79.5859 100.054 79.8404 99.5094 80.0879 98.8923C80.0326 99.1648 79.9525 99.4257 79.8806 99.6895C80.4992 98.3017 81.0318 96.83 81.4803 95.2906C81.0847 98.0671 80.5485 100.759 79.6076 103.043C80.5759 101.649 81.3667 100.174 81.9476 98.3605C81.7349 100.453 81.273 102.503 80.4241 104.294C81.1135 103.428 81.803 102.496 82.5081 101.478C81.5023 104.393 79.9819 107.247 77.8502 109.162C78.2122 108.828 78.5717 108.495 78.939 108.179C79.4841 107.706 81.4223 105.798 82.2393 104.397C81.6314 105.9 80.8478 107.286 79.8974 108.497C80.68 107.818 81.4651 107.145 82.2813 106.525C81.5872 107.634 80.7795 108.79 79.8619 109.793C80.7831 109.226 81.6952 108.644 82.56 107.978C81.8214 109.006 81.0207 110.026 80.0879 110.836C80.8019 110.448 81.5151 110.056 82.1977 109.606C81.537 110.409 80.7293 111.223 79.8289 111.806C80.6573 111.466 81.4834 111.118 82.3515 110.904C81.6159 111.532 80.816 112.156 79.9474 112.547C80.5025 112.445 81.0605 112.353 81.571 112.117C80.2452 113.344 78.2784 114.003 76.5338 113.197C77.1135 113.201 77.6776 113.088 78.2485 112.949C77.826 112.956 77.3902 112.891 76.938 112.728C77.0987 112.704 77.2554 112.665 77.4118 112.629C77.1342 112.634 76.8532 112.608 76.5684 112.542C76.8609 112.485 77.1081 112.4 77.3442 112.306C76.7825 112.433 76.198 112.48 75.6117 112.452C75.3004 112.508 74.9829 112.541 74.6558 112.536C74.7395 112.488 74.8179 112.433 74.9002 112.385C74.8895 112.382 74.8794 112.383 74.8697 112.382C74.8901 112.377 74.9106 112.369 74.931 112.366C75.1855 112.211 75.4409 112.058 75.6885 111.893C74.9852 112.156 74.239 112.288 73.4466 112.212C73.3125 112.208 73.1511 112.205 73.038 112.201C73.4583 112.107 74.2641 111.815 74.4643 111.729C75.7277 111.118 76.7899 110.14 77.8453 109.167C76.566 110.314 75.0661 111.123 73.3259 111.404C73.1009 111.438 72.8052 111.489 72.625 111.504C72.9694 111.326 73.3046 111.128 73.6293 110.91C74.2012 110.476 74.7419 110.038 75.2708 109.593C74.7202 109.851 74.1433 110.048 73.5396 110.161C73.2504 110.219 72.9261 110.274 72.6541 110.311C73.0633 110.098 73.4499 109.84 73.8301 109.572C74.2831 109.247 74.7129 108.865 75.1308 108.447C74.2042 108.945 73.1429 109.296 71.9161 109.464C71.6097 109.507 71.2194 109.557 70.958 109.571C71.5526 109.315 72.1209 108.998 72.6674 108.643C73.1101 108.362 73.5314 108.053 73.9422 107.73C73.7237 107.856 73.5029 107.977 73.2756 108.083C73.1423 108.146 72.9895 108.217 72.8825 108.261C73.2185 108.004 73.5421 107.726 73.8562 107.438C74.1877 107.091 74.5003 106.74 74.8032 106.384C73.9775 106.972 73.1009 107.477 72.1915 107.89C71.7345 108.086 71.2125 108.27 70.7775 108.427C71.2462 108.137 71.7058 107.83 72.1572 107.508C73.4848 106.542 74.544 105.537 75.4391 104.419C75.29 104.593 75.1427 104.768 74.9864 104.931C73.2722 106.485 70.4464 108.483 68.0354 107.292C67.9883 107.279 67.8307 107.162 67.8935 107.199Z" fill="url(#paint61_linear_2465_73)"/>
<path d="M83.1494 110.22C85.5199 108.717 87.3067 106.898 89.205 104.667C89.5949 104.161 89.9641 103.526 90.33 102.776C88.2884 105.394 85.6872 107.419 82.838 108.792C85.5762 107.016 88.1147 103.845 89.4507 101.2C89.9329 100.295 90.2451 99.2825 90.5763 98.2804C90.1348 99.2085 89.6721 100.168 89.1072 101.164C87.4138 103.785 85.4985 105.312 82.9676 106.889C85.4366 104.603 86.1925 102.748 87.5202 100.245C88.1285 98.6723 88.8283 97.0472 89.6906 95.5795C89.2992 96.1127 88.9101 96.7004 88.5136 97.3678C88.6646 97.0228 87.1346 99.967 86.4391 101.012C85.2942 102.533 84.105 104.021 82.7774 105.333C84.9622 102.457 85.6869 98.3792 87.4556 95.0976C85.6328 96.9741 84.1535 99.5054 82.751 102.971C83.5499 100.107 84.2125 96.9317 85.6633 94.4572C85.5787 94.5581 85.4912 94.6543 85.4089 94.7597C84.0619 96.4684 83.1253 98.1246 82.4352 100.473C82.654 98.6198 83.0903 96.8307 83.8079 95.2096C84.2865 94.0829 84.8541 93.0079 85.5602 92.0681C85.576 92.0394 85.584 92.0329 85.5962 92.0174C85.7104 91.7938 85.9835 91.4877 86.1026 91.3821C84.2159 92.5776 82.9851 94.3829 82.0572 96.8554C82.5004 94.0723 83.5961 91.3876 85.6557 89.8847C85.6976 89.8547 85.744 89.8279 85.7871 89.7969C83.999 90.5999 82.5672 91.9327 81.461 94.1388C82.3837 90.723 84.5631 88.4082 87.2302 87.3522C87.0696 87.3845 86.9102 87.4141 86.7496 87.452C85.1835 87.8125 83.9541 88.3447 82.7377 89.4772C83.9697 87.6376 85.8606 86.5782 87.8538 86.0187C88.5177 86.2193 89.0176 86.631 89.4756 87.2482C90.4318 88.5346 91.1463 90.0417 91.8728 91.4871C91.8982 91.5361 91.9318 91.5633 91.9648 91.5881C92.272 92.1696 92.5765 92.7512 92.885 93.3317C93.2655 94.0493 93.6315 94.7818 93.8654 95.5682C94.1841 96.6373 94.2647 97.7347 94.3188 98.8266C94.3115 98.9805 94.3114 99.1374 94.3009 99.2909C93.6091 105.333 88.6625 108.71 84.2219 110.816C85.679 109.859 87.057 108.761 88.2857 107.536C86.653 108.585 84.8719 109.376 83.1494 110.22Z" fill="url(#paint62_linear_2465_73)"/>
<path d="M69.3884 99.8624C70.6027 99.0654 72.0578 98.9207 73.4796 98.8C73.5276 98.8 73.7261 98.761 73.6323 98.7977C73.2281 98.9773 72.9075 99.1315 72.4972 99.3263C71.1315 100.003 69.7613 100.683 68.4606 101.494C67.6761 102.028 67.0097 102.593 66.5704 103.555C67.0875 101.98 68.1776 100.736 69.3884 99.8624Z" fill="url(#paint63_linear_2465_73)"/>
<path d="M71.5401 99.9336C72.0477 99.7879 72.5822 99.7026 73.1094 99.6704C73.0705 99.6923 73.0328 99.715 72.9954 99.737C71.0144 101.07 69.778 101.297 67.9109 102.506C68.8549 101.268 70.099 100.317 71.5401 99.9336Z" fill="url(#paint64_linear_2465_73)"/>
<path d="M69.6029 101.785C69.4872 101.82 69.3725 101.857 69.2556 101.891C70.336 101.022 71.5867 100.378 72.9704 100.369C72.4793 100.692 71.9584 100.94 71.4251 101.158C71.466 101.154 71.5098 101.144 71.552 101.141C72.0836 100.875 72.6415 100.686 73.1804 100.603C72.9489 100.828 72.7003 101.014 72.4393 101.176C72.9056 100.977 73.3655 100.824 73.7781 100.753C73.7665 100.763 73.7539 100.772 73.7427 100.784C73.7823 100.761 73.8219 100.739 73.8612 100.717C74.2656 100.229 74.6576 99.6905 75.0461 99.0552C74.9733 99.5742 74.8461 100.035 74.6735 100.446C74.4028 101.302 74.0607 102.131 73.531 102.79C72.9662 103.46 72.2133 103.875 71.4618 104.236C71.9808 103.755 72.4337 103.194 72.8655 102.607C72.1924 103.069 71.4205 103.412 70.6237 103.708C71.3648 103.122 72.0251 102.585 72.6418 102.008C72.1618 102.251 71.6389 102.409 71.0915 102.461C71.4201 102.268 71.7484 102.057 72.0763 101.843C71.5388 102.055 70.9727 102.198 70.4026 102.299C70.7099 102.091 71.0497 101.882 71.4045 101.686C70.9652 101.862 70.5132 102.008 70.0655 102.162C70.4889 101.771 70.9861 101.431 71.5079 101.163C70.8478 101.539 70.1118 101.716 69.3892 101.921C69.4538 101.871 69.5311 101.832 69.6029 101.785Z" fill="url(#paint65_linear_2465_73)"/>
<path d="M34.3413 10.1312C32.2554 11.4547 30.3882 13.1867 28.4927 14.7949C30.0666 12.7272 32.0581 11.101 34.3413 10.1312Z" fill="url(#paint66_linear_2465_73)"/>
<path d="M32.8774 11.621C31.9902 12.4314 31.0066 13.0939 30.0684 13.8242C30.8505 12.8925 31.8748 12.1337 32.8774 11.621Z" fill="url(#paint67_linear_2465_73)"/>
<path d="M32.0579 12.7338C31.7495 13.0117 31.4152 13.2484 31.0737 13.4727C31.362 13.1771 31.7219 12.9182 32.0579 12.7338Z" fill="url(#paint68_linear_2465_73)"/>
<path d="M42.385 7.42815C40.5883 7.64584 38.8475 7.87591 37.066 8.42383C38.6704 7.53331 40.5896 7.1214 42.385 7.42815Z" fill="url(#paint69_linear_2465_73)"/>
<path d="M41.4567 7.90924C40.5837 8.09646 39.6916 8.18375 38.7992 8.27539C39.6349 7.9564 40.5504 7.82706 41.4567 7.90924Z" fill="url(#paint70_linear_2465_73)"/>
<path d="M41.1094 8.3624C40.599 8.45934 40.1224 8.50978 39.5862 8.49414C40.0734 8.3801 40.615 8.29942 41.1094 8.3624Z" fill="url(#paint71_linear_2465_73)"/>
<path d="M26.6758 17.0041C26.2227 18.0588 25.7514 19.1434 25.417 20.2473C25.5174 19.0282 26.0173 17.8784 26.6758 17.0041Z" fill="url(#paint72_linear_2465_73)"/>
<path d="M26.3982 18.5991C26.2997 18.8409 26.1783 19.067 26.0467 19.2843C26.123 19.0387 26.2665 18.7652 26.3982 18.5991Z" fill="url(#paint73_linear_2465_73)"/>
<path d="M26.552 19.3717C26.5163 19.4713 26.469 19.5611 26.4207 19.6513C26.4474 19.5521 26.5034 19.4416 26.552 19.3717Z" fill="url(#paint74_linear_2465_73)"/>
<path d="M61.2448 44.6785C56.4069 42.9265 51.6318 40.8381 46.7783 39.1738C51.6932 40.356 56.5836 42.4326 61.2448 44.6785Z" fill="url(#paint75_linear_2465_73)"/>
<path d="M60.1715 45.6784C56.5355 44.5635 52.9781 43.0365 49.3818 41.7207C53.0535 42.52 56.6466 44.0593 60.1715 45.6784Z" fill="url(#paint76_linear_2465_73)"/>
<path d="M75.6874 86.3177C69.7233 83.7297 63.5849 81.7109 57.7942 78.4824C63.732 81.0523 70.0336 83.0642 75.6874 86.3177Z" fill="url(#paint77_linear_2465_73)"/>
<path d="M71.9629 87.0823C68.894 85.9241 65.8862 84.5323 62.9313 83.1777C66.0237 84.0745 69.0418 85.4708 71.9629 87.0823Z" fill="url(#paint78_linear_2465_73)"/>
<path d="M49.677 56.1014C48.1144 55.6639 46.5767 55.0863 45.0579 54.416C46.607 54.8576 48.1986 55.4457 49.677 56.1014Z" fill="url(#paint79_linear_2465_73)"/>
<path d="M47.9833 56.8015C47.7008 56.7273 47.4232 56.6227 47.1517 56.4922C47.4296 56.5658 47.7266 56.6749 47.9833 56.8015Z" fill="url(#paint80_linear_2465_73)"/>
<path d="M78.5653 72.8251C76.602 72.1085 74.6496 71.3252 72.7711 70.2773C74.7557 70.8999 76.6899 71.7706 78.5653 72.8251Z" fill="url(#paint81_linear_2465_73)"/>
<path d="M77.6928 74.2587C76.583 73.8332 75.4904 73.326 74.4355 72.7109C75.5359 73.1036 76.7043 73.6532 77.6928 74.2587Z" fill="url(#paint82_linear_2465_73)"/>
<path d="M47.5109 32.6445C44.2772 31.9073 41.1429 30.9913 37.947 30.7695C41.1353 30.5568 44.3964 31.5752 47.5109 32.6445Z" fill="url(#paint83_linear_2465_73)"/>
<path d="M40.0601 32.7268C39.6087 32.664 39.1556 32.5598 38.6998 32.3945C39.1477 32.4414 39.654 32.5601 40.0601 32.7268Z" fill="url(#paint84_linear_2465_73)"/>
<defs>
<linearGradient id="paint0_linear_2465_73" x1="20.9882" y1="29.3173" x2="112.039" y2="70.9984" gradientUnits="userSpaceOnUse">
<stop stop-color="#7086D9"/>
<stop offset="1" stop-color="#E8BEC0"/>
</linearGradient>
<linearGradient id="paint1_linear_2465_73" x1="46.0438" y1="16.702" x2="46.6603" y2="16.9838" gradientUnits="userSpaceOnUse">
<stop stop-color="#7086D9"/>
<stop offset="1" stop-color="#E8BEC0"/>
</linearGradient>
<linearGradient id="paint2_linear_2465_73" x1="45.0808" y1="20.6606" x2="58.3845" y2="26.7648" gradientUnits="userSpaceOnUse">
<stop stop-color="#7086D9"/>
<stop offset="1" stop-color="#E8BEC0"/>
</linearGradient>
<linearGradient id="paint3_linear_2465_73" x1="55.1289" y1="34.8104" x2="74.4245" y2="43.6899" gradientUnits="userSpaceOnUse">
<stop stop-color="#7086D9"/>
<stop offset="1" stop-color="#E8BEC0"/>
</linearGradient>
<linearGradient id="paint4_linear_2465_73" x1="68.2823" y1="56.8645" x2="90.2644" y2="66.934" gradientUnits="userSpaceOnUse">
<stop stop-color="#7086D9"/>
<stop offset="1" stop-color="#E8BEC0"/>
</linearGradient>
<linearGradient id="paint5_linear_2465_73" x1="85.311" y1="77.486" x2="85.9323" y2="77.77" gradientUnits="userSpaceOnUse">
<stop stop-color="#7086D9"/>
<stop offset="1" stop-color="#E8BEC0"/>
</linearGradient>
<linearGradient id="paint6_linear_2465_73" x1="79.9535" y1="90.7669" x2="96.0155" y2="98.1129" gradientUnits="userSpaceOnUse">
<stop stop-color="#7086D9"/>
<stop offset="1" stop-color="#E8BEC0"/>
</linearGradient>
<linearGradient id="paint7_linear_2465_73" x1="14.9241" y1="36.1649" x2="104.934" y2="77.3462" gradientUnits="userSpaceOnUse">
<stop stop-color="#7086D9"/>
<stop offset="1" stop-color="#E8BEC0"/>
</linearGradient>
<linearGradient id="paint8_linear_2465_73" x1="30.5905" y1="27.9308" x2="31.2069" y2="28.2125" gradientUnits="userSpaceOnUse">
<stop stop-color="#7086D9"/>
<stop offset="1" stop-color="#E8BEC0"/>
</linearGradient>
<linearGradient id="paint9_linear_2465_73" x1="29.2745" y1="32.8917" x2="41.2742" y2="38.381" gradientUnits="userSpaceOnUse">
<stop stop-color="#7086D9"/>
<stop offset="1" stop-color="#E8BEC0"/>
</linearGradient>
<linearGradient id="paint10_linear_2465_73" x1="34.4142" y1="52.0553" x2="50.3487" y2="59.3397" gradientUnits="userSpaceOnUse">
<stop stop-color="#7086D9"/>
<stop offset="1" stop-color="#E8BEC0"/>
</linearGradient>
<linearGradient id="paint11_linear_2465_73" x1="42.9399" y1="75.209" x2="65.0176" y2="85.3238" gradientUnits="userSpaceOnUse">
<stop stop-color="#7086D9"/>
<stop offset="1" stop-color="#E8BEC0"/>
</linearGradient>
<linearGradient id="paint12_linear_2465_73" x1="60.2853" y1="95.6646" x2="60.9077" y2="95.949" gradientUnits="userSpaceOnUse">
<stop stop-color="#7086D9"/>
<stop offset="1" stop-color="#E8BEC0"/>
</linearGradient>
<linearGradient id="paint13_linear_2465_73" x1="64.4697" y1="88.5099" x2="91.3695" y2="100.803" gradientUnits="userSpaceOnUse">
<stop stop-color="#7086D9"/>
<stop offset="1" stop-color="#E8BEC0"/>
</linearGradient>
<linearGradient id="paint14_linear_2465_73" x1="41.639" y1="10.5937" x2="46.4313" y2="12.7837" gradientUnits="userSpaceOnUse">
<stop stop-color="#7086D9"/>
<stop offset="1" stop-color="#E8BEC0"/>
</linearGradient>
<linearGradient id="paint15_linear_2465_73" x1="41.8129" y1="11.9102" x2="45.6319" y2="13.6555" gradientUnits="userSpaceOnUse">
<stop stop-color="#7086D9"/>
<stop offset="1" stop-color="#E8BEC0"/>
</linearGradient>
<linearGradient id="paint16_linear_2465_73" x1="42.4305" y1="14.0103" x2="44.6001" y2="15.0018" gradientUnits="userSpaceOnUse">
<stop stop-color="#7086D9"/>
<stop offset="1" stop-color="#E8BEC0"/>
</linearGradient>
<linearGradient id="paint17_linear_2465_73" x1="42.6969" y1="15.3949" x2="43.7526" y2="15.8773" gradientUnits="userSpaceOnUse">
<stop stop-color="#7086D9"/>
<stop offset="1" stop-color="#E8BEC0"/>
</linearGradient>
<linearGradient id="paint18_linear_2465_73" x1="35.3006" y1="12.3043" x2="42.2132" y2="15.4661" gradientUnits="userSpaceOnUse">
<stop stop-color="#7086D9"/>
<stop offset="1" stop-color="#E8BEC0"/>
</linearGradient>
<linearGradient id="paint19_linear_2465_73" x1="36.2826" y1="14.4435" x2="41.3548" y2="16.763" gradientUnits="userSpaceOnUse">
<stop stop-color="#7086D9"/>
<stop offset="1" stop-color="#E8BEC0"/>
</linearGradient>
<linearGradient id="paint20_linear_2465_73" x1="36.8872" y1="16.0283" x2="40.5359" y2="17.6961" gradientUnits="userSpaceOnUse">
<stop stop-color="#7086D9"/>
<stop offset="1" stop-color="#E8BEC0"/>
</linearGradient>
<linearGradient id="paint21_linear_2465_73" x1="37.098" y1="17.1828" x2="39.9354" y2="18.4797" gradientUnits="userSpaceOnUse">
<stop stop-color="#7086D9"/>
<stop offset="1" stop-color="#E8BEC0"/>
</linearGradient>
<linearGradient id="paint22_linear_2465_73" x1="37.3772" y1="18.4963" x2="39.2497" y2="19.3522" gradientUnits="userSpaceOnUse">
<stop stop-color="#7086D9"/>
<stop offset="1" stop-color="#E8BEC0"/>
</linearGradient>
<linearGradient id="paint23_linear_2465_73" x1="37.6138" y1="19.5299" x2="38.2923" y2="19.8401" gradientUnits="userSpaceOnUse">
<stop stop-color="#7086D9"/>
<stop offset="1" stop-color="#E8BEC0"/>
</linearGradient>
<linearGradient id="paint24_linear_2465_73" x1="37.6436" y1="14.5333" x2="42.1284" y2="16.5852" gradientUnits="userSpaceOnUse">
<stop stop-color="#7086D9"/>
<stop offset="1" stop-color="#E8BEC0"/>
</linearGradient>
<linearGradient id="paint25_linear_2465_73" x1="39.9581" y1="16.8436" x2="41.6167" y2="17.6021" gradientUnits="userSpaceOnUse">
<stop stop-color="#7086D9"/>
<stop offset="1" stop-color="#E8BEC0"/>
</linearGradient>
<linearGradient id="paint26_linear_2465_73" x1="40.7294" y1="17.1885" x2="41.5073" y2="17.5441" gradientUnits="userSpaceOnUse">
<stop stop-color="#7086D9"/>
<stop offset="1" stop-color="#E8BEC0"/>
</linearGradient>
<linearGradient id="paint27_linear_2465_73" x1="41.3481" y1="17.5539" x2="41.6072" y2="17.6723" gradientUnits="userSpaceOnUse">
<stop stop-color="#7086D9"/>
<stop offset="1" stop-color="#E8BEC0"/>
</linearGradient>
<linearGradient id="paint28_linear_2465_73" x1="27.0723" y1="18.1511" x2="34.535" y2="21.5782" gradientUnits="userSpaceOnUse">
<stop stop-color="#7086D9"/>
<stop offset="1" stop-color="#E8BEC0"/>
</linearGradient>
<linearGradient id="paint29_linear_2465_73" x1="28.6268" y1="19.0806" x2="34.6813" y2="21.8621" gradientUnits="userSpaceOnUse">
<stop stop-color="#7086D9"/>
<stop offset="1" stop-color="#E8BEC0"/>
</linearGradient>
<linearGradient id="paint30_linear_2465_73" x1="30.2692" y1="20.0187" x2="34.8572" y2="22.1277" gradientUnits="userSpaceOnUse">
<stop stop-color="#7086D9"/>
<stop offset="1" stop-color="#E8BEC0"/>
</linearGradient>
<linearGradient id="paint31_linear_2465_73" x1="31.6129" y1="20.6147" x2="35.1173" y2="22.2259" gradientUnits="userSpaceOnUse">
<stop stop-color="#7086D9"/>
<stop offset="1" stop-color="#E8BEC0"/>
</linearGradient>
<linearGradient id="paint32_linear_2465_73" x1="33.0936" y1="21.4146" x2="35.2011" y2="22.3832" gradientUnits="userSpaceOnUse">
<stop stop-color="#7086D9"/>
<stop offset="1" stop-color="#E8BEC0"/>
</linearGradient>
<linearGradient id="paint33_linear_2465_73" x1="34.0745" y1="21.7571" x2="35.3274" y2="22.3324" gradientUnits="userSpaceOnUse">
<stop stop-color="#7086D9"/>
<stop offset="1" stop-color="#E8BEC0"/>
</linearGradient>
<linearGradient id="paint34_linear_2465_73" x1="34.8346" y1="21.9437" x2="35.4833" y2="22.2414" gradientUnits="userSpaceOnUse">
<stop stop-color="#7086D9"/>
<stop offset="1" stop-color="#E8BEC0"/>
</linearGradient>
<linearGradient id="paint35_linear_2465_73" x1="28.0972" y1="20.0134" x2="33.8209" y2="22.6392" gradientUnits="userSpaceOnUse">
<stop stop-color="#7086D9"/>
<stop offset="1" stop-color="#E8BEC0"/>
</linearGradient>
<linearGradient id="paint36_linear_2465_73" x1="29.4473" y1="22.0424" x2="33.0018" y2="23.6722" gradientUnits="userSpaceOnUse">
<stop stop-color="#7086D9"/>
<stop offset="1" stop-color="#E8BEC0"/>
</linearGradient>
<linearGradient id="paint37_linear_2465_73" x1="30.4102" y1="23.4987" x2="32.255" y2="24.3446" gradientUnits="userSpaceOnUse">
<stop stop-color="#7086D9"/>
<stop offset="1" stop-color="#E8BEC0"/>
</linearGradient>
<linearGradient id="paint38_linear_2465_73" x1="30.6349" y1="24.4084" x2="31.9331" y2="25.0037" gradientUnits="userSpaceOnUse">
<stop stop-color="#7086D9"/>
<stop offset="1" stop-color="#E8BEC0"/>
</linearGradient>
<linearGradient id="paint39_linear_2465_73" x1="25.5295" y1="22.0988" x2="31.0129" y2="24.6269" gradientUnits="userSpaceOnUse">
<stop stop-color="#7086D9"/>
<stop offset="1" stop-color="#E8BEC0"/>
</linearGradient>
<linearGradient id="paint40_linear_2465_73" x1="28.3972" y1="24.0253" x2="31.1514" y2="25.2939" gradientUnits="userSpaceOnUse">
<stop stop-color="#7086D9"/>
<stop offset="1" stop-color="#E8BEC0"/>
</linearGradient>
<linearGradient id="paint41_linear_2465_73" x1="29.4301" y1="24.4049" x2="31.3443" y2="25.2855" gradientUnits="userSpaceOnUse">
<stop stop-color="#7086D9"/>
<stop offset="1" stop-color="#E8BEC0"/>
</linearGradient>
<linearGradient id="paint42_linear_2465_73" x1="30.1841" y1="24.5453" x2="31.6322" y2="25.2098" gradientUnits="userSpaceOnUse">
<stop stop-color="#7086D9"/>
<stop offset="1" stop-color="#E8BEC0"/>
</linearGradient>
<linearGradient id="paint43_linear_2465_73" x1="32.6247" y1="21.2156" x2="43.2182" y2="26.0567" gradientUnits="userSpaceOnUse">
<stop stop-color="#7086D9"/>
<stop offset="1" stop-color="#E8BEC0"/>
</linearGradient>
<linearGradient id="paint44_linear_2465_73" x1="39.8213" y1="21.9619" x2="39.8983" y2="21.9971" gradientUnits="userSpaceOnUse">
<stop stop-color="#7086D9"/>
<stop offset="1" stop-color="#E8BEC0"/>
</linearGradient>
<linearGradient id="paint45_linear_2465_73" x1="37.5571" y1="21.7428" x2="37.6111" y2="21.7676" gradientUnits="userSpaceOnUse">
<stop stop-color="#7086D9"/>
<stop offset="1" stop-color="#E8BEC0"/>
</linearGradient>
<linearGradient id="paint46_linear_2465_73" x1="54.1345" y1="53.356" x2="69.4928" y2="60.461" gradientUnits="userSpaceOnUse">
<stop stop-color="#7086D9"/>
<stop offset="1" stop-color="#E8BEC0"/>
</linearGradient>
<linearGradient id="paint47_linear_2465_73" x1="65.0567" y1="67.9255" x2="73.6097" y2="71.8383" gradientUnits="userSpaceOnUse">
<stop stop-color="#7086D9"/>
<stop offset="1" stop-color="#E8BEC0"/>
</linearGradient>
<linearGradient id="paint48_linear_2465_73" x1="51.272" y1="59.1817" x2="59.8242" y2="63.0942" gradientUnits="userSpaceOnUse">
<stop stop-color="#7086D9"/>
<stop offset="1" stop-color="#E8BEC0"/>
</linearGradient>
<linearGradient id="paint49_linear_2465_73" x1="55.8985" y1="69.4748" x2="71.2571" y2="76.5799" gradientUnits="userSpaceOnUse">
<stop stop-color="#7086D9"/>
<stop offset="1" stop-color="#E8BEC0"/>
</linearGradient>
<linearGradient id="paint50_linear_2465_73" x1="58.0284" y1="32.8805" x2="68.7399" y2="37.819" gradientUnits="userSpaceOnUse">
<stop stop-color="#7086D9"/>
<stop offset="1" stop-color="#E8BEC0"/>
</linearGradient>
<linearGradient id="paint51_linear_2465_73" x1="74.332" y1="61.7248" x2="87.5114" y2="67.7655" gradientUnits="userSpaceOnUse">
<stop stop-color="#7086D9"/>
<stop offset="1" stop-color="#E8BEC0"/>
</linearGradient>
<linearGradient id="paint52_linear_2465_73" x1="86.8541" y1="85.1099" x2="98.561" y2="90.472" gradientUnits="userSpaceOnUse">
<stop stop-color="#7086D9"/>
<stop offset="1" stop-color="#E8BEC0"/>
</linearGradient>
<linearGradient id="paint53_linear_2465_73" x1="59.8064" y1="102.03" x2="70.8253" y2="107.075" gradientUnits="userSpaceOnUse">
<stop stop-color="#7086D9"/>
<stop offset="1" stop-color="#E8BEC0"/>
</linearGradient>
<linearGradient id="paint54_linear_2465_73" x1="34.4103" y1="52.2552" x2="45.9388" y2="57.5257" gradientUnits="userSpaceOnUse">
<stop stop-color="#7086D9"/>
<stop offset="1" stop-color="#E8BEC0"/>
</linearGradient>
<linearGradient id="paint55_linear_2465_73" x1="52.6626" y1="60.3823" x2="72.5903" y2="69.5055" gradientUnits="userSpaceOnUse">
<stop stop-color="#7086D9"/>
<stop offset="1" stop-color="#E8BEC0"/>
</linearGradient>
<linearGradient id="paint56_linear_2465_73" x1="59.2879" y1="70.5036" x2="59.3223" y2="70.5193" gradientUnits="userSpaceOnUse">
<stop stop-color="#7086D9"/>
<stop offset="1" stop-color="#E8BEC0"/>
</linearGradient>
<linearGradient id="paint57_linear_2465_73" x1="59.2855" y1="70.485" x2="59.2984" y2="70.4909" gradientUnits="userSpaceOnUse">
<stop stop-color="#7086D9"/>
<stop offset="1" stop-color="#E8BEC0"/>
</linearGradient>
<linearGradient id="paint58_linear_2465_73" x1="53.1419" y1="59.3555" x2="73.0833" y2="68.4852" gradientUnits="userSpaceOnUse">
<stop stop-color="#7086D9"/>
<stop offset="1" stop-color="#E8BEC0"/>
</linearGradient>
<linearGradient id="paint59_linear_2465_73" x1="66.5701" y1="65.2123" x2="66.6086" y2="65.23" gradientUnits="userSpaceOnUse">
<stop stop-color="#7086D9"/>
<stop offset="1" stop-color="#E8BEC0"/>
</linearGradient>
<linearGradient id="paint60_linear_2465_73" x1="66.5622" y1="65.1987" x2="66.5763" y2="65.2052" gradientUnits="userSpaceOnUse">
<stop stop-color="#7086D9"/>
<stop offset="1" stop-color="#E8BEC0"/>
</linearGradient>
<linearGradient id="paint61_linear_2465_73" x1="73.4441" y1="95.0436" x2="86.8118" y2="101.167" gradientUnits="userSpaceOnUse">
<stop stop-color="#7086D9"/>
<stop offset="1" stop-color="#E8BEC0"/>
</linearGradient>
<linearGradient id="paint62_linear_2465_73" x1="80.4352" y1="94.5112" x2="94.2318" y2="100.821" gradientUnits="userSpaceOnUse">
<stop stop-color="#7086D9"/>
<stop offset="1" stop-color="#E8BEC0"/>
</linearGradient>
<linearGradient id="paint63_linear_2465_73" x1="68.2208" y1="99.8528" x2="72.3109" y2="101.725" gradientUnits="userSpaceOnUse">
<stop stop-color="#7086D9"/>
<stop offset="1" stop-color="#E8BEC0"/>
</linearGradient>
<linearGradient id="paint64_linear_2465_73" x1="69.0304" y1="100.058" x2="72.2571" y2="101.534" gradientUnits="userSpaceOnUse">
<stop stop-color="#7086D9"/>
<stop offset="1" stop-color="#E8BEC0"/>
</linearGradient>
<linearGradient id="paint65_linear_2465_73" x1="70.2964" y1="99.6146" x2="74.3102" y2="101.45" gradientUnits="userSpaceOnUse">
<stop stop-color="#7086D9"/>
<stop offset="1" stop-color="#E8BEC0"/>
</linearGradient>
<linearGradient id="paint66_linear_2465_73" x1="30.0097" y1="11.4856" x2="33.0761" y2="12.8912" gradientUnits="userSpaceOnUse">
<stop stop-color="#7086D9"/>
<stop offset="1" stop-color="#E8BEC0"/>
</linearGradient>
<linearGradient id="paint67_linear_2465_73" x1="30.7906" y1="12.2486" x2="32.2774" y2="12.9301" gradientUnits="userSpaceOnUse">
<stop stop-color="#7086D9"/>
<stop offset="1" stop-color="#E8BEC0"/>
</linearGradient>
<linearGradient id="paint68_linear_2465_73" x1="31.3209" y1="12.9331" x2="31.8546" y2="13.1776" gradientUnits="userSpaceOnUse">
<stop stop-color="#7086D9"/>
<stop offset="1" stop-color="#E8BEC0"/>
</linearGradient>
<linearGradient id="paint69_linear_2465_73" x1="37.8807" y1="6.64121" x2="41.9042" y2="8.48015" gradientUnits="userSpaceOnUse">
<stop stop-color="#7086D9"/>
<stop offset="1" stop-color="#E8BEC0"/>
</linearGradient>
<linearGradient id="paint70_linear_2465_73" x1="39.1835" y1="7.43468" x2="41.2432" y2="8.37628" gradientUnits="userSpaceOnUse">
<stop stop-color="#7086D9"/>
<stop offset="1" stop-color="#E8BEC0"/>
</linearGradient>
<linearGradient id="paint71_linear_2465_73" x1="39.7929" y1="8.04203" x2="41.0029" y2="8.59533" gradientUnits="userSpaceOnUse">
<stop stop-color="#7086D9"/>
<stop offset="1" stop-color="#E8BEC0"/>
</linearGradient>
<linearGradient id="paint72_linear_2465_73" x1="25.8341" y1="18.4802" x2="26.1665" y2="18.6347" gradientUnits="userSpaceOnUse">
<stop stop-color="#7086D9"/>
<stop offset="1" stop-color="#E8BEC0"/>
</linearGradient>
<linearGradient id="paint73_linear_2465_73" x1="26.1944" y1="18.9225" x2="26.2423" y2="18.9448" gradientUnits="userSpaceOnUse">
<stop stop-color="#7086D9"/>
<stop offset="1" stop-color="#E8BEC0"/>
</linearGradient>
<linearGradient id="paint74_linear_2465_73" x1="26.4762" y1="19.5045" x2="26.4926" y2="19.5122" gradientUnits="userSpaceOnUse">
<stop stop-color="#7086D9"/>
<stop offset="1" stop-color="#E8BEC0"/>
</linearGradient>
<linearGradient id="paint75_linear_2465_73" x1="47.5622" y1="37.4755" x2="61.5825" y2="43.9468" gradientUnits="userSpaceOnUse">
<stop stop-color="#7086D9"/>
<stop offset="1" stop-color="#E8BEC0"/>
</linearGradient>
<linearGradient id="paint76_linear_2465_73" x1="49.9927" y1="40.3966" x2="60.3944" y2="45.1953" gradientUnits="userSpaceOnUse">
<stop stop-color="#7086D9"/>
<stop offset="1" stop-color="#E8BEC0"/>
</linearGradient>
<linearGradient id="paint77_linear_2465_73" x1="58.5812" y1="76.7813" x2="76.3056" y2="84.9814" gradientUnits="userSpaceOnUse">
<stop stop-color="#7086D9"/>
<stop offset="1" stop-color="#E8BEC0"/>
</linearGradient>
<linearGradient id="paint78_linear_2465_73" x1="63.3375" y1="82.2995" x2="72.2651" y2="86.4288" gradientUnits="userSpaceOnUse">
<stop stop-color="#7086D9"/>
<stop offset="1" stop-color="#E8BEC0"/>
</linearGradient>
<linearGradient id="paint79_linear_2465_73" x1="45.321" y1="53.8457" x2="49.7707" y2="55.8984" gradientUnits="userSpaceOnUse">
<stop stop-color="#7086D9"/>
<stop offset="1" stop-color="#E8BEC0"/>
</linearGradient>
<linearGradient id="paint80_linear_2465_73" x1="47.1981" y1="56.3918" x2="48.0013" y2="56.7624" gradientUnits="userSpaceOnUse">
<stop stop-color="#7086D9"/>
<stop offset="1" stop-color="#E8BEC0"/>
</linearGradient>
<linearGradient id="paint81_linear_2465_73" x1="73.0241" y1="69.7306" x2="78.7675" y2="72.388" gradientUnits="userSpaceOnUse">
<stop stop-color="#7086D9"/>
<stop offset="1" stop-color="#E8BEC0"/>
</linearGradient>
<linearGradient id="paint82_linear_2465_73" x1="74.5571" y1="72.4487" x2="77.8289" y2="73.965" gradientUnits="userSpaceOnUse">
<stop stop-color="#7086D9"/>
<stop offset="1" stop-color="#E8BEC0"/>
</linearGradient>
<linearGradient id="paint83_linear_2465_73" x1="38.7754" y1="28.965" x2="47.3855" y2="32.9178" gradientUnits="userSpaceOnUse">
<stop stop-color="#7086D9"/>
<stop offset="1" stop-color="#E8BEC0"/>
</linearGradient>
<linearGradient id="paint84_linear_2465_73" x1="38.8062" y1="32.1631" x2="40.0553" y2="32.7373" gradientUnits="userSpaceOnUse">
<stop stop-color="#7086D9"/>
<stop offset="1" stop-color="#E8BEC0"/>
</linearGradient>
</defs>
</svg>
