<svg width="72" height="72" viewBox="0 0 72 72" fill="none" xmlns="http://www.w3.org/2000/svg">
<path d="M68.9684 49.5798C71.4433 44.1045 71.4235 37.6487 70.5488 31.7752C69.7025 24.9714 66.9592 18.4178 62.6057 13.1568C58.8145 9.20996 54.4028 5.68152 49.5438 3.17683C41.6844 -0.634842 32.6693 -0.591675 24.3656 1.6197C22.5651 2.15888 20.7078 2.74838 18.9187 3.48311C18.5438 3.58663 18.1718 3.70163 17.8069 3.83967C17.6166 3.88136 17.5059 3.99641 17.4505 4.13444C15.6089 5.01296 13.8808 6.0942 12.441 7.53633C12.3657 7.63411 12.1854 7.81385 12.0349 8.01514C12.0249 8.02233 12.0122 8.02663 12.0022 8.03239C11.4967 8.261 11.741 9.0978 12.2777 9.01584C12.6682 8.93964 12.9834 8.62477 13.3583 8.4853C13.5769 8.39041 14.0015 8.19915 13.9319 8.23941C16.4111 7.3307 18.7739 7.02157 21.1963 6.98706C32.5799 7.0647 43.2705 15.3365 45.0923 26.8794C45.6886 30.0714 45.4813 33.1152 44.3298 36.254C44.3085 36.3086 44.3142 36.3661 44.3085 36.4222C44.0259 37.0937 43.7703 37.699 43.3884 38.4927C42.5534 40.4711 40.8737 43.006 39.1641 44.8896C37.2954 47.0521 33.5539 49.5913 30.7311 50.5762C24.0305 52.6351 16.573 51.1858 10.8194 47.5222C7.11057 45.1743 4.26502 42.1936 1.72903 38.4654C1.39108 38.0886 1.10283 37.4215 0.59024 37.3137C0.18698 37.2806 -0.0558172 37.7781 0.175631 38.0973C0.147233 38.1404 0.107464 38.1735 0.097524 38.231C0.246617 39.3295 0.482329 40.4366 0.722297 41.5236C3.02826 51.7595 9.75306 60.7445 18.7228 65.9623C23.8771 68.9861 29.6534 71.2708 35.6938 71.0939C44.4093 70.7603 53.0382 67.2276 59.9121 61.8616C62.6171 59.3239 65.18 56.5403 67.131 53.3598C67.7771 52.152 68.524 50.8997 68.9684 49.5798ZM14.9983 6.85625C15.9425 6.25093 17.0245 5.6226 18.0114 5.02734C18.5055 4.79153 19.0209 4.60605 19.525 4.39469C24.029 3.4486 28.8 3.58516 33.2174 4.6319C39.9876 6.42487 46.0252 10.2495 50.4326 15.5953C56.7826 23.7348 59.8013 34.3359 56.3523 44.1793C56.2657 44.2224 56.1905 44.2957 56.1521 44.4136C54.204 48.8306 50.7266 53.4346 46.3702 56.4827C40.1765 60.4957 31.549 62.4166 23.7394 61.1729C16.9351 59.9177 9.41794 56.2225 5.21353 50.4597C3.31934 47.0449 1.90937 43.3252 1.13409 39.3884C2.01587 40.602 3.04105 42.024 4.08328 43.0923C10.6079 50.2484 19.5279 53.6776 29.0811 52.0269C36.5968 50.083 42.8076 44.2152 45.284 36.7917C45.3266 36.7299 45.3763 36.6695 45.4032 36.5977C46.055 34.7012 46.383 32.694 46.3745 30.6853C46.2992 24.9987 44.2645 19.1812 40.4931 14.9325C34.1872 8.38606 23.8885 4.18621 14.9983 6.85625ZM69.1274 42.0786C68.7966 44.1706 68.4217 46.4309 67.743 48.6178C64.2769 56.9745 57.7169 63.0392 48.919 66.6266C42.7934 69.3944 35.2152 70.4656 28.8724 68.8984C20.4707 66.7718 13.1439 61.6733 8.02501 54.812C9.24331 55.8645 10.5638 56.7947 11.8943 57.6905C24.1639 65.1212 42.1885 64.2427 51.8795 52.8982C53.6545 50.9025 55.1539 48.6437 56.3012 46.221C56.3182 46.2138 56.3339 46.2196 56.3481 46.2095C57.6175 44.0758 58.0548 41.4819 58.593 39.0664C59.0374 36.0929 58.8883 33.0146 58.3502 30.0613C55.5359 15.0317 42.3774 3.57079 27.3389 2.72391C26.2413 2.76417 25.1238 2.77713 24.0021 2.81882C26.2498 2.18762 28.5685 1.72466 30.9625 1.38964C37.0129 0.524072 44.1196 1.51472 49.619 4.20202C56.128 7.74482 61.9468 12.7168 65.261 19.1237C69.0976 26.2669 70.4025 34.0613 69.1274 42.0786Z" fill="url(#paint0_linear_2465_214)"/>
<path d="M57.5999 59.709C55.5921 61.5551 53.3571 63.118 50.9972 64.4768C53.4807 63.4387 55.8733 62.2237 57.9251 60.4897C54.902 63.6687 50.878 65.5365 46.9348 67.2676C42.8369 69.0347 38.4834 70.3431 34.0589 70.9125C33.2339 70.7644 32.399 70.658 31.5655 70.5286C30.0035 70.2899 28.5197 69.8931 27.043 69.3338C24.3948 68.333 21.6047 67.4545 19.0857 66.1288C20.3381 66.4595 21.5749 66.7586 22.7875 67.0045C20.7967 66.5343 18.8628 65.8327 17.0069 64.9024C15.1014 63.6472 13.3591 62.1604 11.7433 60.5314C11.9335 60.6277 12.1224 60.7284 12.3169 60.8161C11.9662 60.5831 11.6325 60.32 11.296 60.0641C11.1937 59.9577 11.0943 59.8484 10.9935 59.742C10.4611 59.0389 9.90443 58.3502 9.3535 57.6644C9.65452 57.8441 9.95697 58.0224 10.2481 58.1863C9.84054 57.9016 9.45432 57.5881 9.05532 57.2876C9.0113 57.233 8.97012 57.1784 8.9261 57.1223C7.82992 55.7477 6.75788 54.3487 5.69009 52.9512C6.43272 53.3135 7.18101 53.6729 7.91654 54.0525C8.44759 54.343 8.97296 54.6248 9.50117 54.9095C9.90869 55.1999 10.3318 55.4774 10.7621 55.7406C11.5473 56.3157 12.3496 56.862 13.1916 57.3437C13.7638 57.6715 14.3531 57.9706 14.9452 58.2567C16.1223 59.3797 17.7453 59.9606 19.2604 60.4538C20.6703 60.9124 22.0789 61.2575 23.5173 61.2603C25.3575 61.8283 27.229 62.2697 29.1502 62.54C33.1941 62.9858 36.9243 62.2812 40.9654 61.3639C38.0531 62.3589 35.0699 63.292 32.0269 63.7952C36.734 63.7981 41.5362 63.0116 46.5159 61.292C42.2718 63.2762 37.5292 64.6392 32.7341 65.1597C34.6013 65.0922 36.5139 64.9254 38.5075 64.6565C44.0864 63.7205 49.7349 62.6378 53.9194 58.6795C50.2816 62.796 44.9455 64.8621 39.696 66.2381C44.8475 65.3294 49.5674 63.8398 54.0458 60.9829C52.1133 62.5242 50.0189 63.7981 47.8223 64.8564C51.2755 63.6716 54.5627 62.1188 57.5999 59.709Z" fill="url(#paint1_linear_2465_214)"/>
<path d="M62.1438 56.8479C65.9407 52.3806 67.4473 46.1505 67.9016 40.3258C66.929 46.0915 64.5208 51.7206 60.5677 56.0125C65.2663 49.7537 66.973 42.0785 66.2758 34.7787C66.3965 39.062 65.7249 43.3683 64.1331 47.2964C64.8843 44.7386 65.1725 42.1303 65.1796 39.5695C64.1999 44.8866 61.8371 49.978 57.9749 53.7494C62.513 48.438 64.3305 41.8686 64.0636 35.0462C64.0096 39.8542 62.7572 44.6422 59.9088 48.5502C62.628 43.5897 63.1775 38.2568 62.4207 33.0116C62.5031 38.0569 61.4537 43.0563 58.861 47.548C62.2333 40.4279 61.7136 32.4336 59.4857 25.3466C59.8421 26.8692 60.1048 28.4178 60.2255 29.9908C60.9127 38.0728 59.2259 46.9499 53.3204 52.8033C58.2063 47.4948 59.277 39.4358 58.4463 33.2259C57.0931 20.7959 50.3314 12.3271 39.983 6.17175C39.2105 5.73897 38.3841 5.30763 37.5208 4.88347C34.0008 3.71164 30.6483 2.91651 26.948 2.52686C25.8603 2.39171 24.7727 2.24795 23.6822 2.11567C24.6094 1.84824 25.5437 1.61819 26.4879 1.40971C26.6072 1.43271 26.7336 1.44274 26.8557 1.46719C28.9586 1.74469 31.009 2.23502 33.0125 2.88492C31.4378 2.24365 29.7609 1.65699 28.0627 1.09049C30.5362 0.636134 33.0452 0.352906 35.5457 0.188994C35.6011 0.187556 35.6465 0.164529 35.6948 0.148713C37.3305 0.644763 38.9336 1.23427 40.4743 1.97618C39.2205 1.27309 37.9212 0.662015 36.6092 0.111328C38.1285 0.144398 39.6436 0.269481 41.1558 0.444896C41.596 0.601619 42.0362 0.75403 42.465 0.940947C45.2253 1.74757 47.9104 2.77132 50.3925 4.25372C50.455 4.28391 50.5188 4.31698 50.5785 4.34573C50.0858 3.89569 49.5888 3.46003 49.079 3.03156C50.7304 3.79504 52.325 4.67069 53.8699 5.63547C53.9011 5.70736 53.9309 5.78069 53.9948 5.84683C54.9845 6.95108 56.1687 7.83101 57.387 8.65201C58.9405 10.12 60.5123 11.5622 62.2205 12.8159C62.7885 13.5162 63.3309 14.2365 63.825 15.0015C65.6638 17.8412 67.0128 20.9699 68.3148 24.0899C68.4185 24.3358 68.6045 24.4336 68.7948 24.4451C69.9279 28.494 70.4504 32.6896 69.9548 36.8995C69.3826 44.0786 67.3237 51.6458 62.1438 56.8479Z" fill="url(#paint2_linear_2465_214)"/>
<path d="M48.0063 36.5969C45.3907 43.4064 40.2861 49.6006 33.7984 52.7034C35.0522 51.6236 36.289 50.5366 37.4988 49.4338C36.103 50.3784 34.622 51.1606 33.0998 51.7401C32.2947 52.0521 31.332 52.3857 30.5922 52.6143C32.0235 51.8666 33.4037 51.0226 34.7313 50.0995C40.7859 45.6537 47.4426 39.1994 47.505 30.7363C47.7904 34.5595 46.7113 38.3338 44.7717 41.6638C45.9729 40.0764 47.0719 38.4057 48.0063 36.5969Z" fill="url(#paint3_linear_2465_214)"/>
<path d="M43.1366 46.7734C41.6499 48.5563 39.4065 50.1221 37.6386 51.2565C39.4065 49.4046 41.8388 47.2119 43.2985 45.5555C44.8505 43.8014 46.1114 41.8215 47.422 39.8848C46.1596 42.2787 44.9342 44.7302 43.1366 46.7734Z" fill="url(#paint4_linear_2465_214)"/>
<path d="M41.0665 49.8461C42.9181 47.9008 44.3054 46.2329 45.9341 44.3594C44.6093 46.358 43.0346 48.7174 41.0665 49.8461Z" fill="url(#paint5_linear_2465_214)"/>
<path d="M42.6659 49.7808C43.5647 48.7096 44.6239 47.7032 45.5796 46.6406C44.8057 47.7564 43.6158 49.1654 42.6659 49.7808Z" fill="url(#paint6_linear_2465_214)"/>
<path d="M45.3864 49.1098C45.5908 48.8495 45.8279 48.6151 46.0679 48.375C45.8691 48.618 45.5724 48.9803 45.3864 49.1098Z" fill="url(#paint7_linear_2465_214)"/>
<path d="M7.63302 47.4444C7.2752 47.108 6.81088 46.668 6.54535 46.3848C7.37885 46.9671 8.23366 47.5235 9.10266 48.0541C12.3472 49.8298 15.0323 51.5437 18.6574 52.3014C20.9491 52.7587 23.4198 53.249 25.8976 52.8708C19.4213 54.1663 12.3884 52.0929 7.63302 47.4444Z" fill="url(#paint8_linear_2465_214)"/>
<path d="M8.45428 49.5762C12.8191 51.1175 17.1414 53.5662 21.7391 53.825C17.1272 54.0766 12.1759 52.1182 8.45428 49.5762Z" fill="url(#paint9_linear_2465_214)"/>
<path d="M10.5941 51.4238C12.6786 52.1528 14.6807 53.0961 16.7637 53.8279C14.6338 53.3664 12.3208 52.6604 10.5941 51.4238Z" fill="url(#paint10_linear_2465_214)"/>
<path d="M11.4598 52.2578C12.7293 52.7409 13.9277 53.3966 15.1204 54.0479C13.9163 53.5475 12.3828 52.9681 11.4598 52.2578Z" fill="url(#paint11_linear_2465_214)"/>
<path d="M12.4751 53.75C12.9778 53.9225 13.4321 54.2001 13.8794 54.4833C13.408 54.2676 12.8684 54.0462 12.4751 53.75Z" fill="url(#paint12_linear_2465_214)"/>
<path d="M44.5442 20.3182C42.5591 16.5209 39.4125 13.1349 36.141 10.5123C34.2312 8.94794 32.2419 7.66828 29.9757 6.77539C32.9888 7.6539 35.6696 9.33181 38.119 11.2887C41.4558 13.8912 44.2162 17.3161 45.3379 21.4858C45.4458 21.8351 45.5551 22.2521 45.6247 22.5555C45.301 21.792 44.9304 21.0515 44.5442 20.3182Z" fill="url(#paint13_linear_2465_214)"/>
<path d="M34.1136 7.5332C38.2982 9.83804 42.5878 13.2399 44.6083 17.5103C41.3652 13.6123 38.0639 10.3787 34.1136 7.5332Z" fill="url(#paint14_linear_2465_214)"/>
<path d="M37.9141 8.7168C40.3237 10.517 42.7035 12.7441 44.4329 15.1065C42.0503 13.1985 40.1022 10.8318 37.9141 8.7168Z" fill="url(#paint15_linear_2465_214)"/>
<path d="M40.0617 9.1543C41.5981 10.0199 43.1132 11.4907 44.0375 12.838C42.6659 11.6546 41.5001 10.2082 40.0617 9.1543Z" fill="url(#paint16_linear_2465_214)"/>
<path d="M52.2955 19.293C55.5116 23.1708 57.1616 29.8107 56.7115 34.0566C55.7175 28.9106 55.1112 23.7128 52.2955 19.293Z" fill="url(#paint17_linear_2465_214)"/>
<path d="M56.6573 36.8519C56.6789 36.7843 56.6904 36.7137 56.7034 36.6445L56.6573 36.8519Z" fill="url(#paint18_linear_2465_214)"/>
<path d="M53.678 22.8906C54.8168 25.7835 55.4317 29.5363 55.3905 32.3357C54.6109 29.2271 54.4888 25.992 53.678 22.8906Z" fill="url(#paint19_linear_2465_214)"/>
<path d="M53.2758 24.3848C53.7444 26.159 54.2371 28.3532 54.1845 30.0124C53.7117 28.1677 53.5399 26.264 53.2758 24.3848Z" fill="url(#paint20_linear_2465_214)"/>
<path d="M52.8945 25.957C53.0151 26.8916 53.0677 27.911 52.9669 28.8183C52.8504 27.8693 52.9101 26.9117 52.8945 25.957Z" fill="url(#paint21_linear_2465_214)"/>
<path d="M21.8126 59.4531C26.3975 60.2986 31.0904 60.4769 35.7237 60.0887C31.1373 60.9887 26.1476 61.4531 21.8126 59.4531Z" fill="url(#paint22_linear_2465_214)"/>
<path d="M26.1779 59.178C28.2823 59.1448 30.371 59.5006 32.4696 59.5697C30.3866 59.7555 28.1786 59.7397 26.1779 59.178Z" fill="url(#paint23_linear_2465_214)"/>
<path d="M25.9838 57.8281C27.6735 57.844 29.332 58.2242 31.0188 58.2991C29.3575 58.4331 27.5187 58.3164 25.9838 57.8281Z" fill="url(#paint24_linear_2465_214)"/>
<path d="M28.5547 56.6309C29.0289 56.6294 29.4989 56.7159 29.9633 56.7951C29.5004 56.7792 28.9764 56.7547 28.5547 56.6309Z" fill="url(#paint25_linear_2465_214)"/>
<defs>
<linearGradient id="paint0_linear_2465_214" x1="35.5857" y1="0.103516" x2="35.5857" y2="71.1035" gradientUnits="userSpaceOnUse">
<stop stop-color="#7086D9"/>
<stop offset="1" stop-color="#E8BEC0"/>
</linearGradient>
<linearGradient id="paint1_linear_2465_214" x1="31.8076" y1="52.9512" x2="31.8076" y2="70.9125" gradientUnits="userSpaceOnUse">
<stop stop-color="#7086D9"/>
<stop offset="1" stop-color="#E8BEC0"/>
</linearGradient>
<linearGradient id="paint2_linear_2465_214" x1="46.9121" y1="0.111328" x2="46.9121" y2="56.8479" gradientUnits="userSpaceOnUse">
<stop stop-color="#7086D9"/>
<stop offset="1" stop-color="#E8BEC0"/>
</linearGradient>
<linearGradient id="paint3_linear_2465_214" x1="39.2992" y1="30.7363" x2="39.2992" y2="52.7034" gradientUnits="userSpaceOnUse">
<stop stop-color="#7086D9"/>
<stop offset="1" stop-color="#E8BEC0"/>
</linearGradient>
<linearGradient id="paint4_linear_2465_214" x1="42.5303" y1="39.8848" x2="42.5303" y2="51.2565" gradientUnits="userSpaceOnUse">
<stop stop-color="#7086D9"/>
<stop offset="1" stop-color="#E8BEC0"/>
</linearGradient>
<linearGradient id="paint5_linear_2465_214" x1="43.5003" y1="44.3594" x2="43.5003" y2="49.8461" gradientUnits="userSpaceOnUse">
<stop stop-color="#7086D9"/>
<stop offset="1" stop-color="#E8BEC0"/>
</linearGradient>
<linearGradient id="paint6_linear_2465_214" x1="44.1227" y1="46.6406" x2="44.1227" y2="49.7808" gradientUnits="userSpaceOnUse">
<stop stop-color="#7086D9"/>
<stop offset="1" stop-color="#E8BEC0"/>
</linearGradient>
<linearGradient id="paint7_linear_2465_214" x1="45.7271" y1="48.375" x2="45.7271" y2="49.1098" gradientUnits="userSpaceOnUse">
<stop stop-color="#7086D9"/>
<stop offset="1" stop-color="#E8BEC0"/>
</linearGradient>
<linearGradient id="paint8_linear_2465_214" x1="16.2215" y1="46.3848" x2="16.2215" y2="53.2503" gradientUnits="userSpaceOnUse">
<stop stop-color="#7086D9"/>
<stop offset="1" stop-color="#E8BEC0"/>
</linearGradient>
<linearGradient id="paint9_linear_2465_214" x1="15.0967" y1="49.5762" x2="15.0967" y2="53.8468" gradientUnits="userSpaceOnUse">
<stop stop-color="#7086D9"/>
<stop offset="1" stop-color="#E8BEC0"/>
</linearGradient>
<linearGradient id="paint10_linear_2465_214" x1="13.6789" y1="51.4238" x2="13.6789" y2="53.8279" gradientUnits="userSpaceOnUse">
<stop stop-color="#7086D9"/>
<stop offset="1" stop-color="#E8BEC0"/>
</linearGradient>
<linearGradient id="paint11_linear_2465_214" x1="13.2901" y1="52.2578" x2="13.2901" y2="54.0479" gradientUnits="userSpaceOnUse">
<stop stop-color="#7086D9"/>
<stop offset="1" stop-color="#E8BEC0"/>
</linearGradient>
<linearGradient id="paint12_linear_2465_214" x1="13.1773" y1="53.75" x2="13.1773" y2="54.4833" gradientUnits="userSpaceOnUse">
<stop stop-color="#7086D9"/>
<stop offset="1" stop-color="#E8BEC0"/>
</linearGradient>
<linearGradient id="paint13_linear_2465_214" x1="37.8002" y1="6.77539" x2="37.8002" y2="22.5555" gradientUnits="userSpaceOnUse">
<stop stop-color="#7086D9"/>
<stop offset="1" stop-color="#E8BEC0"/>
</linearGradient>
<linearGradient id="paint14_linear_2465_214" x1="39.361" y1="7.5332" x2="39.361" y2="17.5103" gradientUnits="userSpaceOnUse">
<stop stop-color="#7086D9"/>
<stop offset="1" stop-color="#E8BEC0"/>
</linearGradient>
<linearGradient id="paint15_linear_2465_214" x1="41.1735" y1="8.7168" x2="41.1735" y2="15.1065" gradientUnits="userSpaceOnUse">
<stop stop-color="#7086D9"/>
<stop offset="1" stop-color="#E8BEC0"/>
</linearGradient>
<linearGradient id="paint16_linear_2465_214" x1="42.0496" y1="9.1543" x2="42.0496" y2="12.838" gradientUnits="userSpaceOnUse">
<stop stop-color="#7086D9"/>
<stop offset="1" stop-color="#E8BEC0"/>
</linearGradient>
<linearGradient id="paint17_linear_2465_214" x1="54.54" y1="19.293" x2="54.54" y2="34.0566" gradientUnits="userSpaceOnUse">
<stop stop-color="#7086D9"/>
<stop offset="1" stop-color="#E8BEC0"/>
</linearGradient>
<linearGradient id="paint18_linear_2465_214" x1="56.6804" y1="36.6445" x2="56.6804" y2="36.8519" gradientUnits="userSpaceOnUse">
<stop stop-color="#7086D9"/>
<stop offset="1" stop-color="#E8BEC0"/>
</linearGradient>
<linearGradient id="paint19_linear_2465_214" x1="54.5352" y1="22.8906" x2="54.5352" y2="32.3357" gradientUnits="userSpaceOnUse">
<stop stop-color="#7086D9"/>
<stop offset="1" stop-color="#E8BEC0"/>
</linearGradient>
<linearGradient id="paint20_linear_2465_214" x1="53.7321" y1="24.3848" x2="53.7321" y2="30.0124" gradientUnits="userSpaceOnUse">
<stop stop-color="#7086D9"/>
<stop offset="1" stop-color="#E8BEC0"/>
</linearGradient>
<linearGradient id="paint21_linear_2465_214" x1="52.9564" y1="25.957" x2="52.9564" y2="28.8183" gradientUnits="userSpaceOnUse">
<stop stop-color="#7086D9"/>
<stop offset="1" stop-color="#E8BEC0"/>
</linearGradient>
<linearGradient id="paint22_linear_2465_214" x1="28.7681" y1="59.4531" x2="28.7681" y2="60.8594" gradientUnits="userSpaceOnUse">
<stop stop-color="#7086D9"/>
<stop offset="1" stop-color="#E8BEC0"/>
</linearGradient>
<linearGradient id="paint23_linear_2465_214" x1="29.3238" y1="59.1758" x2="29.3238" y2="59.6759" gradientUnits="userSpaceOnUse">
<stop stop-color="#7086D9"/>
<stop offset="1" stop-color="#E8BEC0"/>
</linearGradient>
<linearGradient id="paint24_linear_2465_214" x1="28.5013" y1="57.8281" x2="28.5013" y2="58.3507" gradientUnits="userSpaceOnUse">
<stop stop-color="#7086D9"/>
<stop offset="1" stop-color="#E8BEC0"/>
</linearGradient>
<linearGradient id="paint25_linear_2465_214" x1="29.259" y1="56.6309" x2="29.259" y2="56.7951" gradientUnits="userSpaceOnUse">
<stop stop-color="#7086D9"/>
<stop offset="1" stop-color="#E8BEC0"/>
</linearGradient>
</defs>
</svg>
