<svg width="100" height="98" viewBox="0 0 100 98" fill="none" xmlns="http://www.w3.org/2000/svg">
<path d="M12.332 9.06445C13.834 11.7012 15.5742 14.2383 12.7715 18.2734C14.8125 16.1797 17.2539 14.0723 21.0547 18C20.2344 16.0137 17.6836 14.4863 19.8633 11.416C16.5312 13.0918 14.8125 11.416 12.332 9.06445ZM52.1875 18.3633C50.7422 20.5273 48.6133 21.2305 45.8203 20.3711C48.6133 21.3281 50.0195 23.2031 49.2773 26.5625C50.8984 23.5352 52.8125 22.3828 55.0391 23.2227C53.7891 21.9922 51.6602 21.8555 52.1875 18.3633ZM78.6367 27.5C77.8555 31.8945 77.4648 36.4648 70.1992 37.4414C74.6719 37.5977 79.5938 38.1641 80.2969 46.4648C81.2734 43.5352 79.7109 39.082 85.2969 38.3984C79.7109 36.3672 79.3008 32.6953 78.6367 27.5ZM17.5352 46.25C17.9453 51.0938 15.9531 54.3359 10.293 55.1562C16.0312 55.8789 19.0586 58.1641 19.2539 62.0898C20.3516 59.4531 19.1172 56.0742 24.8633 54.9023C20.5469 53.8867 18.0625 51.0547 17.5352 46.25ZM48.3438 50.4336C50.2383 52.9922 50.2773 55.4727 47.4258 57.9141C50.8633 56.3125 53.3437 56.5078 54.8086 58.6172C54.4766 56.7813 52.6406 55.3359 55.3945 52.6797C52.6602 53.6172 50.2969 52.9141 48.3438 50.4336ZM62.418 75.168C64.7031 78.5664 66.3242 80.9297 63.2188 84.5039C67.7891 82.5508 68.9805 85.8711 71.2656 87.1992C67.3789 81.9648 70.7578 79.5234 74.0195 77.5312C68.0625 80.0312 65.3477 77.4727 62.418 75.168Z" fill="white"/>
</svg>
