<svg width="217" height="139" viewBox="0 0 217 139" fill="none" xmlns="http://www.w3.org/2000/svg">
<path d="M213.832 0.210938L215.477 8.43728H215.224C213.157 3.83897 209.318 0.632801 204.171 0.632801L197.801 0.674987V14.4699H204.255C206.618 14.4699 207.715 12.7825 208.305 10.6732H208.474V18.7308H208.305C207.715 16.6214 206.66 14.8918 204.255 14.8918H197.801V26.9149C197.801 29.0242 198.012 32.1882 200.416 32.9476V33.0741H190.967V32.9476C193.371 32.1882 193.54 29.0242 193.54 26.9149V6.32796C193.54 4.26083 193.329 1.09685 190.967 0.337497V0.210938H213.832Z" fill="white"/>
<path d="M169.715 32.4829C186.758 31.7236 181.401 0.885357 166.214 1.13848C149.086 1.94002 154.528 32.7361 169.715 32.4829ZM167.986 0.421308C180.979 -0.000555431 188.572 14.2163 182.413 25.2691C179.587 30.5424 173.765 33.2001 167.986 33.2001C162.206 33.2001 156.384 30.5424 153.558 25.2691C147.356 14.1741 154.992 -0.000555431 167.986 0.421308Z" fill="white"/>
<path d="M168.327 9.40234C168.327 12.0578 170.408 16.7947 172.776 16.7947C170.408 16.7947 168.183 22.6799 168.183 24.4023C168.183 22.6799 166.102 16.7947 163.159 16.7947C166.102 16.7947 168.327 12.0578 168.327 9.40234Z" fill="#FC7765"/>
<path d="M129.445 21.6416C130.626 26.4509 126.703 31.3867 122.02 32.5679C120.628 32.9476 119.236 33.1163 117.801 33.1163C114.004 33.1163 110.208 31.8085 106.706 29.4039C107.381 27.4633 108.056 25.5649 108.773 23.6666C109.322 25.0165 110.714 27.843 113.878 29.9101C114.848 30.5851 117.379 32.3148 120.037 32.3148C123.074 32.3148 125.648 29.657 125.817 26.6618C125.859 23.4134 124.129 21.8525 122.146 20.2073C120.67 19.0261 118.982 18.0558 117.253 17.212C113.667 15.5668 109.322 13.4996 108.605 9.281C108.351 7.46699 108.942 5.52641 109.955 4.0077C111.937 1.2234 115.27 0 118.645 0C122.231 0 125.943 1.43434 128.095 3.79677L125.521 8.9857C124.678 5.48423 121.64 0.970287 116.62 1.01247C115.945 1.01247 113.372 1.30778 112.19 3.37491C110.84 6.11702 112.233 8.81695 114.342 10.5888C116.24 12.1919 118.518 13.2465 120.796 14.259C124.256 15.8199 128.474 17.6761 129.445 21.6416Z" fill="white"/>
<path d="M98.8807 19.9542L97.6151 26.493H78.589V26.3665C80.5296 25.8181 80.6983 23.2447 80.6983 21.5994V5.18893C80.6983 3.50147 80.4874 1.01248 78.589 0.379683V0.210938H97.6572L98.8385 6.87638H98.6697C97.6572 4.93581 96.3917 1.94058 93.3964 1.01248C92.4261 0.717175 90.8652 0.632801 90.1059 0.674987H84.4529V11.6434H89.6418C91.3715 11.6434 92.5949 10.2513 92.848 8.60602H93.0167V15.0184H92.848C92.5105 13.4153 91.3715 11.9809 89.6418 11.9809H84.4529V26.0712H90.1059C94.3667 26.0712 97.0666 23.7087 98.7541 19.9542H98.8807ZM101.045 28.7289H101.256C99.4415 31.5132 95.4338 36.2803 88.9793 36.4912C88.5575 36.4912 88.1778 36.4912 87.7981 36.4912C83.4107 36.4912 80.8795 35.6475 78.264 34.8038C74.8469 33.6647 71.2189 33.1163 67.633 33.1163H64.2581V32.9897C66.6627 32.2304 66.8315 29.1086 66.8315 26.9993V6.37015C66.8315 4.30302 66.6206 1.13904 64.2581 0.379683V0.253123H73.7079V0.379683C71.9782 0.928107 71.0923 2.95305 71.0923 6.37015V31.7242C77.7156 31.682 81.3014 33.7069 88.8528 33.7069C95.8557 33.7491 99.3572 30.5429 101.045 28.7289Z" fill="white"/>
<path d="M55.6834 28.2215C56.6537 31.048 58.4255 32.6089 59.3536 32.9464V33.1151H49.3555V32.9464C50.832 32.9464 51.507 31.5121 51.507 30.2465C51.507 29.5715 51.3804 28.8121 51.0851 28.0528L42.6478 3.24719C41.5932 7.5502 39.9057 12.5704 38.0495 16.8312C37.5433 18.0546 36.9949 19.278 36.6152 20.5858C35.434 24.72 35.9824 30.373 39.9057 33.0729L35.1809 33.4526C33.1559 29.0652 33.9996 25.0997 35.8137 20.3749C37.0792 17.1265 37.8386 15.7765 38.8511 13.5407C39.9901 10.9673 41.3822 7.12833 42.226 2.02378L41.6354 0.251953H45.9806L55.6834 28.2215Z" fill="white"/>
<path d="M27.0893 0.251953L28.7346 8.4783H28.4815C26.4565 4.00654 22.6176 0.716005 17.5974 0.716005H16.8802V26.9981C16.8802 28.9809 17.049 32.3558 19.4536 32.9886V33.1151H10.0038V32.9886C12.4085 32.3558 12.6194 29.0231 12.6194 26.9981V0.716005H11.6913C11.5647 0.716005 11.4804 0.716005 11.3538 0.716005C6.54455 1.01131 2.95871 4.17529 1.01813 8.4783H0.765015L2.41028 0.251953H27.0893Z" fill="white"/>
<path d="M186.752 45.2559V66.5691H193.947C196.836 66.5691 199.071 65.6425 200.598 63.8436C202.832 61.2272 203.269 57.139 202.832 53.8684C202.505 51.3064 201.252 48.908 199.289 47.1092C197.327 45.3104 194.22 45.2013 191.658 45.2559H186.752ZM216.242 86.5742V87.1193H208.229C206.703 87.1193 205.34 86.4651 204.359 85.2659C200.761 80.7416 197.654 73.4373 193.511 69.5126C191.876 67.9319 189.314 67.1142 187.079 67.1142H186.752V79.2154C186.752 81.9408 187.025 85.9746 190.132 86.9557V87.1193H177.922V86.9557C181.029 85.9746 181.247 81.9408 181.247 79.2154V52.5602C181.247 49.8892 180.974 45.801 177.922 44.8198V44.6562H193.293C200.598 44.6562 208.174 47.4362 208.174 55.9397C208.174 63.1895 201.742 67.1142 194.983 67.1142H194.601C201.034 68.804 204.086 74.364 206.866 78.5612C208.883 82.0499 211.772 86.4106 216.242 86.5742Z" fill="white"/>
<path d="M169.602 76.4348H169.765L167.749 86.9552H137.659V86.7917C140.766 85.8105 140.984 81.7223 140.984 78.9968V52.3961C140.984 49.7251 140.712 45.6369 137.659 44.6557V44.4922H167.803L169.656 55.1216H169.438C167.803 51.96 165.732 47.1632 160.935 45.6369C159.409 45.2008 156.847 45.0373 155.593 45.0918H146.49V62.5894L146.599 62.4804C147.417 63.3525 148.18 63.7341 149.215 63.7341C149.76 63.7341 150.415 63.6251 151.123 63.407C153.195 62.8619 155.211 61.7172 157.337 61.7172C159.245 61.7172 161.535 62.9164 162.189 64.7698L162.08 64.8243C161.426 63.9521 160.771 63.6251 160.008 63.6251C159.245 63.6251 158.427 63.9521 157.337 64.2792C156.084 64.7153 153.086 65.6964 151.668 65.6964C149.27 65.8055 147.035 63.7341 146.49 62.6439V86.3556H155.593C162.407 86.3556 166.931 82.4309 169.602 76.4348Z" fill="white"/>
<path d="M149.215 63.7337C148.18 63.7337 147.417 63.3521 146.599 62.4799L146.49 62.6435C147.035 63.7337 149.27 65.805 151.668 65.696C153.086 65.696 156.084 64.7148 157.337 64.2787C158.427 63.9517 159.245 63.6246 160.008 63.6246C160.771 63.6246 161.426 63.9517 162.08 64.8238L162.189 64.7693C161.535 62.916 159.245 61.7168 157.337 61.7168C155.211 61.7168 153.195 62.8615 151.123 63.4066C150.415 63.6246 149.76 63.7337 149.215 63.7337Z" fill="#FC7765"/>
<path d="M129.76 44.8198C127.525 45.5284 126.381 48.1449 126.381 52.5602V79.1609C126.381 81.8863 126.599 85.9746 129.76 86.9557V87.1193H117.55V86.9557C120.657 85.9746 120.875 81.8863 120.875 79.1609V59.5919C119.076 62.5899 115.097 64.1162 111.554 65.4789L111.172 65.588C107.575 67.0052 103.814 68.477 102.124 70.9299V79.1609C102.124 81.8863 102.342 85.9746 105.503 86.9557V87.1193H93.2932V86.9557C96.4002 85.9746 96.6182 81.8863 96.6182 79.1609V52.5602C96.6182 49.8892 96.3457 45.801 93.2932 44.8198V44.6562H105.503V44.8198C103.268 45.5284 102.124 48.1449 102.124 52.5602V69.9487C103.868 67.8228 107.193 66.5146 110.409 65.2609L111.445 64.8793C115.315 63.3531 119.294 61.8268 120.875 58.3382V52.5602C120.875 49.8892 120.602 45.801 117.55 44.8198V44.6562H129.76V44.8198Z" fill="white"/>
<path d="M84.2552 44.6562L86.3811 55.2856H86.054C83.4375 49.5076 78.4771 45.2559 71.9905 45.2559H71.0638V79.2154C71.0638 81.7773 71.2819 86.1381 74.3889 86.9557V87.1193H62.1788V86.9557C65.2858 86.1381 65.5584 81.8318 65.5584 79.2154V45.2559H64.3592C64.1956 45.2559 64.0866 45.2559 63.9231 45.2559C57.709 45.6374 53.0757 49.7256 50.5682 55.2856H50.2411L52.367 44.6562H84.2552Z" fill="white"/>
<path d="M23.7086 86.3005C45.7305 85.3194 38.8078 45.4728 19.1843 45.7999C-2.94659 46.8356 4.08516 86.6276 23.7086 86.3005ZM21.4737 44.8732C38.2627 44.3281 48.0744 62.6979 40.116 76.9794C36.4639 83.7931 28.9416 87.2272 21.4737 87.2272C14.0059 87.2272 6.48358 83.7931 2.83143 76.9794C-5.18149 62.6434 4.68476 44.3281 21.4737 44.8732Z" fill="white"/>
<path d="M19.9151 56.1468C20.7319 59.7736 25.0317 65.6029 28.2664 64.8744C25.0317 65.6029 23.8033 74.3252 24.3331 76.6777C23.8033 74.3252 19.1503 66.9275 15.1314 67.8327C19.1503 66.9275 20.7319 59.7736 19.9151 56.1468Z" fill="#FC7765"/>
<path d="M214.169 119.266C215.348 124.066 211.432 128.992 206.759 130.171C205.37 130.549 203.98 130.718 202.549 130.718C198.76 130.718 194.97 129.413 191.476 127.013C192.15 125.076 192.823 123.182 193.539 121.287C194.086 122.634 195.476 125.455 198.633 127.518C199.602 128.192 202.128 129.918 204.78 129.918C207.811 129.918 210.38 127.266 210.548 124.276C210.59 121.034 208.864 119.477 206.885 117.835C205.412 116.656 203.728 115.688 202.001 114.845C198.423 113.204 194.086 111.141 193.371 106.93C193.118 105.12 193.707 103.183 194.718 101.668C196.697 98.8889 200.023 97.668 203.391 97.668C206.969 97.668 210.674 99.0994 212.822 101.457L210.253 106.636C209.411 103.141 206.38 98.6363 201.37 98.6784C200.696 98.6784 198.128 98.9731 196.949 101.036C195.602 103.773 196.991 106.467 199.096 108.236C200.991 109.835 203.264 110.888 205.538 111.898C208.99 113.456 213.2 115.309 214.169 119.266Z" fill="white"/>
<path d="M174.306 128.613C178.853 126.045 180.664 119.898 180.664 114.467C180.664 108.993 178.853 102.889 174.306 100.32C173.296 99.7309 172.117 99.3099 170.728 99.0152C169.97 98.8047 169.044 98.6363 166.475 98.51H162.307V130.381H166.475C169.128 130.297 170.307 130.044 170.728 129.918C172.117 129.623 173.296 129.16 174.306 128.613ZM182.306 104.909C188.2 113.498 184.916 126.339 174.643 129.75C172.538 130.507 169.801 130.844 166.475 130.844H155.487V130.718C157.845 130.002 158.013 127.266 158.055 124.739V104.194C158.013 101.626 157.845 99.0152 155.487 98.1732V98.0469H166.475C173.296 98.0469 178.517 99.6888 182.306 104.909Z" fill="white"/>
<path d="M149.803 122.509H150.056L148.161 130.719H124.921V130.593C127.321 129.835 127.489 126.719 127.489 124.614V104.027C127.489 101.964 127.279 98.806 124.921 98.0482V97.9219H134.352V98.0482C132.626 98.5955 131.741 100.616 131.741 104.027V130.256L138.52 130.298C139.446 130.298 140.457 130.214 141.551 129.919C145.846 128.867 148.793 124.741 149.803 122.509Z" fill="white"/>
<path d="M100.855 98.385H97.066V114.847H102.623C104.855 114.847 106.581 114.131 107.76 112.742C109.486 110.721 109.823 107.563 109.486 105.079C109.233 103.1 108.265 101.206 106.749 99.8165C105.234 98.4271 102.834 98.385 100.855 98.385ZM146.325 130.803L146.409 130.93C143.925 133.877 138.242 139.097 128.769 138.424C110.539 137.077 107.802 117.078 98.0765 115.31H97.066V124.614C97.066 126.635 97.2765 129.919 99.6763 130.593V130.719H90.2455V130.593C92.6453 129.919 92.8138 126.635 92.8138 124.614V104.069C92.8138 101.922 92.6453 98.9323 90.2455 98.0482V97.9219H102.118C107.802 97.9219 113.612 100.069 113.612 106.679C113.612 112.236 108.602 115.31 103.423 115.31H102.666C113.107 116.994 116.643 135.35 132.684 136.108C139.378 136.445 144.094 132.993 146.325 130.803Z" fill="white"/>
<path d="M69.0368 130.087C86.0459 129.329 80.699 98.5524 65.5424 98.805C48.449 99.6049 53.8802 130.339 69.0368 130.087ZM67.3106 98.0893C80.278 97.6682 87.8563 111.857 81.7094 122.887C78.8886 128.15 73.0786 130.802 67.3106 130.802C61.5427 130.802 55.7327 128.15 52.9118 122.887C46.7229 111.814 54.3433 97.6682 67.3106 98.0893Z" fill="white"/>
<path d="M43.6682 99.0578C44.847 102.173 44.2155 106.552 44.1313 107.141C43.9208 108.489 43.5419 109.836 43.1209 111.141C41.9841 114.425 40.5106 117.583 39.3317 120.824C38.5318 122.972 37.8161 125.245 37.2266 127.519L38.5318 130.718H33.9848L26.2802 111.225C25.6065 113.246 24.7645 115.225 23.9646 117.204C22.491 120.74 21.1859 124.403 20.3017 128.192L21.3122 130.718H16.7652L5.6503 102.552C4.97668 101.037 3.67152 98.4684 1.86115 98.0895V97.9632H11.5446V98.0895C9.98678 99.1841 9.48156 101.205 10.913 104.699L19.9649 127.392C20.7227 124.529 21.6069 121.666 22.6594 118.93C23.4594 116.909 24.2593 114.93 24.9329 112.867C25.3118 111.604 25.5223 110.552 25.6486 109.625L22.8699 102.552C22.1963 101.037 20.8911 98.4684 19.0808 98.0895V97.9632H28.7642V98.0895C27.2064 99.1841 26.7012 101.205 28.1326 104.699L36.9319 126.719C37.6476 124.108 38.4476 121.456 39.458 118.93C40.2159 116.951 41.0579 114.93 41.7315 112.867C42.2788 111.141 42.4051 109.794 42.5736 108.573C42.6999 107.436 42.742 106.51 42.4893 105.415C42.4893 105.373 42.4472 105.163 42.363 104.91C41.521 101.752 38.9949 99.942 38.1108 99.3525C39.2054 97.9632 40.3001 96.6159 41.3947 95.2266C42.1104 96.0265 42.9946 97.2895 43.6682 99.0578Z" fill="white"/>
<path d="M67.1675 107C67.1675 109.656 69.2488 114.392 71.6172 114.392C69.2488 114.392 67.0239 120.278 67.0239 122C67.0239 120.278 64.9426 114.392 62 114.392C64.9426 114.392 67.1675 109.656 67.1675 107Z" fill="#FC7765"/>
</svg>
