<svg width="59" height="111" viewBox="0 0 59 111" fill="none" xmlns="http://www.w3.org/2000/svg">
<path d="M14.912 62.4648L14.944 66.0808C14.944 67.2328 15.2 67.8728 16.288 68.4168C17.44 68.4808 18.56 68.5128 19.712 68.5128C20.096 68.5128 20.544 68.5448 20.992 68.5448C22.56 68.5448 24.384 68.3208 24.384 66.5288C24.384 65.1848 24.384 63.8408 24.352 62.5288C22.688 62.3368 21.024 62.2408 19.36 62.2408C17.888 62.2408 16.384 62.3048 14.912 62.4648ZM10.784 46.3048C10.784 46.9448 9.85597 46.9768 9.40797 46.9768C8.15997 46.9768 6.94397 46.8488 5.72797 46.8488C4.41597 46.8488 3.13597 46.9768 1.85597 46.9768C1.43997 46.9768 0.159973 46.9448 0.159973 46.2728C0.159973 45.3768 3.23197 45.3128 4.89597 45.3128C5.31197 45.3128 5.59997 45.3128 5.79197 45.3128C6.01597 45.3128 6.43197 45.3128 6.91197 45.3128C8.44797 45.3128 10.784 45.4088 10.784 46.3048ZM18.784 46.4648C19.328 45.0568 19.776 43.6168 20.16 42.1448C19.808 42.1128 19.488 42.1128 19.168 42.1128C18.496 42.1128 17.824 42.1448 17.152 42.2408C17.152 43.4568 17.248 46.0808 18.784 46.4648ZM10.304 55.6168C10.304 56.2248 9.18397 56.2568 8.76797 56.2568C7.77597 56.2568 6.78397 56.1288 5.79197 56.1288C4.76797 56.1288 3.80797 56.2568 2.81597 56.2568C2.39997 56.2568 1.15197 56.2248 1.15197 55.5848C1.15197 54.6568 4.12797 54.5928 5.37597 54.5928C5.50397 54.5928 5.63197 54.5928 5.72797 54.5928C5.82397 54.5928 5.91997 54.5928 6.07997 54.5928C7.29597 54.5928 10.304 54.6568 10.304 55.6168ZM5.40797 70.7208H5.11997C5.05597 70.7208 5.02397 70.7208 4.99197 70.7208C1.43997 70.7208 0.799973 67.2328 0.671973 64.2888C0.639973 63.2328 0.575973 62.1448 0.575973 61.0568C0.575973 60.5768 0.639973 58.4968 1.40797 58.4968C2.23997 58.4968 2.23997 60.9608 2.23997 61.4408C3.07197 61.4088 3.93597 61.3768 4.76797 61.3768C6.01597 61.3768 7.29597 61.4088 8.54397 61.5048C8.54397 61.0248 8.57597 58.6568 9.37597 58.6568C10.176 58.6568 10.24 60.6408 10.24 61.1528C10.24 61.3768 10.24 61.6008 10.24 61.8248C10.24 65.4088 10.112 70.5928 5.40797 70.7208ZM10.272 41.4088C10.272 42.0488 9.08797 42.0808 8.67197 42.0808C7.67997 42.0808 6.71997 41.9848 5.72797 41.9848C4.76797 41.9848 3.80797 42.0808 2.84797 42.0808C2.39997 42.0808 1.15197 42.0488 1.15197 41.3768C1.15197 40.4488 4.09597 40.3848 5.34397 40.3848C5.47197 40.3848 5.59997 40.3848 5.69597 40.3848C5.79197 40.3848 5.88797 40.3848 6.04797 40.3848C7.26397 40.3848 10.272 40.4488 10.272 41.4088ZM24.224 61.0248C24.256 60.5448 24.224 58.1768 25.056 58.1768C25.888 58.1768 25.92 60.5768 25.92 61.0568C25.92 62.9128 25.952 64.7368 25.952 66.5928C25.952 70.0488 22.528 70.0808 19.904 70.0808C19.872 70.0808 19.808 70.0808 19.776 70.0808C19.488 70.0808 19.168 70.0808 18.88 70.0808C18.112 70.0808 17.312 70.0808 16.608 69.9528C14.56 69.6328 13.408 68.1928 13.376 66.1448C13.376 64.4488 13.344 62.7528 13.344 61.0248C13.344 60.5448 13.344 58.0168 14.176 58.0168C14.976 58.0168 15.008 60.4808 15.008 60.9288C16.352 60.8648 17.696 60.8008 19.04 60.8008C20.8 60.8008 22.528 60.8968 24.224 61.0248ZM19.616 48.2248C18.784 50.4008 17.728 52.5128 16.544 54.5288C17.568 54.4008 18.592 54.3688 19.616 54.3688C20.704 54.3688 21.792 54.4008 22.88 54.5288C23.104 53.5368 23.296 52.5128 23.296 51.5208C23.296 49.0568 21.888 48.2888 19.616 48.2248ZM10.208 50.8168C10.208 51.4568 9.02397 51.4568 8.63997 51.4568C7.64797 51.4568 6.65597 51.3608 5.66397 51.3608C4.67197 51.3608 3.71197 51.4568 2.75197 51.4568C2.30397 51.4568 1.08797 51.4248 1.08797 50.7528C1.08797 49.8248 4.41597 49.7928 5.47197 49.7928C5.53597 49.7928 5.59997 49.7928 5.63197 49.7928C5.72797 49.7928 5.82397 49.7928 5.98397 49.7928C7.19997 49.7928 10.208 49.8568 10.208 50.8168ZM8.67197 62.9768C7.51997 62.9128 6.33597 62.8488 5.18397 62.8488C4.15997 62.8488 3.16797 62.8808 2.14397 62.9448C2.11197 63.2968 2.11197 63.6488 2.11197 63.9688C2.11197 66.2408 2.52797 69.1528 5.40797 69.1528C8.31997 69.1528 8.60797 65.0888 8.67197 62.9768ZM24.416 54.6568C24.992 54.7208 26.624 54.9448 26.624 55.7768C26.624 56.2568 25.44 56.2568 25.152 56.2568C24.64 56.2568 24.16 56.2248 23.648 56.1608C22.208 55.9688 20.768 55.8728 19.296 55.8728C17.664 55.8728 16.064 56.0008 14.464 56.1928C14.144 56.2248 13.792 56.2568 13.472 56.2568C13.056 56.2568 12.064 56.2248 12.064 55.5848C12.064 54.7848 14.144 54.6888 14.624 54.6568C15.872 52.4808 17.152 50.2728 18.08 47.9368C15.904 47.4888 15.616 44.6088 15.616 42.7208C15.616 42.5928 15.616 42.4968 15.616 42.3688C15.328 42.3688 15.04 42.4008 14.752 42.4008C14.368 42.4008 13.408 42.4008 13.408 41.7928C13.408 40.5128 18.464 40.5128 19.488 40.5128C19.584 40.5128 19.68 40.5128 19.84 40.5128C21.408 40.5128 26.048 40.5768 26.048 41.7928C26.048 42.3688 24.8 42.3688 24.416 42.3688C23.52 42.3688 22.656 42.2728 21.76 42.2408C21.408 43.7768 20.928 45.3128 20.384 46.8168C23.328 46.8808 24.896 48.2568 24.896 51.2648C24.896 52.3848 24.64 53.5688 24.416 54.6568Z" fill="url(#paint0_linear_3100_37990)"/>
<path d="M24.672 20.128L23.904 20.096C23.84 20.096 23.776 20.096 23.712 20.096C21.248 20.096 18.24 20.736 16.128 21.984C15.52 22.336 14.56 23.072 13.824 23.072C13.536 23.072 13.28 22.848 13.28 22.528C13.28 21.92 14.432 21.216 14.88 20.928C17.856 19.136 21.312 18.368 24.8 18.336V15.232H24.16C24.096 15.232 24.032 15.232 23.968 15.232C21.472 15.232 18.432 15.872 16.256 17.056C15.616 17.376 14.72 18.016 13.952 18.016C13.664 18.016 13.312 17.824 13.312 17.504C13.312 16.928 14.592 16.256 15.008 16.032C17.92 14.464 21.12 13.632 24.448 13.632C24.544 13.632 24.672 13.632 24.8 13.632V10.464C22.4 10.56 18.272 11.072 16.128 12.128C15.424 12.48 14.592 13.152 13.76 13.152C13.472 13.152 13.184 12.992 13.184 12.672C13.184 12 14.4 11.36 14.88 11.136C17.92 9.632 21.344 9.024 24.704 8.896C24.576 6.816 22.912 6.56 21.248 6.56C20.768 6.56 20.288 6.592 19.84 6.592C18.496 6.592 17.184 6.784 15.84 6.784C13.888 6.784 13.088 5.728 13.088 3.808C13.088 1.088 14.56 0.288 17.12 0.256001C18.784 0.224001 20.448 0.16 22.112 0.16C22.24 0.16 22.4 0.16 22.624 0.16C23.872 0.16 26.464 0.224001 26.464 1.152C26.464 1.792 24.896 1.792 24.512 1.792C23.424 1.792 22.368 1.728 21.312 1.728C19.776 1.728 18.208 1.76 16.672 1.792C15.52 1.856 14.784 2.144 14.656 3.392C14.656 3.552 14.624 3.68 14.624 3.84C14.624 4.736 15.104 5.216 16.032 5.216C17.408 5.216 18.784 5.056 20.16 5.056C20.992 5.056 21.856 5.088 22.688 5.12C24.896 5.248 26.144 6.24 26.208 8.512C26.272 10.272 26.272 12.032 26.272 13.792C26.272 15.872 26.24 17.952 26.24 20.064C26.24 23.552 25.056 25.984 21.312 26.304C19.168 26.496 15.968 27.008 14.528 28.768C14.112 29.248 13.344 30.432 12.608 30.432C12.352 30.432 12.16 30.24 12.16 29.984C12.16 29.408 12.896 28.48 13.248 28.064C15.104 25.728 17.984 24.992 20.864 24.768C23.68 24.576 24.672 22.784 24.672 20.128ZM5.12 28.384V21.92C3.968 21.952 2.784 22.016 1.632 22.016C1.568 22.016 1.472 22.016 1.376 22.016C0.864 22.016 0 21.984 0 21.472C0 20.448 2.752 20.352 4.224 20.352C4.544 20.352 4.8 20.352 4.96 20.352C5.024 20.352 5.088 20.352 5.12 20.352V16.224L2.976 16.064C0.768 15.904 0.288 14.048 0.256 12.16C0.224 9.568 0.192 6.944 0.192 4.32C0.192 4.128 0.16 3.712 0.16 3.2C0.16 2.08 0.256 0.512001 0.896 0.512001C1.664 0.512001 1.728 2.016 1.728 2.912C1.728 3.168 1.728 3.36 1.728 3.488C1.728 6.272 1.76 9.056 1.824 11.872C1.824 12.672 1.984 14.464 3.104 14.528C3.776 14.592 4.448 14.624 5.12 14.656V2.368C5.12 1.888 5.12 0 5.888 0C6.688 0 6.688 1.856 6.688 2.368V14.656C7.2 14.624 7.712 14.592 8.224 14.528C9.472 14.432 9.728 12.8 9.792 11.872C9.984 8.864 10.08 5.824 10.08 2.816C10.08 2.304 10.08 0.512001 10.88 0.512001C11.552 0.512001 11.616 2.208 11.616 3.328C11.616 3.744 11.616 4.096 11.616 4.256C11.616 6.912 11.52 9.536 11.392 12.16C11.264 14.208 10.624 15.872 8.352 16.064L6.688 16.224V20.352C7.136 20.384 11.68 20.256 11.68 21.536C11.68 22.08 10.848 22.08 10.496 22.08C9.216 22.08 7.936 21.952 6.688 21.92V28.384C6.688 28.864 6.688 30.848 5.888 30.848C5.12 30.848 5.12 28.832 5.12 28.384Z" fill="url(#paint1_linear_3100_37990)"/>
<path d="M46.664 91.52H43.464C42.984 92.64 42.344 93.76 41.416 94.592C41.768 96.064 41.992 97.568 41.992 99.072C41.992 102.272 41.064 105.312 39.432 108.032C39.176 108.512 38.376 109.92 37.736 109.92C37.48 109.92 37.384 109.696 37.384 109.44C37.384 108.8 37.896 107.904 38.184 107.36C39.688 104.832 40.584 102.24 40.584 99.264C40.584 98.176 40.456 97.088 40.232 96.032C38.696 97.44 34.344 101.28 32.328 101.28C32.104 101.28 31.88 101.184 31.88 100.928C31.88 100.416 33.096 99.616 33.48 99.36C36.584 97.216 39.4 94.72 41.64 91.648C40.488 91.712 39.336 91.776 38.216 91.776C35.432 91.776 33.384 90.976 33.16 87.968C33.064 86.432 32.808 84.928 32.808 83.36C32.808 80.224 36.296 79.808 38.728 79.712C40.904 79.616 43.08 79.584 45.256 79.584C47.432 79.584 49.608 79.616 51.752 79.712C54.184 79.808 57.192 80.32 57.192 83.36C57.192 84.896 56.968 86.432 56.872 87.968C56.68 90.848 54.92 91.776 52.168 91.776C50.952 91.776 49.704 91.712 48.488 91.648C50.76 94.752 53.544 97.28 56.712 99.456C57.096 99.712 58.312 100.48 58.312 100.992C58.312 101.248 58.056 101.344 57.864 101.344C55.816 101.344 51.56 97.568 49.992 96.128C49.768 97.184 49.64 98.304 49.64 99.392C49.64 102.336 50.504 104.896 52.008 107.424C52.328 108 52.84 108.864 52.84 109.504C52.84 109.824 52.712 110.016 52.424 110.016C51.848 110.016 50.984 108.512 50.76 108.096C49.128 105.376 48.2 102.336 48.2 99.136C48.2 97.632 48.424 96.128 48.776 94.624C47.816 93.824 47.176 92.672 46.664 91.52ZM44.328 84.832V81.056C43.752 81.024 43.208 81.024 42.632 81.024C41.16 81.024 39.784 81.152 38.312 81.248C37 81.344 34.376 81.44 34.376 83.328V84.992C36.968 84.896 39.56 84.8 42.152 84.8C42.856 84.8 43.592 84.832 44.328 84.832ZM55.624 84.992V83.328C55.624 81.568 53.48 81.344 52.136 81.248C50.408 81.152 48.648 81.024 46.888 81.024L45.864 81.056V84.832L47.592 84.8C50.28 84.8 52.936 84.896 55.624 84.992ZM44.328 89.984V86.368H43.144C40.328 86.368 37.544 86.432 34.728 86.528C34.92 89.184 35.208 90.208 38.216 90.208C40.264 90.208 42.28 89.984 44.328 89.984ZM45.864 89.984H46.472C46.6 89.984 46.696 89.984 46.824 89.984C48.68 89.984 50.568 90.208 52.424 90.208C55.336 90.208 55.208 88.864 55.464 86.528C52.776 86.464 50.088 86.368 47.4 86.368H45.864V89.984Z" fill="url(#paint2_linear_3100_37990)"/>
<path d="M45.864 64.672H47.016C47.176 64.672 47.336 64.672 47.528 64.672C49.032 64.672 51.08 64.8 52.296 65.344C53.096 65.696 54.408 66.304 54.408 67.296C54.408 67.52 54.216 67.648 54.024 67.648C53.512 67.648 52.712 67.2 52.232 66.976C50.92 66.304 48.2 66.176 45.672 66.176C44.04 66.176 42.472 66.24 41.448 66.24C39.016 66.24 37.48 65.152 37.48 62.592V51.104L35.72 51.296C33.832 51.552 33.544 53.984 33.48 55.488C33.256 59.68 33.192 63.904 33.192 68.096C33.192 68.64 33.16 70.176 32.36 70.176C31.72 70.176 31.624 69.056 31.624 68.16C31.624 67.808 31.656 67.456 31.656 67.296C31.656 63.456 31.72 59.584 31.912 55.744C32.04 53.088 32.68 50.08 35.848 49.792L37.48 49.632C37.48 49.44 37.448 48.864 37.448 48.224C37.448 46.912 37.576 45.28 38.312 45.28C38.984 45.28 39.08 46.72 39.08 47.968C39.08 48.704 39.048 49.376 39.048 49.568C39.24 49.568 39.816 49.536 40.488 49.536C41.736 49.536 43.304 49.664 43.304 50.336C43.304 51.008 41.928 51.168 40.712 51.168C39.944 51.168 39.272 51.104 39.048 51.104V62.464C39.048 63.904 40.264 64.672 41.576 64.672H44.328V43.872C40.936 43.904 37.576 44.064 34.216 44.256C33.928 44.288 33.64 44.32 33.352 44.32C33 44.32 31.88 44.32 31.88 43.712C31.88 42.88 33.64 42.72 34.216 42.688C37.576 42.432 40.968 42.336 44.328 42.336C44.328 42.144 44.328 41.824 44.328 41.44C44.328 40.48 44.424 39.168 45.128 39.168C45.8 39.168 45.864 40.544 45.864 41.536C45.864 41.888 45.864 42.176 45.864 42.336C49.224 42.336 52.648 42.368 55.976 42.688C56.52 42.752 58.312 42.912 58.312 43.712C58.312 44.32 57.256 44.32 56.872 44.32C56.584 44.32 56.296 44.288 55.976 44.256C52.616 44 49.256 43.904 45.864 43.872V59.616H48.68C50.216 59.616 51.112 58.368 51.112 56.96V51.04C50.44 51.072 49.736 51.104 49.064 51.104C48.552 51.104 47.144 51.04 47.144 50.304C47.144 49.6 48.68 49.472 49.864 49.472C50.44 49.472 50.92 49.504 51.112 49.504C51.112 49.312 51.08 48.64 51.08 47.904C51.08 46.688 51.176 45.248 51.848 45.248C52.584 45.248 52.712 46.912 52.712 48.192C52.712 48.864 52.68 49.408 52.68 49.6L54.6 49.76C57.64 49.984 58.152 53.248 58.28 55.712C58.472 59.84 58.536 64 58.536 68.128C58.536 68.224 58.536 68.352 58.536 68.512C58.536 69.152 58.472 70.208 57.864 70.208C57.064 70.208 57 68.64 57 68.128C57 63.904 56.936 59.68 56.712 55.456C56.648 54.112 56.456 51.488 54.664 51.264L52.68 51.04V57.024C52.68 59.616 51.496 61.184 48.808 61.184H45.864V64.672Z" fill="url(#paint3_linear_3100_37990)"/>
<path d="M44.328 9.6V6.464H42.952C42.696 6.464 42.44 6.464 42.184 6.464C39.944 6.464 37.672 6.592 35.432 6.72C35.496 8.32 36.04 9.856 37.928 9.856C40.04 9.856 42.184 9.632 44.328 9.6ZM45.864 9.6H46.216C48.392 9.6 50.568 9.856 52.744 9.856C54.504 9.856 54.856 8.16 54.92 6.72C52.584 6.592 50.28 6.464 47.944 6.464C47.656 6.464 47.4 6.464 47.112 6.464H45.864V9.6ZM44.328 4.896V1.472C43.752 1.472 43.176 1.44 42.6 1.44C40.904 1.44 39.208 1.696 37.544 1.696C35.752 1.696 35.048 2.752 35.048 4.448C35.048 4.672 35.048 4.928 35.08 5.152C37.832 5.024 40.616 4.896 43.368 4.896C43.688 4.896 44.008 4.896 44.328 4.896ZM45.864 4.896H46.536C46.792 4.896 47.048 4.896 47.272 4.896C49.896 4.896 52.488 5.024 55.08 5.152C55.112 4.864 55.112 4.576 55.112 4.288C55.112 2.56 54.568 1.696 52.776 1.696C52.2 1.696 51.592 1.6 51.016 1.568C49.832 1.504 48.616 1.44 47.4 1.44C46.888 1.44 46.376 1.472 45.864 1.472V4.896ZM52.584 11.424C50.088 11.424 47.592 11.232 45.128 11.232C42.76 11.232 40.392 11.424 38.056 11.424C35.368 11.424 33.96 10.336 33.704 7.648C33.608 6.432 33.512 5.216 33.512 3.968C33.512 1.056 35.688 0.256001 38.216 0.128C40.584 0 42.952 0 45.32 0C47.688 0 50.056 0 52.392 0.128C55.528 0.288 56.648 1.536 56.648 4.608C56.648 4.864 56.648 5.152 56.648 5.408C56.648 8.384 56.488 11.424 52.584 11.424ZM46.792 21.824H43.528C43.048 24.512 42.024 28.512 38.92 29.248C37.704 29.504 36.36 29.824 35.112 29.824C34.728 29.824 33.832 29.792 33.832 29.248C33.832 28.448 35.304 28.288 35.848 28.224C36.936 28.096 37.928 27.872 38.984 27.52C40.68 26.976 41.48 23.328 41.832 21.824C39.272 21.888 36.712 21.92 34.152 22.144C33.832 22.144 33.512 22.176 33.192 22.176C32.808 22.176 31.784 22.176 31.784 21.6C31.784 20.352 37.736 20.32 39.368 20.32C39.432 20.32 39.496 20.32 39.56 20.32V17.28C37.704 17.376 35.688 17.664 33.832 17.664C33.448 17.664 32.424 17.664 32.424 17.088C32.424 15.808 38.472 15.776 39.56 15.712C39.56 15.552 39.528 15.136 39.528 14.624C39.528 13.536 39.656 12.064 40.328 12.064C41.032 12.064 41.16 13.536 41.16 14.656C41.16 15.136 41.128 15.552 41.128 15.712C42.472 15.648 43.816 15.648 45.16 15.648C46.472 15.648 47.816 15.648 49.16 15.712C49.16 15.552 49.128 15.072 49.128 14.496C49.128 13.344 49.256 11.872 49.928 11.872C50.632 11.872 50.76 13.376 50.76 14.496C50.76 15.072 50.728 15.52 50.728 15.712C51.848 15.776 57.608 15.808 57.608 17.088C57.608 17.664 56.584 17.664 56.2 17.664C54.376 17.664 52.52 17.408 50.728 17.344V20.32C50.792 20.32 50.856 20.32 50.92 20.32C52.424 20.32 58.312 20.352 58.312 21.6C58.312 22.176 57.256 22.176 56.872 22.176C56.584 22.176 56.296 22.144 55.976 22.144C53.448 21.984 50.92 21.92 48.392 21.824C48.68 23.232 49.416 26.976 51.016 27.488C52.104 27.84 53.128 28.096 54.248 28.224C54.792 28.288 56.296 28.448 56.296 29.248C56.296 29.792 55.432 29.824 55.048 29.824C53.768 29.824 52.424 29.504 51.176 29.248C48.104 28.544 47.176 24.48 46.792 21.824ZM49.16 20.32V17.248C48.008 17.248 46.856 17.216 45.672 17.216H44.616C43.432 17.216 42.28 17.248 41.128 17.248V20.32C42.472 20.256 43.816 20.224 45.128 20.224C46.472 20.224 47.816 20.256 49.16 20.32Z" fill="url(#paint4_linear_3100_37990)"/>
<defs>
<linearGradient id="paint0_linear_3100_37990" x1="2.72799" y1="-4.57523" x2="-22.5256" y2="57.0813" gradientUnits="userSpaceOnUse">
<stop stop-color="#D65454"/>
<stop offset="0.494792" stop-color="#EFA48A"/>
<stop offset="1" stop-color="#D65454"/>
</linearGradient>
<linearGradient id="paint1_linear_3100_37990" x1="2.72799" y1="-4.576" x2="-22.5256" y2="57.0805" gradientUnits="userSpaceOnUse">
<stop stop-color="#D65454"/>
<stop offset="0.494792" stop-color="#EFA48A"/>
<stop offset="1" stop-color="#D65454"/>
</linearGradient>
<linearGradient id="paint2_linear_3100_37990" x1="55.512" y1="1.71998" x2="-6.6007" y2="68.4548" gradientUnits="userSpaceOnUse">
<stop stop-color="#D65454"/>
<stop offset="0.494792" stop-color="#EFA48A"/>
<stop offset="1" stop-color="#D65454"/>
</linearGradient>
<linearGradient id="paint3_linear_3100_37990" x1="55.512" y1="1.71996" x2="-6.60068" y2="68.4548" gradientUnits="userSpaceOnUse">
<stop stop-color="#D65454"/>
<stop offset="0.494792" stop-color="#EFA48A"/>
<stop offset="1" stop-color="#D65454"/>
</linearGradient>
<linearGradient id="paint4_linear_3100_37990" x1="55.512" y1="1.71998" x2="-6.60072" y2="68.4548" gradientUnits="userSpaceOnUse">
<stop stop-color="#D65454"/>
<stop offset="0.494792" stop-color="#EFA48A"/>
<stop offset="1" stop-color="#D65454"/>
</linearGradient>
</defs>
</svg>
