<svg width="90" height="92" viewBox="0 0 90 92" fill="none" xmlns="http://www.w3.org/2000/svg">
<rect width="89.1088" height="92" rx="16" fill="#17191A"/>
<path fill-rule="evenodd" clip-rule="evenodd" d="M23.3993 44.2947L24.8034 42.8504L26.2476 44.2947L24.8034 45.6988L23.3993 44.2947ZM15.3758 44.2947L16.7799 42.8504L18.2241 44.2947L16.7799 45.6988L15.3758 44.2947ZM24.6028 39.1596H29.4295V41.1655H10V39.1596H17.0206V34.6263H13.0088V32.6204H17.0206V29.1302C13.9315 27.686 11.8053 24.5969 11.8053 20.9863C11.8053 16.0118 15.8572 12 20.7916 12C25.2941 12 29.0406 15.2864 29.7113 19.5985H35.1061V14.985H37.112V19.5985H43.0093V14.985H45.0151V19.5985H50.4711V14.985H52.477V19.5985H58.0007C58.6872 15.306 62.389 12.0139 66.873 12.0139C69.3201 12.0139 71.5667 12.9366 73.2918 14.6616C74.9767 16.3466 75.8994 18.6333 75.8994 21.0403C75.8994 24.4904 73.9337 27.4993 71.0853 29.0237C71.6068 32.193 75.6988 34.8007 79.1088 34.8007V36.8065C76.2204 36.8065 73.011 35.3623 71.0051 33.1558V42.1823H68.9992V29.786C68.3172 29.9464 67.6352 30.0668 66.873 30.0668C66.1107 30.0668 65.3485 29.9464 64.6264 29.7458C63.6636 33.8378 58.8494 36.8065 54.6772 36.8065V34.8007C58.0471 34.8007 62.1792 32.193 62.7007 29.0237C61.8984 28.6226 61.1763 28.0609 60.4943 27.419C58.9417 25.8295 58.0022 23.7971 57.8956 21.6044H52.477V31.9384C52.477 34.506 50.3508 36.6322 47.7431 36.6322C45.1355 36.6322 43.0093 34.506 43.0093 31.9384V21.6044H37.112V36.4053C37.112 41.8212 41.5249 46.194 46.9408 46.194H48.6257V48.1999H46.9408C40.4417 48.1999 35.1061 42.9043 35.1061 36.4053V21.6044H29.7972C29.5701 24.9471 27.5141 27.7691 24.6028 29.1302V32.6204H28.6146V34.6263H24.6028V39.1596ZM21.7946 14.0861V19.9834H27.732C27.2907 16.9345 24.8836 14.5274 21.7946 14.0861ZM21.7946 21.9893V27.8866C24.8836 27.4453 27.2907 25.0382 27.732 21.9893H21.7946ZM19.7887 14.0861C16.7398 14.5274 14.3327 16.9345 13.8914 19.9834H19.7887V14.0861ZM13.8914 21.9893C14.3327 25.0382 16.7398 27.4453 19.7887 27.8866V21.9893H13.8914ZM22.5969 39.1596V34.6263H19.0265V39.1596H22.5969ZM22.5969 32.6204V29.8122C22.0353 29.9326 21.4335 29.9727 20.7916 29.9727C20.1899 29.9727 19.5881 29.9326 19.0265 29.8122V32.6204H22.5969ZM50.4711 31.9384V21.6044H45.0151V31.9384C45.0151 33.4228 46.2187 34.6263 47.7431 34.6263C49.2275 34.6263 50.4711 33.4228 50.4711 31.9384ZM65.87 22.0031V27.9807C64.3857 27.74 63.0217 27.058 61.9385 25.9748C60.8152 24.8916 60.1332 23.4875 59.9326 22.0031H65.87ZM65.87 14.1V19.9973H59.9727C60.414 16.9483 62.8211 14.5413 65.87 14.1ZM67.8759 19.9973V14.1C69.4004 14.3006 70.7644 14.9826 71.8475 16.0657C72.9307 17.1489 73.6127 18.5129 73.8133 20.0374L67.8759 19.9973ZM73.8133 22.0433C73.372 25.0922 70.965 27.5394 67.8759 27.9807V22.0031L73.8133 22.0433ZM63.5031 34.4396V36.3652C63.5031 38.0502 62.1391 39.4543 60.4541 39.4543V41.4602C63.2223 41.4602 65.509 39.1735 65.509 36.3652V34.4396H63.5031ZM57.3275 74.712C57.3275 72.5055 55.5623 70.7002 53.3558 70.7002C51.1494 70.7002 49.3842 72.5055 49.3842 74.712C49.3842 76.8784 51.1494 78.6837 53.3558 78.6837C55.5623 78.6837 57.3275 76.8784 57.3275 74.712ZM55.3216 74.712C55.3216 75.7952 54.439 76.6778 53.3558 76.6778C52.2727 76.6778 51.3901 75.7952 51.3901 74.712C51.3901 73.5887 52.2727 72.7061 53.3558 72.7061C54.439 72.7061 55.3216 73.5887 55.3216 74.712ZM73.2542 75.0254C73.2542 72.2974 71.0477 70.0508 68.2796 70.0508C65.5516 70.0508 63.305 72.2974 63.305 75.0254C63.305 77.7534 65.5516 80 68.2796 80C71.0477 80 73.2542 77.7534 73.2542 75.0254ZM71.2483 75.0254C71.2483 76.6702 69.9244 77.9941 68.2796 77.9941C66.6749 77.9941 65.3109 76.6702 65.3109 75.0254C65.3109 73.3806 66.6749 72.0567 68.2796 72.0567C69.9244 72.0567 71.2483 73.3806 71.2483 75.0254ZM52.3529 65.6856V67.6914H54.3588V65.6856H52.3529ZM54.3588 46.1684V48.1626H52.3529V46.1684H54.3588ZM54.3588 62.6767V60.6709H52.3529V62.6767H54.3588ZM67.3569 54.5253H76.4962V52.5195H60.577V54.5253H65.351V64.7954H60.4567V66.8013H76.4962V64.7954H73.8158C73.3745 61.4657 70.6866 58.7778 67.3569 58.3365V54.5253ZM67.3569 60.3825C69.6035 60.7837 71.3686 62.5489 71.7698 64.7954H67.3569V60.3825ZM45.054 54.7423V78.2424H44.0511C41.8045 78.2424 39.9992 76.4371 39.9992 74.1905H42.0051C42.0051 74.9527 42.4464 75.5946 43.0481 75.9557V54.7423H34.7438C34.463 56.4673 33.7007 58.1523 32.3768 59.4761L30.9727 58.0319C33.4199 55.5847 33.4199 51.5329 30.9727 49.0857L32.3768 47.6415C33.8211 49.0857 34.6234 50.891 34.7839 52.7364H44.6804H45.054H56.849V54.7423H45.054ZM38.3544 64.6425L36.9101 63.2384L34.1019 66.0867L35.506 67.4908L38.3544 64.6425ZM41.1626 67.4908L39.7585 66.0867L36.9101 68.9351L38.3544 70.3392L41.1626 67.4908ZM25.0754 52.7364V49.7188H23.0696V52.7364H16.6934C16.4527 51.1317 15.7306 49.6473 14.5671 48.4839L13.163 49.888C14.166 50.9311 14.7276 52.2951 14.7276 53.7794C14.7276 55.2237 14.166 56.5877 13.163 57.6307L14.5671 59.0349C15.7306 57.8714 16.4527 56.3871 16.6934 54.7423H23.0696V69.0554C22.187 69.2159 21.3846 69.6572 20.7427 70.2991C19.8602 71.1817 19.3787 72.3451 19.3787 73.5887C19.3787 76.1562 21.4649 78.2825 24.0725 78.2825H25.0754V71.1415C26.0383 71.5427 26.7203 72.4654 26.7203 73.5887H28.7261C28.7261 71.3823 27.1616 69.4967 25.0754 69.0554V54.7423H28.8866V52.7364H25.0754ZM23.0696 76.076C22.0666 75.6748 21.3846 74.712 21.3846 73.5887C21.3846 72.8666 21.6654 72.2247 22.187 71.7032C22.4277 71.4625 22.7085 71.2619 23.0696 71.1415V76.076Z" fill="url(#paint0_linear_1801_8934)"/>
<defs>
<linearGradient id="paint0_linear_1801_8934" x1="10" y1="46" x2="79.1088" y2="46" gradientUnits="userSpaceOnUse">
<stop stop-color="#8DBFB4"/>
<stop offset="0.276042" stop-color="#B3DDD1"/>
<stop offset="0.510417" stop-color="#D1DCE2"/>
<stop offset="0.765625" stop-color="#F5B994"/>
<stop offset="1" stop-color="#EF9D6E"/>
</linearGradient>
</defs>
</svg>
