<svg width="430" height="640" viewBox="0 0 430 640" fill="none" xmlns="http://www.w3.org/2000/svg">
<g clip-path="url(#clip0_2838_182)">
<path d="M408.677 10.6667C414.554 10.6667 419.339 15.4533 419.339 21.3333V618.667C419.339 624.547 414.554 629.333 408.677 629.333H21.3228C15.4457 629.333 10.6614 624.547 10.6614 618.667V21.3333C10.6614 15.4533 15.4457 10.6667 21.3228 10.6667H408.677ZM408.677 0H21.3228C9.54193 0 0 9.54667 0 21.3333V618.667C0 630.453 9.54193 640 21.3228 640H408.677C420.458 640 430 630.453 430 618.667V21.3333C430 9.54667 420.458 0 408.677 0Z" fill="white"/>
<path d="M398.536 20.28C403.68 20.28 407.864 24.4667 407.864 29.6133V608.333C407.864 613.48 403.68 617.667 398.536 617.667H31.4644C26.3202 617.667 22.1357 613.48 22.1357 608.333V29.6133C22.1357 24.4667 26.3202 20.28 31.4644 20.28H398.536ZM398.536 18.9467H31.4644C25.5739 18.9467 20.803 23.72 20.803 29.6133V608.333C20.803 614.227 25.5739 619 31.4644 619H398.536C404.426 619 409.197 614.227 409.197 608.333V29.6133C409.197 23.72 404.426 18.9467 398.536 18.9467Z" fill="white"/>
</g>
<defs>
<clipPath id="clip0_2838_182">
<rect width="430" height="640" rx="24" fill="white"/>
</clipPath>
</defs>
</svg>
