<svg width="13" height="12" viewBox="0 0 13 12" fill="none" xmlns="http://www.w3.org/2000/svg">
<path fill-rule="evenodd" clip-rule="evenodd" d="M0.824318 11.3354C0.64135 11.2383 0.571689 11.0113 0.668724 10.8284L6.27417 0.258925C6.3392 0.136297 6.46665 0.0596234 6.60546 0.0596236C6.74427 0.0596245 6.87172 0.136298 6.93675 0.258927L12.5417 10.8276C12.6387 11.0106 12.5691 11.2375 12.3861 11.3346C12.2031 11.4316 11.9762 11.362 11.8791 11.179L11.8733 11.1681L6.60546 8.98607L1.33711 11.1688L1.33131 11.1798C1.23427 11.3627 1.00729 11.4324 0.824318 11.3354ZM10.9978 9.51713L6.60546 1.235L2.21285 9.51757L6.41583 5.68525L6.60531 5.51247L6.79481 5.68524L10.9978 9.51713ZM2.377 10.1291L6.49779 8.42181L6.60543 8.37721L6.71307 8.4218L10.8335 10.1285L6.60533 6.27368L2.377 10.1291Z" fill="#7B96F6"/>
</svg>
