<svg width="136" height="113" viewBox="0 0 136 113" fill="none" xmlns="http://www.w3.org/2000/svg">
<path opacity="0.5" d="M104.825 14.4672C119.02 24.4417 132.184 37.5118 135.274 52.7602C138.365 68.0087 131.268 85.3208 119.935 95.6393C108.603 106.072 93.0345 109.397 79.4124 111.346C65.7903 113.181 54.2287 113.754 41.5224 111.69C28.8161 109.512 14.965 104.697 7.29544 94.7221C-0.488617 84.7475 -2.09122 69.6138 2.71658 57.8048C7.52438 46.1106 18.6281 37.7411 29.3884 27.1933C40.0343 16.5309 50.1077 3.80478 62.8141 0.709239C75.5204 -2.27166 90.7451 4.49268 104.825 14.4672Z" fill="white"/>
</svg>
