<svg width="36" height="36" viewBox="0 0 36 36" fill="none" xmlns="http://www.w3.org/2000/svg">
<g clip-path="url(#clip0_1555_8880)">
<path d="M22 32.9999C22 35.2089 20.209 35.9999 18 35.9999C15.791 35.9999 14 35.2089 14 32.9999L15 23.9999C15 21.7909 15.791 21.9999 18 21.9999C20.209 21.9999 21 21.7909 21 23.9999L22 32.9999Z" fill="#662113"/>
<path d="M31.4061 27.297C24.4431 21.332 21.6231 12.791 18.0001 12.791C14.3771 12.791 11.5571 21.332 4.5951 27.297C1.6691 29.804 3.0631 31.254 7.0741 30.964C10.6501 30.706 13.9931 29.895 18.0001 29.895C22.0071 29.895 25.3521 30.707 28.9261 30.964C32.9381 31.254 34.3311 29.804 31.4061 27.297Z" fill="#5C913B"/>
<path d="M29.145 24.934C23.794 20.027 20.787 13 18 13C15.215 13 12.207 20.027 6.85605 24.934C2.60405 28.832 12.428 29.707 18 24.934C23.569 29.707 33.396 28.832 29.145 24.934Z" fill="#3E721D"/>
<path d="M29.145 20.959C23.794 16.375 20.787 9.81104 18 9.81104C15.215 9.81104 12.207 16.375 6.85605 20.959C2.60405 24.601 12.428 25.418 18 20.959C23.569 25.418 33.396 24.601 29.145 20.959Z" fill="#5C913B"/>
<path d="M26.7001 17.703C22.5231 14.125 20.1761 9 18.0001 9C15.8261 9 13.4771 14.125 9.30007 17.703C5.98107 20.547 13.6501 21.185 18.0001 17.703C22.3491 21.185 30.0201 20.547 26.7001 17.703Z" fill="#3E721D"/>
<path d="M26.7001 14.7259C22.5231 11.1469 20.1761 6.02295 18.0001 6.02295C15.8261 6.02295 13.4771 11.1479 9.30007 14.7259C5.98107 17.5699 13.6501 18.2069 18.0001 14.7259C22.3491 18.2069 30.0201 17.5689 26.7001 14.7259Z" fill="#5C913B"/>
<path d="M25.021 12.0811C21.65 9.19313 19.756 5.05713 18 5.05713C16.245 5.05713 14.35 9.19313 10.979 12.0811C8.30004 14.3761 14.49 14.8901 18 12.0811C21.51 14.8911 27.701 14.3761 25.021 12.0811Z" fill="#3E721D"/>
<path d="M25.021 9.83894C21.65 6.95094 19.756 2.81494 18 2.81494C16.245 2.81494 14.35 6.95094 10.979 9.83894C8.30004 12.1339 14.49 12.6479 18 9.83894C21.51 12.6489 27.701 12.1339 25.021 9.83894Z" fill="#5C913B"/>
<path d="M23.343 6.53982C20.778 4.34182 19.336 1.19482 18 1.19482C16.665 1.19482 15.222 4.34282 12.657 6.53982C10.619 8.28682 15.328 8.67782 18 6.53982C20.671 8.67782 25.382 8.28582 23.343 6.53982Z" fill="#3E721D"/>
<path d="M23.343 5.345C20.778 3.148 19.336 0 18 0C16.665 0 15.222 3.148 12.657 5.345C10.619 7.092 15.328 7.483 18 5.345C20.671 7.483 25.382 7.091 23.343 5.345Z" fill="#5C913B"/>
</g>
<defs>
<clipPath id="clip0_1555_8880">
<rect width="36" height="36" fill="white"/>
</clipPath>
</defs>
</svg>
