<svg width="36" height="36" viewBox="0 0 36 36" fill="none" xmlns="http://www.w3.org/2000/svg">
<g clip-path="url(#clip0_1555_8894)">
<path d="M33.3979 23.6781C25.8359 28.5531 13.3359 23.2401 15.0229 15.6161C16.5019 8.93211 24.4419 10.8531 26.2479 11.7551C28.0539 12.6571 26.9609 7.86611 22.7729 6.42811C17.0999 4.48011 10.1559 4.89311 7.96088 14.6781C6.46088 21.3651 9.39888 30.7401 20.6799 30.8651C31.9609 30.9901 33.3979 23.6781 33.3979 23.6781Z" fill="#226699"/>
<path d="M35.988 25.193C35.988 23.047 33.234 22.859 31.988 24.074C28.994 26.993 24.586 28.086 18.69 26.935C8.44001 24.935 8.34901 12.921 15.357 9.49403C19.148 7.64003 23.646 9.83503 25.356 11.149C26.844 12.292 29.69 13.809 29.541 11.901C29.223 7.83903 21.262 -0.859969 10.595 4.64003C-0.0709877 10.14 1.22559e-05 22.553 1.22559e-05 24.803V32.053C1.22559e-05 34.262 1.81401 36 4.02301 36H32.023C34.232 36 36 34.262 36 32.053C36 32.053 35.996 25.199 35.988 25.193Z" fill="#55ACEE"/>
</g>
<defs>
<clipPath id="clip0_1555_8894">
<rect width="36" height="36" fill="white"/>
</clipPath>
</defs>
</svg>
