<svg width="32" height="32" viewBox="0 0 32 32" fill="none" xmlns="http://www.w3.org/2000/svg">
    <style>
        #close{
            transform-origin: 50% 50%;
            transition: all ease;
        }
        #close #line1{
            transform-origin: 40.625% 28.125%;
            transition: all ease;
            stroke-dasharray: 450;
            stroke-dashoffset: 0;
        }
        svg:hover #close #line1{ animation: draw 2s ease infinite; }
        #close #line2{
            transform-origin: 40.625% 39.0625%;
            transition: all ease;
            stroke-dasharray: 450;
            stroke-dashoffset: 0;
        }
        svg:hover #close #line2{ animation: draw 2s ease infinite 0.25s; }
        @keyframes draw{
            0%{ stroke-dashoffset: 0; }
            20%{ stroke-dashoffset: 450; }
            60%{ stroke-dashoffset: 450; }
            80%{ stroke-dashoffset: 0; }
            100%{ stroke-dashoffset: 0; }
        }
    </style>
    <g id="close">
        <path id="line1" d="M9.5 23L23.5 9" stroke="#685C78" stroke-width="3" stroke-linecap="round" stroke-linejoin="round"/>
        <path id="line2" d="M23.5 23L9.5 9" stroke="#685C78" stroke-width="3" stroke-linecap="round" stroke-linejoin="round"/>
    </g>
</svg>
