<svg width="17" height="16" viewBox="0 0 17 16" fill="none" xmlns="http://www.w3.org/2000/svg">
<path d="M15.8334 8L14.2067 6.14L14.4334 3.68L12.0267 3.13333L10.7667 1L8.50008 1.97333L6.23341 1L4.97341 3.12667L2.56675 3.66667L2.79341 6.13333L1.16675 8L2.79341 9.86L2.56675 12.3267L4.97341 12.8733L6.23341 15L8.50008 14.02L10.7667 14.9933L12.0267 12.8667L14.4334 12.32L14.2067 9.86L15.8334 8ZM6.75341 10.6733L5.16675 9.07333C5.10495 9.01166 5.05591 8.9384 5.02246 8.85775C4.98901 8.7771 4.97179 8.69065 4.97179 8.60333C4.97179 8.51602 4.98901 8.42957 5.02246 8.34892C5.05591 8.26827 5.10495 8.19501 5.16675 8.13333L5.21341 8.08667C5.47341 7.82667 5.90008 7.82667 6.16008 8.08667L7.23341 9.16667L10.6667 5.72667C10.9267 5.46667 11.3534 5.46667 11.6134 5.72667L11.6601 5.77333C11.9201 6.03333 11.9201 6.45333 11.6601 6.71333L7.71341 10.6733C7.44008 10.9333 7.02008 10.9333 6.75341 10.6733Z" fill="#a97adc"/>
</svg>
