<svg width="48" height="48" viewBox="0 0 48 48" fill="none" xmlns="http://www.w3.org/2000/svg">
<path d="M38.7637 26.6681C44.2828 31.0969 47.3522 35.0119 46.2928 36.8447C44.6194 39.7369 33.2822 36.3309 20.9709 29.2369C8.65968 22.1428 0.034676 14.0475 1.70718 11.1562C2.75343 9.34875 7.57405 10.0012 14.0484 12.4772" stroke="#ffcf25" stroke-width="2" stroke-miterlimit="10"/>
<path d="M24 39C32.2843 39 39 32.2843 39 24C39 15.7157 32.2843 9 24 9C15.7157 9 9 15.7157 9 24C9 32.2843 15.7157 39 24 39Z" stroke="#ffcf25" stroke-width="2" stroke-miterlimit="10"/>
</svg>
