<?xml version="1.0" encoding="utf-8"?>
<!-- Generator: Adobe Illustrator 26.3.1, SVG Export Plug-In . SVG Version: 6.00 Build 0)  -->
<svg version="1.1" id="ile1_00000123417651210334368340000002556149541771179413_"
	 xmlns="http://www.w3.org/2000/svg" xmlns:xlink="http://www.w3.org/1999/xlink" x="0px" y="0px" viewBox="0 0 768 694.4"
	 style="enable-background:new 0 0 768 694.4;" xml:space="preserve">
<style type="text/css">
	.st0{fill:#FFFFFF;} .st1{fill:#FFE9AB;} .st2{opacity:0.5;} .st3{fill:none;stroke:#C6B198;stroke-miterlimit:10;} .st4{fill:none;stroke:#C6B198;stroke-width:0.5;stroke-miterlimit:10;} .st5{opacity:0.7;fill:#D6E8A3;} .st6{fill:#8BC53F;} .st7{font-family:Inter,sans-serif; font-weight: bold;} .st8{font-size:12px;letter-spacing: 0.5px;} .st9{fill:#BAE07E;} .st10{fill:#C6B198;} .st11{fill:#7D9B1F;} .st12{fill:#F9FFE1;} .st13{fill:#B6CE5F;} .st14{fill:#804426;} .st15{fill:#99522E;} .st16{fill:#A6673A;} .st17{fill:#88CC2A;} .st18{fill:#7FB335;} .st19{opacity:0.6;fill:#F9D9B2;} .st20{fill:#F6921E;} .st21{fill:#AF7031;} .st22{fill:#FF8500;} .st23{fill:#FFBF5B;} .st24{fill:#FCD9AC;} .st25{fill:#F2D4B8;} .st26{fill:#6D5433;} .st27{fill:#A65D03;} .st28{fill:#7F6B54;} .st29{fill:#FFF4E6;} .st30{fill:#82557C;} .st31{fill:#FF9700;} .st32{fill:#FFEAD4;} .st33{opacity:0.6;fill:#DBD3F4;} .st34{fill:#957EAA;} .st35{fill:#C29EE8;} .st36{fill:#FFC257;} .st37{fill:#373D4C;} .st38{opacity:0.6;fill:#F9CDCD;} .st39{fill:#EC1C24;} .st40{fill:#EBDBE8;} .st41{fill:#D9A78B;} .st42{fill:#C12F2F;} .st43{fill:#C15757;} .st44{fill:#B8DE6F;} .st45{fill:#CFF2F2;} .st46{fill:#FECA72;} .st47{fill:#ED8080;} .st48{fill:#DB3E3E;} .st49{opacity:0.6;fill:#ACEAE3;} .st50{fill:#3BACB2;} .st51{fill:#50336E;} .st52{fill:#8DD0D8;} .st53{fill:#547D7F;} .st54{fill:#058D9B;} .st55{fill:#14514F;} .st56{fill:#547F7F;} .st57{fill:#B39A7C;} .st58{fill:#A78966;} .st59{fill:#F5DEB2;} .st60{fill:#95673F;} .st61{fill:#ECBE80;} .st62{fill:#D4A160;} .st63{fill:#EFCB99;} .st64{fill:none;stroke:#A57C52;stroke-width:3;stroke-linecap:round;stroke-miterlimit:10;} .st65{fill:#A57C52;} .st66{opacity:0.6;} .st67{opacity:0.2;} .st68{fill:#92ACFF;} .st69{fill:#7D99FF;} .st70{fill:#738EFF;} .st71{fill:#A4BAFF;} .st72{fill:#BFCBF7;} .st73{fill:#5B79F4;} .st74{fill:#FF8970;} .st75{fill:#F78972;} .st76{fill:#C6C6C6;} .st77{fill:#9B9B9B;} .st78{fill:#D4E0F9;} .st79{fill:#9DB4F5;} .st80{fill:#FFFFFF;stroke:#9DB4F5;stroke-width:2;stroke-miterlimit:10;} .st81{font-size:6.8px;} .st82{fill:#FFFFFF;stroke:#8BC53F;stroke-width:2;stroke-miterlimit:10;} .st83{fill:#FFFFFF;stroke:#EF606A;stroke-width:2;stroke-miterlimit:10;} .st84{fill:#EF606A;} .st85{fill:#FFFFFF;stroke:#3BACB2;stroke-width:2;stroke-miterlimit:10;} .st86{fill:#FFFFFF;stroke:#8A6AA5;stroke-width:2;stroke-miterlimit:10;} .st87{fill:#FFFFFF;stroke:#F6921E;stroke-width:2;stroke-miterlimit:10;}

	svg{
		background-image: repeating-linear-gradient(
			-45deg, 
			transparent, 
			transparent 96px,
			rgba(255,255,255,0.1) 96px,
			rgba(255,255,255,0.1) 192px);
		background-size: 200% 200%;
		animation: gradient 40s linear infinite;
	}
	@keyframes gradient {
  		100% { background-position: 100% 100%; }
	}
	text{
		font-family: Inter, sans-serif;
		text-transform: uppercase;
		text-align:center;
		letter-spacing: 0.5px;
		font-weight: bold;
	}
	image#fond{
		background-image: url("https://i.imgur.com/EqHRPUU.png");
		background-size: cover;
	}

	#nawa{ animation: float 3s ease-in-out infinite; }
	#nawa:hover .st66 { opacity: 0.8; }
	#fuji:hover .st38{ opacity: 1; }
	#koide:hover .st49{ opacity: 1; }
	#hinai:hover .st5{ opacity: 1; }
	#nagao:hover .st19{ opacity: 1; }
	#mahoutokoro:hover .st33{ opacity: 1; }

	@keyframes float {
		0% {transform: translatey(0px);}
		50% {transform: translatey(-8px);}
		100% {transform: translatey(0px);}
	}
</style>
<g id="ile_00000041998746196116982750000010557266536439689609_">
	<path id="ile" class="st0" d="M364,65.4c-7.5-1.8-5.9-4.6-38.3-2.6c-32.4,2-44.3-0.7-56.8,7.3c-12.6,7.9-27.1,25.1-42.9,35
		s-46.2,35-51.5,52.2s-15.2,77.3-19.2,81.2c-4,4-6.6,8.6-4.6,14.5c2,5.9,7.3,29.1-7.3,33c-14.5,4-4.6,9.2-5.3,21.8
		c-0.7,12.6-6,51.5-2.7,80.6c3.3,29.1-2.6,66.7-3.9,91.8c-1.3,25.1,0,39.6,7.9,54.8s1.3,37.7,24.4,65.4
		c23.1,27.7,32.4,17.8,58.8,23.8s36.3,21.8,71.3,5.3s66.1-17.8,88.5-20.5s95.8-22.5,113-31c17.2-8.6,47.6-4.6,50.2-41
		c2.6-36.3,22.5-59.4,41-77.9c18.5-18.5,27.7-54.8,31.7-83.2c4-28.4-0.7-63.4,7.3-89.8c7.9-26.4,7.9-35.7,9.2-56.1
		c1.3-20.5,4-35,0-49.5c-4-14.5-8.6-23.8-17.2-25.8c-8.6-2-23.1,3.3-34.3-1.3c-11.2-4.6-39.4-19.3-46.2-21.1
		c-15.2-4-12.6,5.9-44.3-12.6s-52.2-31-72-33.7S377.9,68.8,364,65.4z"/>
	<g id="plages">
		<path class="st1" d="M603.7,433.2c7.8-13.7,14.5-49.1,15.6-57.3c0.9-6.3,0.7-15.4,1-22.2c-11.1,7.2-10.4,18.5-11.6,29.5
			C606.5,403.8,593.2,422.9,603.7,433.2z"/>
		<path class="st1" d="M539.6,511.2c0.5,9.3,4.8,5,7.1,18.6c3.1-24.6,14.3-41.5,27-56.5C545.6,470,539,500.4,539.6,511.2z"/>
	</g>
	<g id="lines" class="st2">
		<g>
			<g>
				<path class="st3" d="M322.3,82.6c-20.5,0-48.9,12.6-66.1,23.8s-39,30.4-43.6,50.9s-7.9,62.1-11.9,72c-4,9.9-13.9,58.8-13.2,77.9
					s1.3,99.1,2.6,114.9c1.3,15.9-4.6,71.3-13.9,93.1c-9.2,21.8-5.9,44.9,4.6,54.8c10.6,9.9,19.8,8.6,47.6,4s60.8-21.8,113-21.8
					s113.6-1.3,130.8-2c17.2-0.7,37.7-4.6,45.6-15.2s11.9-44.3,28.4-60.8s31-31,21.8-48.9c-9.2-17.8,9.9-96.4,10.6-135.4
					c0.7-39,13.2-113-43.6-132.8c-56.8-19.8-72.7-21.8-111.6-44.3S357.3,82.6,322.3,82.6z"/>
				<path class="st3" d="M254.3,139.4c-8.6,11.2-21.1,33-22.5,52.2c-1.3,19.2-9.2,71.3-9.9,83.2c-0.7,11.9,4,74,25.8,106.3
					s45.8,77.9,127.9,83.2s110.6,6.6,121.8-17.8c11.2-24.4,27.1-87.2,27.1-113s2-66.1,0-86.5c-2-20.5-6.6-31-6.6-42.9
					c0-11.9,5.9-14.5-23.8-26.4c-29.7-11.9-42.3-24.4-70-39.6c-27.7-15.2-34.3-19.8-63.4-23.1c-13.7-1.6-38-5-58.8-0.4
					C278.4,119.7,258.8,133.4,254.3,139.4z"/>
				<path class="st3" d="M332.2,148.6c-33.7,1.9-65.4,2-71.3,31c-5.9,29.1,1.3,41.6-4.6,59.4c-5.9,17.8-4,42.3,22.5,74.6
					s52.3,62.1,94.9,62.8s90.1-20.5,96.7-50.2c6.6-29.7,12.6-56.1,5.3-85.9c-7.3-29.7-7.3-35.7-33.7-58.1s-35-32.4-52.2-33.7
					C372.5,147.3,358.5,147.1,332.2,148.6z"/>
				<path class="st3" d="M413.5,200.2c-6.9-11.8-5.9-28.4-42.9-22.5c-37,5.9-56.8,7.9-72,18.5c-15.2,10.6-25.8,46.9,0,68.7
					s65.1,50.9,102.6,32.4c37.5-18.5,36.1-58.1,34.2-70.7S418.6,208.9,413.5,200.2z"/>
				<path class="st3" d="M375.6,215.4c-11.1,4.3-42,18.5-19.6,24.4c22.5,5.9,46.6,1.3,45.1-12.2C399.6,214,389.1,210.1,375.6,215.4z
					"/>
			</g>
			<g>
				<path class="st4" d="M309.8,223.7c8.8-5.3,26.3-3.1,38.3-7.9s35.3-16.7,43.7-10.1c8.4,6.6,22.9,23.2,13.2,36.7
					c-9.7,13.5-30.4,20.1-49.3,9.1c-18.9-11-29.9-16.7-37.9-17.6C309.8,233,303.2,227.7,309.8,223.7z"/>
				<path class="st4" d="M348,198.2c25.2-4.4,44.5-13.7,49.8-3.5s25.5,27.7,23.8,40.1c-1.8,12.3-11,49.3-53.3,42.3
					c-42.3-7-53-21.6-61.3-28.2c-8.3-6.6-25.6-32.1,0-41C332.7,199.1,348,198.2,348,198.2z"/>
				<path class="st4" d="M283,184.1c7.5-6,26-11,46.7-13.7s53.8-11.4,71.6,0c17.8,11.4,27.3,20.3,34.9,28.6
					c7.6,8.4,13.7,17.2,15,40.7c1.3,23.6-2.9,64.5-29.4,76.4c-26.5,11.9-61.8,21.6-94.8-2.6c-33-24.2-58.1-55.2-55.9-79.6
					C273.2,209.6,272.4,192.5,283,184.1z"/>
				<path class="st4" d="M307.1,135.6c19.8-1.8,55.1,0.9,71.4,0c16.3-0.9,33,6.2,52.4,22.9s53.3,37.4,57.2,59.9s20.3,93.4,0,133.4
					s-44.5,66.1-97.3,61.7s-92.5-32.6-112.7-60.3c-20.3-27.7-41.4-66.1-36.6-100.4s1.3-72.2,15.4-88.1S274,138.7,307.1,135.6z"/>
			</g>
		</g>
		<path class="st4" d="M208.1,383.1c8.3,47,11.7,103.7,74.9,119.6c63.2,15.9,118,12.6,149.7,17.8c31.7,5.3,63.4,21.1,77.3-4
			c13.9-25.1,23.8-48.2,31-62.8c7.3-14.5,5.3-28.4,7.9-58.8c2.6-30.4,11.2-115.1,7.3-148.4c-4-33.3-0.1-72.3-34.3-81.9
			c-17.2-4.8-41.6-2.3-62.8-17.1s-77.3-51.8-116.9-53.8c-39.6-2-83.8,20.3-101.3,41.2s-22.2,43.9-26.8,68.7
			c-4.6,24.9-8.6,52.2-10.6,74.2S202.2,349.8,208.1,383.1z"/>
		<path class="st4" d="M196.2,289.9c0,28.5,0,103.8,6.3,138.2s-13.5,74-16.8,81.2c-3.3,7.3-18.9,57.5,9,58.1
			c28,0.7,48.4-9.9,54.4-19.2c5.9-9.2,20.5-20.5,69.4-14.5s113.6,1.3,143.3,3.3c29.7,2,47.6,4,58.1-22.5
			c10.6-26.4,20.5-51.5,31-59.4c10.6-7.9,10-19.2,6.3-26.5c-3.7-7.2-2.1-17.1,2.4-48.8c4.5-31.7,9.8-103.9,7.8-133.2
			s-3.3-58.9-17.2-70.2c-13.9-11.3-19.8-15.9-42.3-19.6c-22.5-3.6-43.5-15.2-56.6-23.1c-13.1-7.9-73.9-43.3-101.3-44.3
			c-27.4-1-48.7-0.7-67.1,8.9s-54.2,31-61.1,52.5c-6.9,21.5-16.4,73.5-19.4,91.4S196.2,276.2,196.2,289.9z"/>
		<path class="st4" d="M174.6,374.3c-0.7,35.2-0.7,81.9-3.6,106.1s-13.1,57.7-3.8,80.6c9.2,22.9,14.1,37.7,32.6,33.5
			c11.4-2.6,24.7-5.7,37.4-1.8c12.8,4,82.8-4,102.2-8.4c19.4-4.4,80.1-10.1,109.7-12.8c29.5-2.6,49.8-7.5,65.6-20.3
			c15.9-12.8,13.7-34.3,22.5-54.6s32.5-37,43.2-43.6c8.8-5.5,6.1-17.6,3.9-31.3c-2.2-13.7,7-57.2,11-74.9
			c4-17.6,7.5-76.8,10.6-104.7c3.1-27.9-2.6-57.8-20.7-74.1c-18.1-16.3-36.1-22-89.8-36.1S393.9,82.4,369.5,77.5
			c-24.4-4.8-71.6-6.2-88.3,5.1c-16.7,11.2-66.5,37.2-71.3,55.3s-13.7,33.5-14.5,49.3s-7.9,57.3-11,69.8c-3.1,12.5-5.7,32.8-7.9,55
			C174.2,334.3,175,353.2,174.6,374.3z"/>
		<path class="st4" d="M159.8,330.1c-0.3,77.5-2.6,153.5-4.6,175.3s-6.3,51.5,8.1,76c14.4,24.4,15,29.7,39.2,31s47.9,4.6,64.4,5.9
			s68.3-4,94.3-12.6c25.9-8.6,29.2-17.8,65.6-21.8c36.3-4,85.9-15.2,102.4-31c16.5-15.9-2-40.7,17.9-66.3
			c18.9-24.4,43.9-31.4,44.2-41c0.3-9.6-3.3-23.1,4-45.6s8.9-35.7,14.9-71.7s20.8-142-7.6-158.9s-50.2-29.4-78.6-36.7
			c-28.4-7.3-72.7-25.4-87.7-31.7c-15-6.3-51.6-21.9-63-27.1c-15.5-7-63.6-4.3-82.1,0c-18.5,4.3-39.9,20.9-50.2,27.8
			c-10.2,6.9-33.4,31.7-38.4,47.6s-22.5,43.5-24.2,59s5.5,31.5,3.5,61.2C180.1,294.1,159.9,303.7,159.8,330.1z"/>
		<path class="st4" d="M209.4,521.8c5,15.1,9.2,29.1,0,29.9c-9.2,0.9-18.5-5.7-14.1-15S206.6,513.6,209.4,521.8z"/>
		<path class="st4" d="M202.5,506c9.6-5.7,10.9,0.9,14.9,11c4,10.1,8,40.1-7.4,43.2s-30-18.5-22.1-34.8
			C195.7,509.1,202.5,506,202.5,506z"/>
	</g>

	<a xlink:href="https://mikrokosmos.forumactif.com/f40-02-hinai" >
	<g id="hinai">
		<path class="st5" d="M324,492.1c-32.4-1.3-67.4-19.8-87.2-46.2c-19.8-26.4-36,25-66.8,34.6c-21.9,6.8-23.7,59.9,10.8,97.1
			c34.5,37.2,99-12.1,136.6-43.8S356.3,493.4,324,492.1z"/>
		<g>
			<path class="st0" d="M253.4,495.1h-42.2c-2.2,0-4-1.8-4-4v-16.6c0-2.2,1.8-4,4-4h42.2c2.2,0,4,1.8,4,4v16.6
				C257.4,493.3,255.6,495.1,253.4,495.1z"/>
			<text transform="matrix(1 0 0 1 214.0254 487.338)" class="st6 st7 st8">Hinai</text>
		</g>
		<g>
			<path class="st9" d="M289.8,495.5c0.6-0.5,1-1.3,0.7-2.2l-4.4-12.8c-0.6-1.7-3-1.7-3.6,0l-4.4,12.8c-0.3,0.8,0,1.7,0.7,2.2
				l-0.7,1.9c-0.4,1.3,0.5,2.6,1.8,2.6h8.9c1.3,0,2.3-1.3,1.8-2.6L289.8,495.5z"/>
			<path class="st10" d="M286.3,501.3L286.3,501.3l-1.5,0.7v-5.9c0-0.2-0.2-0.3-0.3-0.3l0,0c-0.2,0-0.3,0.2-0.3,0.3v9.1h0.7v-2.5
				L286.3,501.3z"/>
		</g>
		<g>
			<path class="st9" d="M183.2,482.5c0.6-0.4,0.8-1.2,0.6-1.9l-3.9-11.2c-0.5-1.5-2.7-1.5-3.2,0l-3.9,11.2c-0.3,0.7,0,1.5,0.6,1.9
				l-0.6,1.7c-0.4,1.1,0.4,2.2,1.6,2.2h7.7c1.2,0,2-1.1,1.6-2.2L183.2,482.5z"/>
			<path class="st10" d="M180.1,487.6L180.1,487.6l-1.3,0.6v-5.1c0-0.2-0.1-0.3-0.3-0.3l0,0c-0.2,0-0.3,0.1-0.3,0.3v8h0.6v-2.2
				L180.1,487.6z"/>
		</g>
		<g>
			<ellipse class="st11" cx="301.3" cy="503.5" rx="8.1" ry="8.4"/>
			<path class="st10" d="M301.7,515.4v-4.9l1.5-2.2l-0.1-0.1l-1.4,1.2v-3.2c0-0.2-0.2-0.4-0.4-0.4l0,0c-0.2,0-0.4,0.2-0.4,0.4v1
				l-1.5-1l-0.1,0.1l1.5,1.9v12.3h0.9v-4l1.5-2.2l-0.1-0.1L301.7,515.4z"/>
		</g>
		<g>
			<ellipse class="st11" cx="168.2" cy="497.2" rx="5.4" ry="5.6"/>
			<path class="st10" d="M168.5,505.1v-3.3l1-1.5l-0.1-0.1l-0.9,0.8v-2.2c0-0.2-0.1-0.3-0.3-0.3l0,0c-0.2,0-0.3,0.1-0.3,0.3v0.7
				l-1-0.7l0,0.1l1,1.3v8.3h0.6v-2.7l1-1.5l-0.1-0.1L168.5,505.1z"/>
		</g>
		<g>
			<ellipse class="st11" cx="318.3" cy="497.2" rx="5.4" ry="5.6"/>
			<path class="st10" d="M318.5,505.1v-3.3l1-1.5l-0.1-0.1l-0.9,0.8v-2.2c0-0.2-0.1-0.3-0.3-0.3l0,0c-0.2,0-0.3,0.1-0.3,0.3v0.7
				l-1-0.7l0,0.1l1,1.3v8.3h0.6v-2.7l1-1.5l-0.1-0.1L318.5,505.1z"/>
		</g>
		<g>
			<ellipse class="st11" cx="243.7" cy="537.3" rx="5.4" ry="5.6"/>
			<path class="st10" d="M244,545.2v-3.3l1-1.5l-0.1-0.1l-0.9,0.8V539c0-0.2-0.1-0.3-0.3-0.3l0,0c-0.2,0-0.3,0.1-0.3,0.3v0.7l-1-0.7
				l0,0.1l1,1.3v8.3h0.6v-2.7l1-1.5l-0.1-0.1L244,545.2z"/>
		</g>
		<g>
			<path class="st12" d="M235.5,522.3c0-2.2-1.4-4-3.1-4.1c-2-0.1-3.3,2-3.3,4.1c0,0.9-0.1,1.8-0.5,2.5c-2,3.7-0.1,8.6,3.2,9
				c2.7,0.4,5.1-2.3,5.1-5.8C236.8,525.2,235.5,525.2,235.5,522.3z"/>
			<polygon class="st10" points="231.8,532.5 231.8,534.6 230.4,533.9 230.3,533.9 231.8,535.3 231.8,542.4 232.5,542.4 
				232.5,532.5 			"/>
		</g>
		<g>
			<path class="st12" d="M179.5,537.1c0-1.7-1.1-3.1-2.3-3.2c-1.5-0.1-2.5,1.6-2.5,3.2c0,0.7-0.1,1.4-0.4,2
				c-1.5,2.9-0.1,6.7,2.4,7.1c2.1,0.3,3.8-1.8,3.8-4.5C180.5,539.4,179.5,539.4,179.5,537.1z"/>
			<polygon class="st10" points="176.7,545.1 176.7,546.7 175.6,546.2 175.6,546.2 176.7,547.2 176.7,552.8 177.2,552.8 
				177.2,545.1 			"/>
		</g>
		<g>
			<g>
				<path class="st13" d="M205.5,524.8c-12.2,0-22.1,9.9-22.1,22.1v2.8c0,0.5,0.4,0.9,0.9,0.9h42.4c0.5,0,0.9-0.4,0.9-0.9v-2.8
					C227.6,534.7,217.7,524.8,205.5,524.8z"/>
			</g>
			<g>
				<path class="st0" d="M205.5,524.8c-12.2,0-22.1,9.9-22.1,22.1v2.8c0,0.5,0.4,0.9,0.9,0.9h42.4c0.5,0,0.9-0.4,0.9-0.9v-2.8
					C227.6,534.7,217.7,524.8,205.5,524.8z M199.4,546c0-1.8,0.1-3.6,0.3-5.2h4.9v5.2H199.4z M192.3,546c0.1-1.8,0.2-3.5,0.6-5.2
					h4.9c-0.2,1.7-0.3,3.4-0.3,5.2C197.5,546,192.3,546,192.3,546z M185.3,546c0.1-1.8,0.4-3.5,0.9-5.2h4.8
					c-0.3,1.7-0.5,3.4-0.6,5.2H185.3z M190.1,533.7h3.2c-0.8,1.6-1.5,3.3-1.9,5.2h-4.5C187.7,537,188.8,535.3,190.1,533.7z
					 M220.8,533.7c1.3,1.5,2.4,3.3,3.3,5.2h-4.5c-0.5-1.9-1.1-3.6-1.9-5.2H220.8L220.8,533.7z M217.6,538.9H213
					c-0.2-1.8-0.6-3.6-1-5.2h3.5C216.3,535.3,217,537,217.6,538.9z M204.5,527v4.9h-3C202.4,529.3,203.5,527.6,204.5,527z
					 M209.4,531.9h-3V527C207.5,527.6,208.6,529.3,209.4,531.9z M204.5,533.7v5.2h-4.7c0.3-1.9,0.6-3.7,1-5.2H204.5L204.5,533.7z
					 M206.4,533.7h3.6c0.4,1.5,0.8,3.3,1,5.2h-4.7L206.4,533.7L206.4,533.7z M211.4,531.9c-0.5-1.6-1.1-3-1.8-4.2
					c1.7,0.9,3.3,2.3,4.7,4.2L211.4,531.9L211.4,531.9z M201.4,527.7c-0.7,1.1-1.3,2.5-1.8,4.2h-2.8
					C198,530,199.6,528.6,201.4,527.7z M199,533.7c-0.4,1.6-0.7,3.4-1,5.2h-4.6c0.5-1.9,1.3-3.6,2.1-5.2H199L199,533.7z
					 M206.4,540.8h4.9c0.2,1.6,0.3,3.4,0.3,5.2h-5.2L206.4,540.8L206.4,540.8z M213.5,546c0-1.7-0.1-3.5-0.3-5.2h4.9
					c0.3,1.6,0.5,3.4,0.6,5.2H213.5z M220.5,546c-0.1-1.8-0.2-3.5-0.6-5.2h4.8c0.5,1.6,0.8,3.4,0.9,5.2
					C225.7,546,220.5,546,220.5,546z M218.9,531.9h-2.5c-0.8-1.3-1.7-2.4-2.7-3.4C215.7,529.3,217.4,530.5,218.9,531.9z
					 M194.5,531.9H192c1.5-1.4,3.3-2.5,5.2-3.4C196.2,529.5,195.3,530.6,194.5,531.9z M225.7,548.8h-40.5v-0.9h40.5L225.7,548.8
					L225.7,548.8z"/>
			</g>
		</g>
		<g>
			<path class="st14" d="M219.3,522.6h-3.5c-0.6,0-1.2-0.5-1.2-1.2c0-0.6,0.5-1.2,1.2-1.2h3.5c0.6,0,1.2-0.5,1.2-1.2v-2.3
				c0-0.6,0.5-1.2,1.2-1.2c0.6,0,1.2,0.5,1.2,1.2v2.3C222.8,521.1,221.3,522.6,219.3,522.6z"/>
			<path class="st15" d="M202,527.2h-2.3c-1.9,0-3.5-1.6-3.5-3.5c0-0.6,0.5-1.2,1.2-1.2c0.6,0,1.2,0.5,1.2,1.2
				c0,0.6,0.5,1.2,1.2,1.2h2.3c0.6,0,1.2,0.5,1.2,1.2C203.2,526.7,202.7,527.2,202,527.2z"/>
			<path class="st16" d="M217,516.9v4.6c0,3.2-2.6,5.7-5.7,5.8c-0.7,0-1.2,0.5-1.2,1.2v3.5h-9.2v-3.5c0-4.4,3.6-8.1,8.1-8.1
				c0.6,0,1.2-0.5,1.2-1.2v-2.3c0-0.6,0.5-1.2,1.2-1.2h4.6C216.5,515.7,217,516.2,217,516.9z"/>
			<path class="st17" d="M221.2,508.8c-1.1-2.7-4.1-4.6-7.6-4.6s-6.5,1.9-7.6,4.6c-2.7-0.3-5.1,1.9-5.1,4.6c0,2.5,2.1,4.6,4.6,4.6
				h16.2c2.5,0,4.6-2.1,4.6-4.6C226.3,510.7,223.9,508.5,221.2,508.8z"/>
			<g>
				<path class="st18" d="M198.6,523.8h-4.2c-1.9,0-3.5-1.6-3.5-3.5c0-1.3,0.8-2.5,2-3.1c0.1-0.6,0.4-1.2,0.9-1.6
					c0.7-0.7,1.5-1,2.5-1c1.6,0,2.9,1,3.3,2.5c1.4,0.4,2.5,1.8,2.5,3.3C202,522.2,200.5,523.8,198.6,523.8z"/>
			</g>
		</g>
	</g>
	</a>

	<a xlink:href="https://mikrokosmos.forumactif.com/f44-05-nagao" >
	<g id="nagao">
		<path class="st19" d="M474.9,449.8c-25.8-17.2-69.4-11.2-95.1,0c-25.7,11.2-24.5,57.5-32.8,70.7c-8.3,13.2-51.4,37-82.1,57
			c-17.5,11.4-24.2,12.3-35,29.5c-3.2,5.1-3.5,11.7-2.4,18.4c22.9,6.6,33.7,19.5,66.4,4c35-16.5,66.1-17.8,88.5-20.5
			s95.8-22.5,113-31c15.3-7.6,41.1-5.3,48.4-30.4c-5.3-14.2-10.7-30.8-13.5-44.9C524,470.4,500.7,467,474.9,449.8z"/>
		<g>
			<path class="st0" d="M450.7,554.3h-52.4c-2.2,0-4-1.8-4-4v-16.6c0-2.2,1.8-4,4-4h52.4c2.2,0,4,1.8,4,4v16.6
				C454.7,552.5,452.9,554.3,450.7,554.3z"/>
			<text transform="matrix(1 0 0 1 400.3065 546.6115)" class="st20 st7 st8">NAGAO</text>
		</g>
		<g>
			<polygon class="st0" points="430.7,520 452.2,520 452.2,481.4 441.4,460.5 430.7,466.7 			"/>
			<path class="st21" d="M481,481.7c-0.6,0-28.8,0-28.8,0V520H481V481.7z"/>
			<rect x="452.2" y="491.1" class="st22" width="28.8" height="1.7"/>
			<polygon class="st23" points="441.4,460.5 470.3,460.5 481,481.7 452.2,481.7 			"/>
			<g>
				<polygon class="st24" points="441.4,460.5 452.2,481.7 452.7,481.7 442,460.5 				"/>
				<polygon class="st24" points="444.3,460.5 455,481.7 455.8,481.7 445.1,460.5 				"/>
				<polygon class="st24" points="447.4,460.5 458.1,481.7 459,481.7 448.3,460.5 				"/>
				<polygon class="st24" points="450.6,460.5 461.3,481.7 462.2,481.7 451.5,460.5 				"/>
				<polygon class="st24" points="453.8,460.5 464.5,481.7 465.4,481.7 454.7,460.5 				"/>
				<polygon class="st24" points="457,460.5 467.7,481.7 468.5,481.7 457.8,460.5 				"/>
				<polygon class="st24" points="460.1,460.5 470.9,481.7 471.7,481.7 461,460.5 				"/>
				<polygon class="st24" points="463.3,460.5 474,481.7 474.9,481.7 464.2,460.5 				"/>
				<polygon class="st24" points="466.5,460.5 477.2,481.7 478.1,481.7 467.4,460.5 				"/>
				<polygon class="st24" points="469.7,460.5 480.4,481.7 481,481.7 470.3,460.5 				"/>
			</g>
			<path class="st25" d="M469.2,520v-8.3c0-1.8,1.5-3.2,3.4-3.2c1.9,0,3.4,1.5,3.4,3.2v8.3H469.2z"/>
			<path class="st26" d="M475.5,520h-5.8v-8.1c0-1.6,1.3-2.9,2.9-2.9l0,0c1.6,0,2.9,1.3,2.9,2.9V520z"/>
			<polygon class="st27" points="430.7,466.7 441.4,460.5 441.9,461.4 430.7,467.5 			"/>
			<rect x="433.8" y="471.7" class="st28" width="3.7" height="4.4"/>
			<rect x="433.8" y="478.7" class="st28" width="3.7" height="4.4"/>
			<rect x="438.9" y="478.7" class="st28" width="3.7" height="4.4"/>
			<rect x="438.9" y="485.8" class="st28" width="3.7" height="4.4"/>
			<rect x="444.1" y="485.8" class="st28" width="3.7" height="4.4"/>
			<rect x="444.1" y="492.8" class="st28" width="3.7" height="4.4"/>
			<rect x="444.1" y="499.8" class="st28" width="3.7" height="4.4"/>
			<rect x="444.1" y="506.9" class="st28" width="3.7" height="4.4"/>
			<rect x="438.9" y="492.8" class="st28" width="3.7" height="4.4"/>
			<rect x="438.9" y="499.8" class="st28" width="3.7" height="4.4"/>
			<rect x="438.9" y="506.9" class="st28" width="3.7" height="4.4"/>
			<rect x="433.8" y="485.8" class="st28" width="3.7" height="4.4"/>
			<rect x="433.8" y="492.8" class="st28" width="3.7" height="4.4"/>
			<rect x="433.8" y="499.8" class="st28" width="3.7" height="4.4"/>
			<rect x="433.8" y="506.9" class="st28" width="3.7" height="4.4"/>
		</g>
		<g>
			<path class="st21" d="M416.5,494.2c-0.6-2.5-2.2-4.2-4.1-4.2v0.5c2.1,0,3.8,2.7,3.8,5.9V516h0.5v-19.6c0-3.3,1.7-5.9,3.8-5.9V490
				C418.7,490,417.1,491.8,416.5,494.2z"/>
			<path class="st0" d="M413.5,490.3c0,1-0.8,1.9-1.9,1.9s-1.9-0.8-1.9-1.9s0.8-1.9,1.9-1.9S413.5,489.3,413.5,490.3z"/>
			<path class="st29" d="M412.5,488.6c0.1,0.3,0.2,0.6,0.2,0.9c0,1-0.8,1.9-1.9,1.9c-0.3,0-0.6-0.1-0.9-0.2c0.3,0.6,0.9,1,1.6,1
				c1,0,1.9-0.8,1.9-1.9C413.5,489.6,413.1,489,412.5,488.6z"/>
			<path class="st0" d="M423.2,490.3c0,1-0.8,1.9-1.9,1.9c-1,0-1.9-0.8-1.9-1.9s0.8-1.9,1.9-1.9
				C422.4,488.4,423.2,489.3,423.2,490.3"/>
			<path class="st29" d="M423,491.2c-0.3,0.1-0.6,0.2-0.9,0.2c-1,0-1.9-0.8-1.9-1.9c0-0.3,0.1-0.6,0.2-0.9c-0.6,0.3-1,0.9-1,1.7
				c0,1,0.8,1.9,1.9,1.9C422.1,492.2,422.7,491.7,423,491.2"/>
			<rect x="415.8" y="514.4" class="st26" width="1.3" height="5.6"/>
			<path class="st30" d="M417.8,520h-2.6l0,0c0-0.3,0.3-0.6,0.6-0.6h1.5C417.5,519.4,417.8,519.7,417.8,520L417.8,520z"/>
		</g>
		<g>
			<polygon class="st26" points="347.6,543.7 342.9,548.2 342.4,548.9 346.1,548.9 			"/>
			<polygon class="st0" points="352.2,576.8 343.5,576.8 343.5,548.2 347.6,543.7 352.2,548.1 			"/>
			<rect x="352.2" y="548.1" class="st31" width="25.5" height="28.7"/>
			<rect x="373" y="548.1" class="st31" width="4.6" height="28.7"/>
			<polygon class="st26" points="347.6,543.7 352.8,548.7 378.3,548.7 373.1,543.9 			"/>
			<polygon class="st24" points="366.2,576.8 376.6,576.8 376.5,548 371.4,544.8 366.2,548.1 			"/>
			<polygon class="st32" points="361.9,548.1 366.2,548.1 371.4,544.8 366.9,544.8 			"/>
			
				<rect x="361.9" y="548.1" transform="matrix(-1 -1.224647e-16 1.224647e-16 -1 728.1038 1124.9193)" class="st0" width="4.2" height="28.7"/>
			<rect x="347.1" y="571.5" class="st26" width="1.9" height="5.3"/>
			<rect x="344.5" y="549.3" class="st31" width="1.1" height="2.4"/>
			<rect x="346.1" y="549.3" class="st31" width="1.1" height="2.4"/>
			<rect x="347.7" y="549.3" class="st31" width="1.1" height="2.4"/>
			<rect x="349.3" y="549.3" class="st31" width="1.1" height="2.4"/>
			<rect x="344.5" y="552.3" class="st31" width="1.1" height="2.4"/>
			<rect x="346.1" y="552.3" class="st31" width="1.1" height="2.4"/>
			<rect x="347.7" y="552.3" class="st31" width="1.1" height="2.4"/>
			<rect x="349.3" y="552.3" class="st31" width="1.1" height="2.4"/>
			<rect x="344.5" y="555.2" class="st31" width="1.1" height="2.4"/>
			<rect x="346.1" y="555.2" class="st31" width="1.1" height="2.4"/>
			<rect x="347.7" y="555.2" class="st31" width="1.1" height="2.4"/>
			<rect x="349.3" y="555.2" class="st31" width="1.1" height="2.4"/>
			<rect x="344.5" y="558.2" class="st31" width="1.1" height="2.4"/>
			<rect x="346.1" y="558.2" class="st31" width="1.1" height="2.4"/>
			<rect x="347.7" y="558.2" class="st31" width="1.1" height="2.4"/>
			<rect x="349.3" y="558.2" class="st31" width="1.1" height="2.4"/>
			<rect x="344.5" y="561.2" class="st31" width="1.1" height="2.4"/>
			<rect x="346.1" y="561.2" class="st31" width="1.1" height="2.4"/>
			<rect x="347.7" y="561.2" class="st31" width="1.1" height="2.4"/>
			<rect x="349.3" y="561.2" class="st31" width="1.1" height="2.4"/>
			<rect x="344.5" y="564.2" class="st31" width="1.1" height="2.4"/>
			<rect x="346.1" y="564.2" class="st31" width="1.1" height="2.4"/>
			<rect x="347.7" y="564.2" class="st31" width="1.1" height="2.4"/>
			<rect x="349.3" y="564.2" class="st31" width="1.1" height="2.4"/>
			<rect x="370.7" y="548.7" class="st0" width="1.3" height="3"/>
			<rect x="370.7" y="552.3" class="st0" width="1.3" height="3"/>
			<rect x="370.7" y="556" class="st0" width="1.3" height="3"/>
			<rect x="370.7" y="559.6" class="st0" width="1.3" height="3"/>
			<rect x="370.7" y="563.2" class="st0" width="1.3" height="3"/>
			<rect x="370.7" y="566.9" class="st0" width="1.3" height="3"/>
			<rect x="370.7" y="570.5" class="st0" width="1.3" height="3"/>
			<rect x="351" y="542" class="st26" width="0.8" height="2.8"/>
			<rect x="352.2" y="540" class="st26" width="1.3" height="4.8"/>
		</g>
		<g>
			<path class="st23" d="M329.8,550.3l-3.6,10.5c-0.4,1,0.4,2.1,1.5,2.1h7.3c1.1,0,1.8-1.1,1.5-2.1l-3.6-10.5
				C332.3,548.9,330.3,548.9,329.8,550.3z"/>
			<path class="st10" d="M332.9,563.9L332.9,563.9l-1.2,0.6v-4.8c0-0.2-0.1-0.3-0.3-0.3l0,0c-0.2,0-0.3,0.1-0.3,0.3v1.4l-1.1-0.5
				l0,0.1l1.2,1v5.6h0.6v-2L332.9,563.9z"/>
		</g>
		<g>
			<path class="st23" d="M491.9,509.3l-3.6,10.5c-0.4,1,0.4,2.1,1.5,2.1h7.3c1.1,0,1.8-1.1,1.5-2.1l-3.6-10.5
				C494.4,507.9,492.4,507.9,491.9,509.3z"/>
			<path class="st10" d="M495,522.9L495,522.9l-1.2,0.6v-4.8c0-0.2-0.1-0.3-0.3-0.3l0,0c-0.2,0-0.3,0.1-0.3,0.3v1.4l-1.1-0.5l0,0.1
				l1.2,1v5.6h0.6v-2L495,522.9z"/>
		</g>
		<g>
			<path class="st22" d="M503.9,496.3l-3.6,10.5c-0.4,1,0.4,2.1,1.5,2.1h7.3c1.1,0,1.8-1.1,1.5-2.1l-3.6-10.5
				C506.4,494.9,504.4,494.9,503.9,496.3z"/>
			<path class="st10" d="M507,509.9L507,509.9l-1.2,0.6v-4.8c0-0.2-0.1-0.3-0.3-0.3l0,0c-0.2,0-0.3,0.1-0.3,0.3v1.4l-1.1-0.5l0,0.1
				l1.2,1v5.6h0.6v-2L507,509.9z"/>
		</g>
		<g>
			<path class="st0" d="M507.8,517.2l-3.6,10.3c-0.3,1,0.4,2.1,1.5,2.1h7.1c1.1,0,1.8-1.1,1.5-2.1l-3.6-10.3
				C510.3,515.8,508.3,515.8,507.8,517.2z"/>
			<path class="st10" d="M510.9,530.5L510.9,530.5l-1.2,0.6v-4.7c0-0.1-0.1-0.3-0.3-0.3l0,0c-0.1,0-0.3,0.1-0.3,0.3v1.3l-1.1-0.5
				l0,0.1l1.1,1v5.5h0.5v-2L510.9,530.5z"/>
		</g>
	</g>
	</a>

	<a xlink:href="https://mikrokosmos.forumactif.com/f11-06-mahoutokoro" >
	<g id="mahoutokoro">
		<path class="st33" d="M273.4,206.5c23.7-12.7,45.5-16.8,49.6,6.6c4.2,23.4,5.1,53.6,34.6,52.4s67.8-11.3,69.1-23.1
			c1.3-11.8,5.5-36.6,24.7-29.2s7.1,92.8-19.4,107.9s-91.2,29.9-120.2-3.5c-29.1-33.5-50.9-51.5-48.2-75.2
			C266.2,218.7,262.7,212.2,273.4,206.5z"/>
		<g>
			<path class="st0" d="M429.2,310.3H316.9c-2.2,0-4-1.8-4-4v-16.6c0-2.2,1.8-4,4-4h112.4c2.2,0,4,1.8,4,4v16.6
				C433.2,308.5,431.4,310.3,429.2,310.3z"/>
			<text transform="matrix(1 0 0 1 320.0159 302.5962)" class="st34 st7 st8">mahoutokoro</text>
		</g>
		<g>
			<path class="st12" d="M437,248.9c0-2.2-1.4-4-3.1-4.1c-2-0.1-3.3,2-3.3,4.1c0,0.9-0.1,1.8-0.5,2.5c-2,3.7-0.1,8.6,3.2,9
				c2.7,0.4,5.1-2.3,5.1-5.8C438.3,251.8,437,251.8,437,248.9z"/>
			<polygon class="st10" points="433.3,259.1 433.3,261.2 431.9,260.5 431.8,260.5 433.3,261.9 433.3,269 434,269 434,259.1 			"/>
		</g>
		<g>
			<path class="st35" d="M332.8,270.9c-0.4,0-0.7,0.3-0.7,0.7v0.6h-3.7v-0.6c0-0.4-0.3-0.7-0.7-0.7s-0.7,0.3-0.7,0.7v5.4
				c0,0.4,0.3,0.7,0.7,0.7s0.7-0.3,0.7-0.7v-3.4h3.7v3.4c0,0.4,0.3,0.7,0.7,0.7s0.7-0.3,0.7-0.7v-5.4
				C333.5,271.2,333.2,270.9,332.8,270.9z"/>
			<path class="st35" d="M299,270.9c-0.4,0-0.7,0.3-0.7,0.7v0.6h-3.7v-0.6c0-0.4-0.3-0.7-0.7-0.7s-0.7,0.3-0.7,0.7v5.2
				c0,0.4,0.3,0.7,0.7,0.7s0.7-0.3,0.7-0.7v-3.2h3.7v3.2c0,0.4,0.3,0.7,0.7,0.7s0.7-0.3,0.7-0.7v-5.2
				C299.7,271.2,299.4,270.9,299,270.9z"/>
			<rect x="302.2" y="267.6" class="st0" width="22.4" height="8.6"/>
			<rect x="302.2" y="257.1" class="st0" width="22.4" height="10.4"/>
			<rect x="302.2" y="240.8" class="st0" width="22.4" height="11"/>
			<path class="st36" d="M315.1,229c0.5-0.1,0.8-0.6,0.7-1c-0.1-0.3-0.2-0.5-0.4-0.6l-0.3-0.2c-0.4-0.2-0.5-0.6-0.3-1
				c0.1-0.2,0.3-0.3,0.5-0.4l0.2-0.1c0.3-0.1,0.5-0.4,0.4-0.8c-0.1-0.2-0.2-0.4-0.4-0.4l-0.3-0.1c-0.3-0.1-0.5-0.4-0.5-0.7
				c0-0.5-0.4-1-1-1c0,0,0,0,0,0h-0.5c-0.5,0-1,0.4-1,1c0,0,0,0,0,0c0,0.3-0.2,0.6-0.5,0.7l-0.3,0.1c-0.3,0.1-0.5,0.5-0.4,0.8
				c0.1,0.2,0.2,0.3,0.4,0.4l0.2,0.1c0.4,0.1,0.6,0.5,0.5,0.9c-0.1,0.2-0.2,0.4-0.4,0.5l-0.3,0.2c-0.4,0.2-0.6,0.8-0.4,1.2
				c0.1,0.2,0.3,0.4,0.6,0.4c0.3,0.1,0.5,0.3,0.5,0.6v0.5c0,0.3-0.2,0.5-0.4,0.7l-0.5,0.3c-0.2,0.1-0.3,0.3-0.3,0.5v1.3h4.8v-1.3
				c0-0.2-0.1-0.4-0.3-0.5l-0.5-0.3c-0.2-0.1-0.4-0.4-0.4-0.7v-0.5C314.6,229.3,314.8,229.1,315.1,229z"/>
			<path class="st37" d="M306.9,269.9L306.9,269.9c0.8,0,1.5,0.7,1.5,1.5v1.7c0,0.1-0.1,0.2-0.2,0.2h-2.6c-0.1,0-0.2-0.1-0.2-0.2
				v-1.7C305.4,270.6,306.1,269.9,306.9,269.9L306.9,269.9z"/>
			<path class="st34" d="M327.6,237.2c-3,0.5-6-0.4-8.2-2.4c-0.4-0.4-0.8-0.8-1.2-1.2c-0.4-0.5-1-0.7-1.6-0.7h-6.4
				c-0.6,0-1.2,0.3-1.6,0.8c-0.3,0.4-0.7,0.7-1,1.1c-2.3,2.1-5.4,3.1-8.5,2.5c-0.2,0-0.4-0.1-0.7-0.2c-0.3-0.1-0.7,0.1-0.7,0.4
				c0,0.1,0,0.2,0,0.3c0.3,1.2,1.3,3.1,4.1,3.1h23.4c2.8,0,3.8-1.9,4.1-3.1c0.1-0.3-0.1-0.7-0.4-0.7c-0.1,0-0.2,0-0.3,0
				C328.2,237.1,327.9,237.1,327.6,237.2z"/>
			<polygon class="st37" points="311,243.9 311,251.8 313.4,251.8 315.8,251.8 315.8,243.9 			"/>
			<path class="st34" d="M326.1,251.8h-25.5c-0.3,2.4-2.5,2.7-3.7,2.7c-0.3,0-0.5,0.2-0.5,0.5c0,0.1,0,0.2,0.1,0.2
				c0.6,1.1,1.7,1.6,2.4,1.8c0.4,0.1,0.7,0.2,1.1,0.2h26.6c0.4,0,0.8,0,1.1-0.2c0.7-0.2,1.8-0.7,2.4-1.8c0.1-0.2,0-0.5-0.2-0.7
				c-0.1,0-0.1-0.1-0.2-0.1C328.6,254.5,326.4,254.2,326.1,251.8z"/>
			<polygon class="st37" points="311,260.3 311,267.6 313.4,267.6 315.8,267.6 315.8,260.3 			"/>
			<polygon class="st35" points="313.4,274.2 302.2,274.2 302.2,276.1 313.4,276.1 324.6,276.1 324.6,274.2 			"/>
			<polygon class="st37" points="311.2,270.5 311.2,276.1 313.4,276.1 315.6,276.1 315.6,270.5 			"/>
			<path class="st37" d="M321.2,273.3h-2.6c-0.1,0-0.2-0.1-0.2-0.2v-1.7c0-0.8,0.7-1.5,1.5-1.5l0,0c0.8,0,1.5,0.7,1.5,1.5v1.7
				C321.4,273.2,321.3,273.3,321.2,273.3L321.2,273.3z"/>
			<path class="st34" d="M334.6,277.2c-0.4-0.7-1.1-1.1-1.8-1.1H294c-0.8,0-1.5,0.4-1.8,1.1l-1,1.8h44.5L334.6,277.2z"/>
			<path class="st35" d="M328.9,261.7c-0.4,0-0.7,0.3-0.7,0.7v0.7h-9.2v-0.7c0-0.4-0.3-0.7-0.7-0.7s-0.7,0.3-0.7,0.7v4.5h-8.6v-4.5
				c0-0.4-0.3-0.7-0.7-0.7s-0.7,0.3-0.7,0.7v0.7h-9.2v-0.7c0-0.4-0.3-0.7-0.7-0.7s-0.7,0.3-0.7,0.7v4.1c0,1,0.8,1.8,1.8,1.8h28.8
				c1,0,1.8-0.8,1.8-1.8v-4.1C329.6,262,329.3,261.7,328.9,261.7z M298.5,266.4v-2h9.2v2.4H299C298.7,266.9,298.5,266.7,298.5,266.4
				z M327.8,266.9h-8.7v-2.4h9.2v2C328.2,266.7,328,266.9,327.8,266.9L327.8,266.9z"/>
			<path class="st35" d="M328.9,245.9c-0.4,0-0.7,0.3-0.7,0.7v0.7h-9.2v-0.7c0-0.4-0.3-0.7-0.7-0.7s-0.7,0.3-0.7,0.7v4.5h-8.6v-4.5
				c0-0.4-0.3-0.7-0.7-0.7s-0.7,0.3-0.7,0.7v0.7h-9.2v-0.7c0-0.4-0.3-0.7-0.7-0.7s-0.7,0.3-0.7,0.7v4.1c0,1,0.8,1.8,1.8,1.8h28.8
				c1,0,1.8-0.8,1.8-1.8v-4.1C329.6,246.2,329.3,245.9,328.9,245.9z M298.5,250.7v-2h9.2v2.4H299
				C298.7,251.1,298.5,250.9,298.5,250.7z M327.8,251.1h-8.7v-2.4h9.2v2C328.2,250.9,328,251.1,327.8,251.1L327.8,251.1z"/>
			<rect x="302.2" y="240.8" class="st35" width="22.4" height="1.9"/>
			<rect x="302.2" y="257.1" class="st35" width="22.4" height="2"/>
		</g>
		<g>
			<rect x="341" y="270.5" class="st0" width="16" height="8.6"/>
			<rect x="341" y="260.1" class="st0" width="16" height="10.4"/>
			<path class="st36" d="M350.3,251.3c0.4-0.1,0.6-0.4,0.5-0.8c0-0.2-0.2-0.3-0.3-0.4l-0.3-0.1c-0.3-0.1-0.4-0.5-0.2-0.8
				c0.1-0.1,0.2-0.2,0.3-0.3l0.1,0c0.2-0.1,0.4-0.3,0.3-0.6c0-0.1-0.1-0.3-0.3-0.3l-0.2-0.1c-0.2-0.1-0.4-0.3-0.4-0.5
				c0-0.4-0.3-0.7-0.7-0.7c0,0,0,0,0,0h-0.3c-0.4,0-0.7,0.3-0.7,0.7c0,0,0,0,0,0c0,0.2-0.1,0.4-0.4,0.5l-0.2,0.1
				c-0.2,0.1-0.4,0.4-0.3,0.6c0.1,0.1,0.2,0.2,0.3,0.3l0.1,0c0.3,0.1,0.5,0.4,0.4,0.7c0,0.1-0.1,0.3-0.3,0.3l-0.3,0.1
				c-0.3,0.2-0.4,0.6-0.3,0.9c0.1,0.2,0.3,0.3,0.4,0.3c0.2,0.1,0.4,0.3,0.4,0.5v0.4c0,0.2-0.1,0.4-0.3,0.5l-0.4,0.2
				c-0.1,0.1-0.2,0.2-0.2,0.4v0.9h3.6v-0.9c0-0.2-0.1-0.3-0.2-0.4l-0.4-0.2c-0.2-0.1-0.3-0.3-0.3-0.5v-0.4
				C349.9,251.6,350,251.4,350.3,251.3z"/>
			<path class="st37" d="M344.1,272.9L344.1,272.9c0.8,0,1.5,0.7,1.5,1.5v1.7c0,0.1-0.1,0.2-0.2,0.2h-2.6c-0.1,0-0.2-0.1-0.2-0.2
				v-1.7C342.6,273.5,343.3,272.9,344.1,272.9L344.1,272.9z"/>
			<polygon class="st37" points="346.5,263.2 346.5,270.5 349,270.5 351.4,270.5 351.4,263.2 			"/>
			<polygon class="st35" points="349,277.2 337.8,277.2 337.8,279.1 349,279.1 360.2,279.1 360.2,277.2 			"/>
			<polygon class="st37" points="346.8,273.5 346.8,279.1 349,279.1 351.1,279.1 351.1,273.5 			"/>
			<path class="st37" d="M355.1,276.2h-2.6c-0.1,0-0.2-0.1-0.2-0.2v-1.7c0-0.8,0.7-1.5,1.5-1.5l0,0c0.8,0,1.5,0.7,1.5,1.5v1.7
				C355.3,276.1,355.2,276.2,355.1,276.2L355.1,276.2z"/>
			<path class="st35" d="M360.5,264.6c-0.4,0-0.7,0.3-0.7,0.7v0.7h-5.2v-0.7c0-0.4-0.3-0.7-0.7-0.7s-0.7,0.3-0.7,0.7v4.5h-8.6v-4.5
				c0-0.4-0.3-0.7-0.7-0.7s-0.7,0.3-0.7,0.7v0.7h-5.2v-0.7c0-0.4-0.3-0.7-0.7-0.7s-0.7,0.3-0.7,0.7v4.1c0,1,0.8,1.8,1.8,1.8h20.8
				c1,0,1.8-0.8,1.8-1.8v-4.1C361.2,264.9,360.9,264.6,360.5,264.6z M338.1,269.4v-2h5.2v2.4h-4.7
				C338.3,269.8,338.1,269.6,338.1,269.4z M359.4,269.8h-4.7v-2.4h5.2v2C359.8,269.6,359.6,269.8,359.4,269.8L359.4,269.8z"/>
			<rect x="341" y="260.1" class="st35" width="16" height="2"/>
			<path class="st34" d="M360.6,257.2c-2.4,0.4-4.9-0.3-6.7-2c-0.3-0.3-0.7-0.6-1-1c-0.3-0.4-0.8-0.6-1.3-0.6h-5.3
				c-0.5,0-1,0.2-1.3,0.6c-0.3,0.3-0.5,0.6-0.8,0.9c-1.9,1.7-4.4,2.5-6.9,2.1c-0.2,0-0.4-0.1-0.5-0.1c-0.3-0.1-0.5,0.1-0.6,0.3
				c0,0.1,0,0.2,0,0.3c0.3,1,1.1,2.5,3.3,2.5h19.2c2.3,0,3.1-1.5,3.3-2.5c0.1-0.3-0.1-0.5-0.4-0.6c-0.1,0-0.2,0-0.3,0
				C361.1,257.1,360.8,257.2,360.6,257.2z"/>
		</g>
		<g>
			<path class="st9" d="M407.2,256.7c0.6-0.5,1-1.3,0.7-2.2l-4.4-12.8c-0.6-1.7-3-1.7-3.6,0l-4.4,12.8c-0.3,0.8,0,1.7,0.7,2.2
				l-0.7,1.9c-0.4,1.3,0.5,2.6,1.8,2.6h8.9c1.3,0,2.3-1.3,1.8-2.6L407.2,256.7z"/>
			<path class="st10" d="M403.7,262.5L403.7,262.5l-1.5,0.7v-5.9c0-0.2-0.2-0.3-0.3-0.3l0,0c-0.2,0-0.3,0.2-0.3,0.3v9.1h0.7V264
				L403.7,262.5z"/>
		</g>
		<g>
			<ellipse class="st11" cx="418.7" cy="264.8" rx="8.1" ry="8.4"/>
			<path class="st10" d="M419.1,276.6v-4.9l1.5-2.2l-0.1-0.1l-1.4,1.2v-3.2c0-0.2-0.2-0.4-0.4-0.4l0,0c-0.2,0-0.4,0.2-0.4,0.4v1
				l-1.5-1l-0.1,0.1l1.5,1.9v12.3h0.9v-4l1.5-2.2l-0.1-0.1L419.1,276.6z"/>
		</g>
	</g>
	</a>

	<a xlink:href="https://mikrokosmos.forumactif.com/f41-03-fuji" >
	<g id="fuji">
		<path class="st38" d="M212.7,274.5c-4.4,37.1-20.9,40.6-30.9,45.9c-10,5.3-19.3,5.9-15.3,36.3c4,30.4-11,93.8,15.3,85.9
			c26.3-7.9,44.8-14.9,56-4.2c11.2,10.8,79.6,56.4,101.6,44.5c22-11.9,11.4-37.4,40.4-43.8c29-6.4,52.5-1.8,56.3-15
			c3.8-13.2,7.8-49.9-24.6-44.4s-95.1,12.7-121.5-30.2s-38.8-71.3-43.6-84c-4.8-12.7-13.3-21.1-24.5-15.1S214.7,257.7,212.7,274.5z"
			/>
		<g>
			<path class="st0" d="M292,417.4h-42.2c-2.2,0-4-1.8-4-4v-16.6c0-2.2,1.8-4,4-4H292c2.2,0,4,1.8,4,4v16.6
				C296,415.6,294.2,417.4,292,417.4z"/>
			<text transform="matrix(1 0 0 1 256.7126 409.6431)" class="st39 st7 st8">fuji</text>
		</g>
		<g>
			<rect x="214.4" y="341" class="st40" width="18.7" height="35.2"/>
			<rect x="231.4" y="341" class="st41" width="1.8" height="35.2"/>
			<polygon class="st42" points="205.8,351.8 214.4,345.1 214.4,376.2 205.8,376.2 			"/>
			<rect x="233.1" y="328.9" class="st40" width="26.9" height="47.3"/>
			<rect x="260" y="328.9" class="st0" width="9.6" height="47.3"/>
			<g>
				<rect x="222.9" y="343" class="st43" width="0.9" height="3.5"/>
				<rect x="224.2" y="343" class="st43" width="0.9" height="3.5"/>
				<rect x="225.6" y="343" class="st43" width="0.9" height="3.5"/>
				<rect x="226.9" y="343" class="st43" width="0.9" height="3.5"/>
				<rect x="228.2" y="343" class="st43" width="0.9" height="3.5"/>
				<rect x="229.6" y="343" class="st43" width="0.9" height="3.5"/>
				<rect x="222.9" y="347.2" class="st43" width="0.9" height="3.5"/>
				<rect x="224.2" y="347.2" class="st43" width="0.9" height="3.5"/>
				<rect x="225.6" y="347.2" class="st43" width="0.9" height="3.5"/>
				<rect x="226.9" y="347.2" class="st43" width="0.9" height="3.5"/>
				<rect x="228.2" y="347.2" class="st43" width="0.9" height="3.5"/>
				<rect x="229.6" y="347.2" class="st43" width="0.9" height="3.5"/>
				<rect x="222.9" y="351.5" class="st43" width="0.9" height="3.5"/>
				<rect x="224.2" y="351.5" class="st43" width="0.9" height="3.5"/>
				<rect x="225.6" y="351.5" class="st43" width="0.9" height="3.5"/>
				<rect x="226.9" y="351.5" class="st43" width="0.9" height="3.5"/>
				<rect x="228.2" y="351.5" class="st43" width="0.9" height="3.5"/>
				<rect x="229.6" y="351.5" class="st43" width="0.9" height="3.5"/>
				<rect x="222.9" y="355.7" class="st43" width="0.9" height="3.5"/>
				<rect x="224.2" y="355.7" class="st43" width="0.9" height="3.5"/>
				<rect x="225.6" y="355.7" class="st43" width="0.9" height="3.5"/>
				<rect x="226.9" y="355.7" class="st43" width="0.9" height="3.5"/>
				<rect x="228.2" y="355.7" class="st43" width="0.9" height="3.5"/>
				<rect x="229.6" y="355.7" class="st43" width="0.9" height="3.5"/>
				<rect x="222.9" y="360" class="st43" width="0.9" height="3.5"/>
				<rect x="224.2" y="360" class="st43" width="0.9" height="3.5"/>
				<rect x="225.6" y="360" class="st43" width="0.9" height="3.5"/>
				<rect x="226.9" y="360" class="st43" width="0.9" height="3.5"/>
				<rect x="228.2" y="360" class="st43" width="0.9" height="3.5"/>
				<rect x="229.6" y="360" class="st43" width="0.9" height="3.5"/>
				<rect x="222.9" y="364.2" class="st43" width="0.9" height="3.5"/>
				<rect x="224.2" y="364.2" class="st43" width="0.9" height="3.5"/>
				<rect x="225.6" y="364.2" class="st43" width="0.9" height="3.5"/>
				<rect x="226.9" y="364.2" class="st43" width="0.9" height="3.5"/>
				<rect x="228.2" y="364.2" class="st43" width="0.9" height="3.5"/>
				<rect x="229.6" y="364.2" class="st43" width="0.9" height="3.5"/>
				<rect x="222.9" y="368.5" class="st43" width="0.9" height="3.5"/>
				<rect x="224.2" y="368.5" class="st43" width="0.9" height="3.5"/>
				<rect x="225.6" y="368.5" class="st43" width="0.9" height="3.5"/>
				<rect x="226.9" y="368.5" class="st43" width="0.9" height="3.5"/>
				<rect x="228.2" y="368.5" class="st43" width="0.9" height="3.5"/>
				<rect x="229.6" y="368.5" class="st43" width="0.9" height="3.5"/>
			</g>
			<g>
				<rect x="235.1" y="330.6" class="st43" width="1.3" height="5.3"/>
				<rect x="237.1" y="330.6" class="st43" width="1.3" height="5.3"/>
				<rect x="239.2" y="330.6" class="st43" width="1.3" height="5.3"/>
				<rect x="241.2" y="330.6" class="st43" width="1.3" height="5.3"/>
				<rect x="243.2" y="330.6" class="st43" width="1.3" height="5.3"/>
				<rect x="245.2" y="330.6" class="st43" width="1.3" height="5.3"/>
				<rect x="235.1" y="337" class="st43" width="1.3" height="5.3"/>
				<rect x="237.1" y="337" class="st43" width="1.3" height="5.3"/>
				<rect x="239.2" y="337" class="st43" width="1.3" height="5.3"/>
				<rect x="241.2" y="337" class="st43" width="1.3" height="5.3"/>
				<rect x="243.2" y="337" class="st43" width="1.3" height="5.3"/>
				<rect x="245.2" y="337" class="st43" width="1.3" height="5.3"/>
				<rect x="235.1" y="343.3" class="st43" width="1.3" height="5.3"/>
				<rect x="237.1" y="343.3" class="st43" width="1.3" height="5.3"/>
				<rect x="239.2" y="343.3" class="st43" width="1.3" height="5.3"/>
				<rect x="241.2" y="343.3" class="st43" width="1.3" height="5.3"/>
				<rect x="243.2" y="343.3" class="st43" width="1.3" height="5.3"/>
				<rect x="245.2" y="343.3" class="st43" width="1.3" height="5.3"/>
				<rect x="235.1" y="349.7" class="st43" width="1.3" height="5.3"/>
				<rect x="237.1" y="349.7" class="st43" width="1.3" height="5.3"/>
				<rect x="239.2" y="349.7" class="st43" width="1.3" height="5.3"/>
				<rect x="241.2" y="349.7" class="st43" width="1.3" height="5.3"/>
				<rect x="243.2" y="349.7" class="st43" width="1.3" height="5.3"/>
				<rect x="245.2" y="349.7" class="st43" width="1.3" height="5.3"/>
				<rect x="235.1" y="356.1" class="st43" width="1.3" height="5.3"/>
				<rect x="237.1" y="356.1" class="st43" width="1.3" height="5.3"/>
				<rect x="239.2" y="356.1" class="st43" width="1.3" height="5.3"/>
				<rect x="241.2" y="356.1" class="st43" width="1.3" height="5.3"/>
				<rect x="243.2" y="356.1" class="st43" width="1.3" height="5.3"/>
				<rect x="245.2" y="356.1" class="st43" width="1.3" height="5.3"/>
				<rect x="235.1" y="362.4" class="st43" width="1.3" height="5.3"/>
				<rect x="237.1" y="362.4" class="st43" width="1.3" height="5.3"/>
				<rect x="239.2" y="362.4" class="st43" width="1.3" height="5.3"/>
				<rect x="241.2" y="362.4" class="st43" width="1.3" height="5.3"/>
				<rect x="243.2" y="362.4" class="st43" width="1.3" height="5.3"/>
				<rect x="245.2" y="362.4" class="st43" width="1.3" height="5.3"/>
				<rect x="235.1" y="368.8" class="st43" width="1.3" height="5.3"/>
				<rect x="237.1" y="368.8" class="st43" width="1.3" height="5.3"/>
				<rect x="239.2" y="368.8" class="st43" width="1.3" height="5.3"/>
				<rect x="241.2" y="368.8" class="st43" width="1.3" height="5.3"/>
				<rect x="243.2" y="368.8" class="st43" width="1.3" height="5.3"/>
				<rect x="245.2" y="368.8" class="st43" width="1.3" height="5.3"/>
			</g>
			<g>
				<rect x="248.1" y="330.6" class="st43" width="1.3" height="5.3"/>
				<rect x="250.1" y="330.6" class="st43" width="1.3" height="5.3"/>
				<rect x="252.2" y="330.6" class="st43" width="1.3" height="5.3"/>
				<rect x="254.2" y="330.6" class="st43" width="1.3" height="5.3"/>
				<rect x="256.2" y="330.6" class="st43" width="1.3" height="5.3"/>
				<rect x="258.2" y="330.6" class="st43" width="1.3" height="5.3"/>
				<rect x="248.1" y="337" class="st43" width="1.3" height="5.3"/>
				<rect x="250.1" y="337" class="st43" width="1.3" height="5.3"/>
				<rect x="252.2" y="337" class="st43" width="1.3" height="5.3"/>
				<rect x="254.2" y="337" class="st43" width="1.3" height="5.3"/>
				<rect x="256.2" y="337" class="st43" width="1.3" height="5.3"/>
				<rect x="258.2" y="337" class="st43" width="1.3" height="5.3"/>
				<rect x="248.1" y="343.3" class="st43" width="1.3" height="5.3"/>
				<rect x="250.1" y="343.3" class="st43" width="1.3" height="5.3"/>
				<rect x="252.2" y="343.3" class="st43" width="1.3" height="5.3"/>
				<rect x="254.2" y="343.3" class="st43" width="1.3" height="5.3"/>
				<rect x="256.2" y="343.3" class="st43" width="1.3" height="5.3"/>
				<rect x="258.2" y="343.3" class="st43" width="1.3" height="5.3"/>
				<rect x="248.1" y="349.7" class="st43" width="1.3" height="5.3"/>
				<rect x="250.1" y="349.7" class="st43" width="1.3" height="5.3"/>
				<rect x="252.2" y="349.7" class="st43" width="1.3" height="5.3"/>
				<rect x="254.2" y="349.7" class="st43" width="1.3" height="5.3"/>
				<rect x="256.2" y="349.7" class="st43" width="1.3" height="5.3"/>
				<rect x="258.2" y="349.7" class="st43" width="1.3" height="5.3"/>
				<rect x="248.1" y="356.1" class="st43" width="1.3" height="5.3"/>
				<rect x="250.1" y="356.1" class="st43" width="1.3" height="5.3"/>
				<rect x="252.2" y="356.1" class="st43" width="1.3" height="5.3"/>
				<rect x="254.2" y="356.1" class="st43" width="1.3" height="5.3"/>
				<rect x="256.2" y="356.1" class="st43" width="1.3" height="5.3"/>
				<rect x="258.2" y="356.1" class="st43" width="1.3" height="5.3"/>
				<rect x="248.1" y="362.4" class="st43" width="1.3" height="5.3"/>
				<rect x="250.1" y="362.4" class="st43" width="1.3" height="5.3"/>
				<rect x="252.2" y="362.4" class="st43" width="1.3" height="5.3"/>
				<rect x="254.2" y="362.4" class="st43" width="1.3" height="5.3"/>
				<rect x="256.2" y="362.4" class="st43" width="1.3" height="5.3"/>
				<rect x="258.2" y="362.4" class="st43" width="1.3" height="5.3"/>
				<rect x="248.1" y="368.8" class="st43" width="1.3" height="5.3"/>
				<rect x="250.1" y="368.8" class="st43" width="1.3" height="5.3"/>
				<rect x="252.2" y="368.8" class="st43" width="1.3" height="5.3"/>
				<rect x="254.2" y="368.8" class="st43" width="1.3" height="5.3"/>
				<rect x="256.2" y="368.8" class="st43" width="1.3" height="5.3"/>
				<rect x="258.2" y="368.8" class="st43" width="1.3" height="5.3"/>
			</g>
		</g>
		<g>
			<path class="st39" d="M332,424.3c0,0-2.2-0.7-2.2-0.7c-0.5-0.2-1.1-0.7-1.3-1.2l-2-4.2c-0.4-0.9-1.7-1.7-2.7-1.7H314
				c-1,0-2.5,0.6-3.2,1.4l-4.4,4.7c-0.4,0.4-0.7,1.1-0.7,1.6v6c0,1,0.9,1.9,1.9,1.9H333c0.9,0,1.7-0.9,1.7-1.9v-2.3L332,424.3z
				 M308.3,423.3l3.8-4.1c0.4-0.4,1.3-0.8,1.8-0.8h9.8c0.3,0,0.9,0.3,1,0.6l2,4.2L308.3,423.3L308.3,423.3z"/>
			<g>
				<path class="st44" d="M313.3,427.8c2.4,0,4.3,1.9,4.3,4.3c0,2.4-1.9,4.3-4.3,4.3c-2.4,0-4.3-1.9-4.3-4.3
					C309,429.7,310.9,427.8,313.3,427.8z"/>
				<path class="st44" d="M327.1,427.8c2.4,0,4.3,1.9,4.3,4.3c0,2.4-1.9,4.3-4.3,4.3s-4.3-1.9-4.3-4.3
					C322.8,429.7,324.7,427.8,327.1,427.8z"/>
			</g>
			<g>
				<path class="st0" d="M313.3,430.3c1,0,1.7,0.8,1.7,1.7s-0.8,1.7-1.7,1.7c-1,0-1.7-0.8-1.7-1.7S312.3,430.3,313.3,430.3z"/>
				<path class="st0" d="M327.1,430.3c1,0,1.7,0.8,1.7,1.7s-0.8,1.7-1.7,1.7c-1,0-1.7-0.8-1.7-1.7S326.1,430.3,327.1,430.3z"/>
				<path class="st0" d="M317.4,418.4v4.8h-9.1l3.8-4.1c0.4-0.4,1.3-0.8,1.8-0.8L317.4,418.4L317.4,418.4z"/>
			</g>
			<path class="st45" d="M324.8,419l2,4.2h-9.4v-4.8h6.4C324.1,418.4,324.7,418.8,324.8,419z"/>
			<path class="st46" d="M332,424.3c1.4,0.5,2.6,2.1,2.6,3.6c-1.5,0-2.7-1.2-2.7-2.7C331.9,424.9,331.9,424.6,332,424.3z"/>
		</g>
		<g>
			<path class="st47" d="M178.5,371.9l-3.6,10.5c-0.4,1,0.4,2.1,1.5,2.1h7.3c1.1,0,1.8-1.1,1.5-2.1l-3.6-10.5
				C181,370.5,179,370.5,178.5,371.9z"/>
			<path class="st10" d="M181.6,385.5L181.6,385.5l-1.2,0.6v-4.8c0-0.2-0.1-0.3-0.3-0.3l0,0c-0.2,0-0.3,0.1-0.3,0.3v1.4l-1.1-0.5
				l0,0.1l1.2,1v5.6h0.6v-2L181.6,385.5z"/>
		</g>
		<g>
			<path class="st47" d="M351.6,406.3l-3.6,10.5c-0.4,1,0.4,2.1,1.5,2.1h7.3c1.1,0,1.8-1.1,1.5-2.1l-3.6-10.5
				C354.1,404.9,352,404.9,351.6,406.3z"/>
			<path class="st10" d="M354.7,420L354.7,420l-1.2,0.6v-4.8c0-0.2-0.1-0.3-0.3-0.3l0,0c-0.2,0-0.3,0.1-0.3,0.3v1.4l-1.1-0.5l0,0.1
				l1.2,1v5.6h0.6v-2L354.7,420z"/>
		</g>
		<g>
			<path class="st48" d="M190.5,358.9l-3.6,10.5c-0.4,1,0.4,2.1,1.5,2.1h7.3c1.1,0,1.8-1.1,1.5-2.1l-3.6-10.5
				C193,357.5,191,357.5,190.5,358.9z"/>
			<path class="st10" d="M193.6,372.5L193.6,372.5l-1.2,0.6v-4.8c0-0.2-0.1-0.3-0.3-0.3l0,0c-0.2,0-0.3,0.1-0.3,0.3v1.4l-1.1-0.5
				l0,0.1l1.2,1v5.6h0.6v-2L193.6,372.5z"/>
		</g>
		<g>
			<path class="st0" d="M194.4,379.8l-3.6,10.3c-0.3,1,0.4,2.1,1.5,2.1h7.1c1.1,0,1.8-1.1,1.5-2.1l-3.6-10.3
				C196.9,378.4,194.9,378.4,194.4,379.8z"/>
			<path class="st10" d="M197.5,393.1L197.5,393.1l-1.2,0.6V389c0-0.1-0.1-0.3-0.3-0.3l0,0c-0.1,0-0.3,0.1-0.3,0.3v1.3l-1.1-0.5
				l0,0.1l1.1,1v5.5h0.5v-2L197.5,393.1z"/>
		</g>
		<g>
			<path class="st0" d="M364.6,415.4l-3.6,10.3c-0.3,1,0.4,2.1,1.5,2.1h7.1c1.1,0,1.8-1.1,1.5-2.1l-3.6-10.3
				C367.1,414,365.1,414,364.6,415.4z"/>
			<path class="st10" d="M367.7,428.8L367.7,428.8l-1.2,0.6v-4.7c0-0.1-0.1-0.3-0.3-0.3l0,0c-0.1,0-0.3,0.1-0.3,0.3v1.3l-1.1-0.5
				l0,0.1l1.1,1v5.5h0.5v-2L367.7,428.8z"/>
		</g>
	</g>
	</a>

	<a xlink:href="https://mikrokosmos.forumactif.com/f42-04-koide" >
	<g id="koide">
		<g id="base">
			<path class="st49" d="M186.6,307.2c27.7-22.9,17.8-47.3,13.2-77.9c-4.5-30.7,19.2-19.8,33-60c13.9-40.1,68-54.7,116.9-49.7
				c48.9,5.1,51.3-18,56.3-37l-0.2-0.4c-15.6-5.3-31.4-14.2-41.9-16.8c-7.5-1.8-5.9-4.6-38.3-2.6c-32.4,2-44.3-0.7-56.8,7.3
				c-12.6,7.9-27.1,25.1-42.9,35c-15.9,9.9-46.2,35-51.5,52.2c-5.3,17.2-15.2,77.3-19.2,81.2c-4,4-6.6,8.6-4.6,14.5
				c2,5.9,7.3,29.1-7.3,33c-14.5,4-4.6,9.2-5.3,21.8c0,0.3,0,0.6-0.1,0.8C142.4,312.5,162.2,327.3,186.6,307.2z"/>
			<path class="st1" d="M224.9,114.7c25.1-21.3,35.1-32.7,60.4-39.3c25.3-6.6,33.2-6.1,53.5-13.2c0.2-0.1,0.4-0.2,0.6-0.2
				c-3.8,0.1-8.5,0.3-14.2,0.6c-32.4,2-44.3-0.7-56.8,7.3c-12.6,7.9-27.1,25.1-42.9,35c-15.9,9.9-46.2,35-51.5,52.2
				c-0.8,2.5-1.6,5.8-2.5,9.8l8.2,2.5C196.8,161.3,199.8,136,224.9,114.7z"/>
			<path class="st1" d="M180.8,267.3c4.7-20.9-8.3-31.5-23.5-35.5c-1,3.5-1.8,5.8-2.5,6.5c-4,4-6.6,8.6-4.6,14.5
				c2,5.9,7.3,29.1-7.3,33c-8.7,2.4-8.6,5.2-7.3,9.8C156.2,306.3,175.4,291.5,180.8,267.3z"/>
		</g>
		<g>
			<path class="st0" d="M192.5,208.5h-42.2c-2.2,0-4-1.8-4-4V188c0-2.2,1.8-4,4-4h42.2c2.2,0,4,1.8,4,4v16.6
				C196.5,206.7,194.7,208.5,192.5,208.5z"/>
			<text transform="matrix(1 0 0 1 151.3017 200.8241)" class="st50 st7 st8">koide</text>
		</g>
		<g>
			<polygon class="st51" points="170,272.8 169.2,272.8 170.2,271.9 			"/>
			<polygon class="st52" points="164,292.6 184.6,292.6 184.6,272.6 177,262.3 169.7,272.1 169.7,277.4 164,283.2 			"/>
			<rect x="164" y="289.9" class="st53" width="20.6" height="0.3"/>
			<rect x="184.6" y="272.6" class="st0" width="6.6" height="20"/>
			<polygon class="st54" points="176.8,262.1 183.6,262.1 191.7,272.6 184.6,272.6 			"/>
			<g>
				<polygon class="st55" points="186,272.6 178,262.1 177.4,262.1 185.4,272.6 				"/>
				<polygon class="st55" points="187.2,272.6 179.2,262.1 178.6,262.1 186.6,272.6 				"/>
				<polygon class="st55" points="188.4,272.6 180.4,262.1 179.7,262.1 187.8,272.6 				"/>
				<polygon class="st55" points="189.6,272.6 181.5,262.1 180.9,262.1 189,272.6 				"/>
				<polygon class="st55" points="190.7,272.6 182.7,262.1 182.1,262.1 190.1,272.6 				"/>
				<polygon class="st55" points="191.7,272.6 183.6,262.1 183.3,262.1 191.3,272.6 				"/>
			</g>
			<rect x="181.2" y="259.9" class="st54" width="1.1" height="2.9"/>
			<polygon class="st55" points="181.2,262.9 180.7,262.1 180.2,262.1 180.2,259.9 181.2,259.9 			"/>
			<g>
				<polygon class="st53" points="169.6,272.8 169,272.8 176.8,262.1 177.1,262.5 				"/>
			</g>
			<polygon class="st56" points="169.7,277.1 162.8,283.9 163.8,283.9 164,283.7 164,292.6 169.7,292.6 169.7,278 			"/>
			<rect x="172.4" y="275.5" class="st56" width="1.9" height="5.4"/>
			<rect x="176" y="275.5" class="st56" width="1.9" height="5.4"/>
			<rect x="179.7" y="275.5" class="st56" width="1.9" height="5.4"/>
			<rect x="172.4" y="283.3" class="st56" width="1.9" height="5.4"/>
			<rect x="176" y="283.3" class="st56" width="1.9" height="5.4"/>
			<rect x="179.7" y="283.3" class="st56" width="1.9" height="5.4"/>
			<circle class="st56" cx="177.1" cy="269.7" r="1.4"/>
			<path class="st53" d="M186.6,292.6v-6.1c0-0.9,0.8-1.7,1.8-1.7c1,0,1.8,0.8,1.8,1.7v6.1H186.6z"/>
			<path class="st55" d="M189.6,292.6h-2.2v-6c0-0.6,0.5-1.1,1.1-1.1l0,0c0.6,0,1.1,0.5,1.1,1.1V292.6z"/>
		</g>
		<g id="XMLID_00000158721628146373643610000008716605890713098373_">
			<path id="XMLID_00000085209682673679560390000008081231853164462242_" class="st10" d="M186.7,134.6v11.6c0,0.5,0.4,0.8,0.8,0.8
				l0,0c0.5,0,0.8-0.4,0.8-0.8v-11.6c-0.3,0-0.6-0.1-0.8-0.3C187.3,134.5,187,134.6,186.7,134.6z"/>
			<path id="XMLID_00000179616630685912072970000007424968659176567702_" class="st18" d="M193.7,133.8l1.4-1
				c-0.9-1.3-2.2-2.1-3.8-2.4c-0.5-0.1-1.1-0.1-1.6-0.1c0.2-0.1,0.4-0.3,0.6-0.4c1-0.5,2.1-0.5,3.2-0.2l0.6-1.6
				c-1.5-0.5-3-0.4-4.4,0.2c-0.9,0.4-1.6,1-2.2,1.8v2.1c0.2-0.2,0.5-0.3,0.8-0.3c0.7,0,1.2,0.6,1.2,1.2c0,0,0,0.1,0,0.1
				c1.2,0.7,2.1,2.1,2.1,3.6h1.7c0-2.2-1.2-4.1-3-5.1c0.2,0,0.5,0,0.7,0.1C192.1,132.3,193.1,132.9,193.7,133.8z"/>
			<path id="XMLID_00000073702988344776303620000016869520025539168908_" class="st17" d="M186.7,132.1c0.3,0,0.6,0.1,0.8,0.3v-2.1
				c-0.6-0.8-1.3-1.4-2.2-1.8c-1.4-0.7-3-0.7-4.4-0.2l0.6,1.6c1-0.4,2.2-0.3,3.2,0.2c0.2,0.1,0.4,0.2,0.6,0.4c-0.5-0.1-1,0-1.6,0.1
				c-1.5,0.3-2.9,1.1-3.8,2.4l1.4,1c0.6-0.9,1.6-1.5,2.7-1.7c0.2,0,0.5-0.1,0.7-0.1c-1.8,1-3,2.9-3,5.1h1.7c0-1.5,0.8-2.9,2.1-3.6
				c0,0,0-0.1,0-0.1C185.4,132.7,186,132.1,186.7,132.1z"/>
			<path id="XMLID_00000102545996541652640210000009723233171893627025_" class="st57" d="M187.1,133.4c0-0.4,0.2-0.7,0.4-0.9
				c-0.2-0.2-0.5-0.3-0.8-0.3c-0.7,0-1.2,0.6-1.2,1.2c0,0,0,0.1,0,0.1c0.1,0.6,0.6,1.1,1.2,1.1c0.3,0,0.6-0.1,0.8-0.3
				C187.2,134.1,187.1,133.7,187.1,133.4z"/>
			<path id="XMLID_00000037689491473847880670000016590135883058778033_" class="st58" d="M188.3,132.1c-0.3,0-0.6,0.1-0.8,0.3
				c-0.3,0.2-0.4,0.6-0.4,0.9s0.2,0.7,0.4,0.9c0.2,0.2,0.5,0.3,0.8,0.3c0.6,0,1.2-0.5,1.2-1.1c0,0,0-0.1,0-0.1
				C189.6,132.7,189,132.1,188.3,132.1z"/>
		</g>
		<g id="XMLID_00000107556210394246849850000006670479265584468402_">
			<path id="XMLID_00000176039912916912996920000007806075737207498428_" class="st10" d="M214.2,105.4V117c0,0.5,0.4,0.8,0.8,0.8
				l0,0c0.5,0,0.8-0.4,0.8-0.8v-11.6c-0.3,0-0.6-0.1-0.8-0.3C214.8,105.3,214.5,105.4,214.2,105.4z"/>
			<path id="XMLID_00000160907356169335596540000012177871420905258375_" class="st18" d="M221.2,104.6l1.4-1
				c-0.9-1.3-2.2-2.1-3.8-2.4c-0.5-0.1-1.1-0.1-1.6-0.1c0.2-0.1,0.4-0.3,0.6-0.4c1-0.5,2.1-0.5,3.2-0.2l0.6-1.6
				c-1.5-0.5-3-0.4-4.4,0.2c-0.9,0.4-1.6,1-2.2,1.8v2.1c0.2-0.2,0.5-0.3,0.8-0.3c0.7,0,1.2,0.6,1.2,1.2c0,0,0,0.1,0,0.1
				c1.2,0.7,2.1,2.1,2.1,3.6h1.7c0-2.2-1.2-4.1-3-5.1c0.2,0,0.5,0,0.7,0.1C219.7,103.1,220.6,103.7,221.2,104.6z"/>
			<path id="XMLID_00000047039980869504169960000017359870170085769862_" class="st17" d="M214.2,102.9c0.3,0,0.6,0.1,0.8,0.3v-2.1
				c-0.6-0.8-1.3-1.4-2.2-1.8c-1.4-0.7-3-0.7-4.4-0.2l0.6,1.6c1-0.4,2.2-0.3,3.2,0.2c0.2,0.1,0.4,0.2,0.6,0.4c-0.5-0.1-1,0-1.6,0.1
				c-1.5,0.3-2.9,1.1-3.8,2.4l1.4,1c0.6-0.9,1.6-1.5,2.7-1.7c0.2,0,0.5-0.1,0.7-0.1c-1.8,1-3,2.9-3,5.1h1.7c0-1.5,0.8-2.9,2.1-3.6
				c0,0,0-0.1,0-0.1C212.9,103.5,213.5,102.9,214.2,102.9z"/>
			<path id="XMLID_00000170995295984720733220000010856684402553317506_" class="st57" d="M214.6,104.1c0-0.4,0.2-0.7,0.4-0.9
				c-0.2-0.2-0.5-0.3-0.8-0.3c-0.7,0-1.2,0.6-1.2,1.2c0,0,0,0.1,0,0.1c0.1,0.6,0.6,1.1,1.2,1.1c0.3,0,0.6-0.1,0.8-0.3
				C214.7,104.8,214.6,104.5,214.6,104.1z"/>
			<path id="XMLID_00000067947677091718497580000010476393133214446743_" class="st58" d="M215.8,102.9c-0.3,0-0.6,0.1-0.8,0.3
				c-0.3,0.2-0.4,0.6-0.4,0.9c0,0.4,0.2,0.7,0.4,0.9c0.2,0.2,0.5,0.3,0.8,0.3c0.6,0,1.2-0.5,1.2-1.1c0,0,0-0.1,0-0.1
				C217.1,103.5,216.5,102.9,215.8,102.9z"/>
		</g>
		<g id="village">
			<g>
				<polygon class="st59" points="313.8,59.6 307.4,66.2 320.1,66.2 				"/>
				<path class="st60" d="M314.9,66.2h-2.3c-0.3,0-0.6-0.3-0.6-0.6v-0.8c0-1,0.8-1.7,1.7-1.7c1,0,1.7,0.8,1.7,1.7v0.8
					C315.5,65.9,315.2,66.2,314.9,66.2z"/>
				<rect x="307.4" y="65" class="st61" width="12.7" height="3.1"/>
				<rect x="307.4" y="69.6" class="st61" width="12.7" height="4.2"/>
				<g>
					<path class="st62" d="M319.7,58.5h-2.3c-0.3,0-0.6,0.3-0.6,0.6V61l3.5,1.9v-3.8C320.3,58.7,320,58.5,319.7,58.5z"/>
				</g>
				<path class="st60" d="M322,64.1l-7.1-6c-0.3-0.3-0.7-0.4-1.1-0.4s-0.8,0.1-1.1,0.4l-7.1,6c-0.4,0.3-0.6,0.7-0.6,1.2
					c0,0.5,0.1,0.9,0.4,1.3c0.6,0.7,1.7,0.8,2.4,0.2c0.2-0.2,4.7-3.9,6-5l6,5c0.7,0.6,1.8,0.5,2.4-0.2
					C322.8,65.8,322.7,64.7,322,64.1z"/>
				<path class="st59" d="M320.1,75.4h-12.7c-0.6,0-1.2-0.5-1.2-1.2l0,0c0-0.6,0.5-1.2,1.2-1.2h12.7c0.6,0,1.2,0.5,1.2,1.2l0,0
					C321.3,74.9,320.7,75.4,320.1,75.4z"/>
				<path class="st63" d="M320.1,73.1h-6.3v2.3h6.3c0.6,0,1.2-0.5,1.2-1.2S320.7,73.1,320.1,73.1z"/>
				<path class="st60" d="M316.1,75.4h-4.6v-5.2c0-0.3,0.3-0.6,0.6-0.6h3.5c0.3,0,0.6,0.3,0.6,0.6V75.4L316.1,75.4z"/>
				<path class="st59" d="M320.1,70.4h-12.7c-0.6,0-1.2-0.5-1.2-1.2l0,0c0-0.6,0.5-1.2,1.2-1.2h12.7c0.6,0,1.2,0.5,1.2,1.2l0,0
					C321.3,69.9,320.7,70.4,320.1,70.4z"/>
			</g>
			<g>
				<polygon class="st59" points="313.8,83.5 307,90.4 320.5,90.4 				"/>
				<path class="st60" d="M315,90.4h-2.5c-0.3,0-0.6-0.3-0.6-0.6V89c0-1,0.8-1.8,1.8-1.8s1.8,0.8,1.8,1.8v0.8
					C315.6,90.1,315.3,90.4,315,90.4z"/>
				<rect x="307" y="89.2" class="st61" width="13.5" height="3.3"/>
				<rect x="307" y="94.1" class="st61" width="13.5" height="4.5"/>
				<g>
					<path class="st62" d="M320.1,82.2h-2.5c-0.3,0-0.6,0.3-0.6,0.6v2.1l3.7,2v-4.1C320.7,82.5,320.4,82.2,320.1,82.2z"/>
				</g>
				<path class="st60" d="M322.5,88.2l-7.6-6.3c-0.3-0.3-0.8-0.4-1.2-0.4c-0.4,0-0.8,0.1-1.2,0.4l-7.6,6.3c-0.4,0.3-0.6,0.8-0.7,1.2
					c0,0.5,0.1,1,0.4,1.3c0.7,0.8,1.8,0.9,2.6,0.2c0.2-0.2,5-4.2,6.4-5.3l6.4,5.3c0.8,0.7,1.9,0.5,2.6-0.2
					C323.4,90,323.3,88.8,322.5,88.2z"/>
				<path class="st59" d="M320.5,100.2H307c-0.7,0-1.2-0.5-1.2-1.2l0,0c0-0.7,0.5-1.2,1.2-1.2h13.5c0.7,0,1.2,0.5,1.2,1.2l0,0
					C321.7,99.7,321.2,100.2,320.5,100.2z"/>
				<path class="st63" d="M320.5,97.8h-6.7v2.5h6.7c0.7,0,1.2-0.5,1.2-1.2S321.2,97.8,320.5,97.8z"/>
				<path class="st60" d="M316.2,100.2h-4.9v-5.5c0-0.3,0.3-0.6,0.6-0.6h3.7c0.3,0,0.6,0.3,0.6,0.6V100.2L316.2,100.2z"/>
				<path class="st59" d="M320.5,94.9H307c-0.7,0-1.2-0.5-1.2-1.2l0,0c0-0.7,0.5-1.2,1.2-1.2h13.5c0.7,0,1.2,0.5,1.2,1.2l0,0
					C321.7,94.4,321.2,94.9,320.5,94.9z"/>
			</g>
			<g>
				<polygon class="st59" points="290,92.8 283.2,99.7 296.7,99.7 				"/>
				<path class="st60" d="M291.2,99.7h-2.5c-0.3,0-0.6-0.3-0.6-0.6v-0.8c0-1,0.8-1.8,1.8-1.8s1.8,0.8,1.8,1.8v0.8
					C291.8,99.5,291.5,99.7,291.2,99.7z"/>
				<rect x="283.2" y="98.5" class="st61" width="13.5" height="3.3"/>
				<rect x="283.2" y="103.4" class="st61" width="13.5" height="4.5"/>
				<g>
					<path class="st62" d="M296.3,91.5h-2.5c-0.3,0-0.6,0.3-0.6,0.6v2.1l3.7,2v-4.1C296.9,91.8,296.6,91.5,296.3,91.5z"/>
				</g>
				<path class="st60" d="M298.7,97.5l-7.6-6.3c-0.3-0.3-0.8-0.4-1.2-0.4s-0.8,0.1-1.2,0.4l-7.6,6.3c-0.4,0.3-0.6,0.8-0.7,1.2
					c0,0.5,0.1,1,0.4,1.3c0.7,0.8,1.8,0.9,2.6,0.2c0.2-0.2,5-4.2,6.4-5.3l6.4,5.3c0.8,0.7,1.9,0.5,2.6-0.2
					C299.6,99.3,299.5,98.1,298.7,97.5z"/>
				<path class="st59" d="M296.7,109.5h-13.5c-0.7,0-1.2-0.5-1.2-1.2l0,0c0-0.7,0.5-1.2,1.2-1.2h13.5c0.7,0,1.2,0.5,1.2,1.2l0,0
					C297.9,109,297.4,109.5,296.7,109.5z"/>
				<path class="st63" d="M296.7,107.1H290v2.5h6.7c0.7,0,1.2-0.5,1.2-1.2S297.4,107.1,296.7,107.1z"/>
				<path class="st60" d="M292.4,109.5h-4.9V104c0-0.3,0.3-0.6,0.6-0.6h3.7c0.3,0,0.6,0.3,0.6,0.6V109.5L292.4,109.5z"/>
				<path class="st59" d="M296.7,104.2h-13.5c-0.7,0-1.2-0.5-1.2-1.2l0,0c0-0.7,0.5-1.2,1.2-1.2h13.5c0.7,0,1.2,0.5,1.2,1.2l0,0
					C297.9,103.7,297.4,104.2,296.7,104.2z"/>
			</g>
			<g>
				<polygon class="st59" points="268.3,77.1 261.6,84.1 275,84.1 				"/>
				<path class="st60" d="M269.5,84.1h-2.5c-0.3,0-0.6-0.3-0.6-0.6v-0.8c0-1,0.8-1.8,1.8-1.8s1.8,0.8,1.8,1.8v0.8
					C270.1,83.8,269.9,84.1,269.5,84.1z"/>
				<rect x="261.6" y="82.9" class="st61" width="13.5" height="3.3"/>
				<rect x="261.6" y="87.8" class="st61" width="13.5" height="4.5"/>
				<g>
					<path class="st62" d="M274.6,75.9h-2.5c-0.3,0-0.6,0.3-0.6,0.6v2.1l3.7,2v-4.1C275.2,76.2,275,75.9,274.6,75.9z"/>
				</g>
				<path class="st60" d="M277,81.9l-7.6-6.3c-0.3-0.3-0.8-0.4-1.2-0.4s-0.8,0.1-1.2,0.4l-7.6,6.3c-0.4,0.3-0.6,0.8-0.7,1.2
					c0,0.5,0.1,1,0.4,1.3c0.7,0.8,1.8,0.9,2.6,0.2c0.2-0.2,5-4.2,6.4-5.3l6.4,5.3c0.8,0.7,1.9,0.5,2.6-0.2
					C277.9,83.7,277.8,82.5,277,81.9z"/>
				<path class="st59" d="M275,93.9h-13.5c-0.7,0-1.2-0.5-1.2-1.2l0,0c0-0.7,0.5-1.2,1.2-1.2H275c0.7,0,1.2,0.5,1.2,1.2l0,0
					C276.3,93.3,275.7,93.9,275,93.9z"/>
				<path class="st63" d="M275,91.4h-6.7v2.5h6.7c0.7,0,1.2-0.5,1.2-1.2S275.7,91.4,275,91.4z"/>
				<path class="st60" d="M270.7,93.9h-4.9v-5.5c0-0.3,0.3-0.6,0.6-0.6h3.7c0.3,0,0.6,0.3,0.6,0.6V93.9L270.7,93.9z"/>
				<path class="st59" d="M275,88.6h-13.5c-0.7,0-1.2-0.5-1.2-1.2l0,0c0-0.7,0.5-1.2,1.2-1.2H275c0.7,0,1.2,0.5,1.2,1.2l0,0
					C276.3,88,275.7,88.6,275,88.6z"/>
			</g>
			<path class="st64" d="M249,80.6c0,0-6.6,20.6,2.6,28.9"/>
			<path class="st64" d="M261.8,117.3c0,0,5.9,5.6,26.4,9.4c20.5,3.8,24.2-16.2,43.5-21.3c19.3-5.1,26.8-33.8,12.8-47"/>
			<g>
				<path class="st0" d="M425,100h-90.3c-2.2,0-4-1.8-4-4V79.5c0-2.2,1.8-4,4-4H425c2.2,0,4,1.8,4,4V96C429,98.2,427.2,100,425,100z
					"/>
				<text transform="matrix(1 0 0 1 336.1076 92.3195)" class="st65 st7 st8">VIllage Aya</text>
			</g>
			<g id="XMLID_00000112597655325683679390000001834637663766638250_">
				<path id="XMLID_00000095311137826366183810000015224943013052075140_" class="st10" d="M284.4,59v11.6c0,0.5,0.4,0.8,0.8,0.8
					l0,0c0.5,0,0.8-0.4,0.8-0.8V59c-0.3,0-0.6-0.1-0.8-0.3C285,58.9,284.7,59,284.4,59z"/>
				<path id="XMLID_00000036968525658229559050000012375943963955931538_" class="st18" d="M291.5,58.2l1.4-1
					c-0.9-1.3-2.2-2.1-3.8-2.4c-0.5-0.1-1.1-0.1-1.6-0.1c0.2-0.1,0.4-0.3,0.6-0.4c1-0.5,2.1-0.5,3.2-0.2l0.6-1.6
					c-1.5-0.5-3-0.4-4.4,0.2c-0.9,0.4-1.6,1-2.2,1.8v2.1c0.2-0.2,0.5-0.3,0.8-0.3c0.7,0,1.2,0.6,1.2,1.2c0,0,0,0.1,0,0.1
					c1.2,0.7,2.1,2.1,2.1,3.6h1.7c0-2.2-1.2-4.1-3-5.1c0.2,0,0.5,0,0.7,0.1C289.9,56.7,290.9,57.3,291.5,58.2z"/>
				<path id="XMLID_00000078008551757209058200000007606343325121878700_" class="st17" d="M284.4,56.5c0.3,0,0.6,0.1,0.8,0.3v-2.1
					c-0.6-0.8-1.3-1.4-2.2-1.8c-1.4-0.7-3-0.7-4.4-0.2l0.6,1.6c1-0.4,2.2-0.3,3.2,0.2c0.2,0.1,0.4,0.2,0.6,0.4c-0.5-0.1-1,0-1.6,0.1
					c-1.5,0.3-2.9,1.1-3.8,2.4l1.4,1c0.6-0.9,1.6-1.5,2.7-1.7c0.2,0,0.5-0.1,0.7-0.1c-1.8,1-3,2.9-3,5.1h1.7c0-1.5,0.8-2.9,2.1-3.6
					c0,0,0-0.1,0-0.1C283.2,57.1,283.7,56.5,284.4,56.5z"/>
				<path id="XMLID_00000137850127710333949450000018399150242240634551_" class="st57" d="M284.8,57.7c0-0.4,0.2-0.7,0.4-0.9
					c-0.2-0.2-0.5-0.3-0.8-0.3c-0.7,0-1.2,0.6-1.2,1.2c0,0,0,0.1,0,0.1c0.1,0.6,0.6,1.1,1.2,1.1c0.3,0,0.6-0.1,0.8-0.3
					C285,58.4,284.8,58.1,284.8,57.7z"/>
				<path id="XMLID_00000059307902532121659620000002741554196380811957_" class="st58" d="M286.1,56.5c-0.3,0-0.6,0.1-0.8,0.3
					c-0.3,0.2-0.4,0.6-0.4,0.9c0,0.4,0.2,0.7,0.4,0.9c0.2,0.2,0.5,0.3,0.8,0.3c0.6,0,1.2-0.5,1.2-1.1c0,0,0-0.1,0-0.1
					C287.3,57.1,286.8,56.5,286.1,56.5z"/>
			</g>
		</g>
		<g id="XMLID_00000168077268781225070720000014942813349090451616_">
			<path id="XMLID_00000100354476282772163500000016441622399144656521_" class="st10" d="M162,252.7v11.6c0,0.5,0.4,0.8,0.8,0.8
				l0,0c0.5,0,0.8-0.4,0.8-0.8v-11.6c-0.3,0-0.6-0.1-0.8-0.3C162.6,252.6,162.3,252.7,162,252.7z"/>
			<path id="XMLID_00000040542147560369842610000007592153173424941459_" class="st18" d="M169.1,251.9l1.4-1
				c-0.9-1.3-2.2-2.1-3.8-2.4c-0.5-0.1-1.1-0.1-1.6-0.1c0.2-0.1,0.4-0.3,0.6-0.4c1-0.5,2.1-0.5,3.2-0.2l0.6-1.6
				c-1.5-0.5-3-0.4-4.4,0.2c-0.9,0.4-1.6,1-2.2,1.8v2.1c0.2-0.2,0.5-0.3,0.8-0.3c0.7,0,1.2,0.6,1.2,1.2c0,0,0,0.1,0,0.1
				c1.2,0.7,2.1,2.1,2.1,3.6h1.7c0-2.2-1.2-4.1-3-5.1c0.2,0,0.5,0,0.7,0.1C167.5,250.4,168.4,251,169.1,251.9z"/>
			<path id="XMLID_00000106115079165877636950000008143277620243790766_" class="st17" d="M162,250.2c0.3,0,0.6,0.1,0.8,0.3v-2.1
				c-0.6-0.8-1.3-1.4-2.2-1.8c-1.4-0.7-3-0.7-4.4-0.2l0.6,1.6c1-0.4,2.2-0.3,3.2,0.2c0.2,0.1,0.4,0.2,0.6,0.4c-0.5-0.1-1,0-1.6,0.1
				c-1.5,0.3-2.9,1.1-3.8,2.4l1.4,1c0.6-0.9,1.6-1.5,2.7-1.7c0.2,0,0.5-0.1,0.7-0.1c-1.8,1-3,2.9-3,5.1h1.7c0-1.5,0.8-2.9,2.1-3.6
				c0,0,0-0.1,0-0.1C160.8,250.8,161.3,250.2,162,250.2z"/>
			<path id="XMLID_00000035490082708316083670000012847261353050502058_" class="st57" d="M162.4,251.5c0-0.4,0.2-0.7,0.4-0.9
				c-0.2-0.2-0.5-0.3-0.8-0.3c-0.7,0-1.2,0.6-1.2,1.2c0,0,0,0.1,0,0.1c0.1,0.6,0.6,1.1,1.2,1.1c0.3,0,0.6-0.1,0.8-0.3
				C162.6,252.2,162.4,251.9,162.4,251.5z"/>
			<path id="XMLID_00000178164655757609806180000005663517404648562350_" class="st58" d="M163.7,250.2c-0.3,0-0.6,0.1-0.8,0.3
				c-0.3,0.2-0.4,0.6-0.4,0.9s0.2,0.7,0.4,0.9c0.2,0.2,0.5,0.3,0.8,0.3c0.6,0,1.2-0.5,1.2-1.1c0,0,0-0.1,0-0.1
				C164.9,250.8,164.3,250.2,163.7,250.2z"/>
		</g>
		<g id="XMLID_00000068635670573204707770000008254185674961501107_">
			<path id="XMLID_00000034083878927361350820000005351910060205359029_" class="st10" d="M145.4,278.8v11.6c0,0.5,0.4,0.8,0.8,0.8
				l0,0c0.5,0,0.8-0.4,0.8-0.8v-11.6c-0.3,0-0.6-0.1-0.8-0.3C146,278.7,145.7,278.8,145.4,278.8z"/>
			<path id="XMLID_00000006709549303640165740000018085256700221814162_" class="st18" d="M152.5,278l1.4-1
				c-0.9-1.3-2.2-2.1-3.8-2.4c-0.5-0.1-1.1-0.1-1.6-0.1c0.2-0.1,0.4-0.3,0.6-0.4c1-0.5,2.1-0.5,3.2-0.2l0.6-1.6
				c-1.5-0.5-3-0.4-4.4,0.2c-0.9,0.4-1.6,1-2.2,1.8v2.1c0.2-0.2,0.5-0.3,0.8-0.3c0.7,0,1.2,0.6,1.2,1.2c0,0,0,0.1,0,0.1
				c1.2,0.7,2.1,2.1,2.1,3.6h1.7c0-2.2-1.2-4.1-3-5.1c0.2,0,0.5,0,0.7,0.1C150.9,276.5,151.9,277.1,152.5,278z"/>
			<path id="XMLID_00000056386461670304282650000018202057424308816046_" class="st17" d="M145.4,276.3c0.3,0,0.6,0.1,0.8,0.3v-2.1
				c-0.6-0.8-1.3-1.4-2.2-1.8c-1.4-0.7-3-0.7-4.4-0.2l0.6,1.6c1-0.4,2.2-0.3,3.2,0.2c0.2,0.1,0.4,0.2,0.6,0.4c-0.5-0.1-1,0-1.6,0.1
				c-1.5,0.3-2.9,1.1-3.8,2.4l1.4,1c0.6-0.9,1.6-1.5,2.7-1.7c0.2,0,0.5-0.1,0.7-0.1c-1.8,1-3,2.9-3,5.1h1.7c0-1.5,0.8-2.9,2.1-3.6
				c0,0,0-0.1,0-0.1C144.2,276.9,144.7,276.3,145.4,276.3z"/>
			<path id="XMLID_00000119100210229270728920000014477848191289158542_" class="st57" d="M145.8,277.5c0-0.4,0.2-0.7,0.4-0.9
				c-0.2-0.2-0.5-0.3-0.8-0.3c-0.7,0-1.2,0.6-1.2,1.2c0,0,0,0.1,0,0.1c0.1,0.6,0.6,1.1,1.2,1.1c0.3,0,0.6-0.1,0.8-0.3
				C146,278.2,145.8,277.9,145.8,277.5z"/>
			<path id="XMLID_00000034801256477634748960000005453321908382053788_" class="st58" d="M147.1,276.3c-0.3,0-0.6,0.1-0.8,0.3
				c-0.3,0.2-0.4,0.6-0.4,0.9s0.2,0.7,0.4,0.9c0.2,0.2,0.5,0.3,0.8,0.3c0.6,0,1.2-0.5,1.2-1.1c0,0,0-0.1,0-0.1
				C148.3,276.9,147.8,276.3,147.1,276.3z"/>
		</g>
	</g>
	</a>

	<g id="arbres">
		<g>
			<path class="st9" d="M492.5,344.3c0.7-0.5,1.1-1.5,0.8-2.5l-5.1-14.6c-0.7-2-3.5-2-4.2,0l-5.1,14.6c-0.3,1,0,1.9,0.8,2.5
				l-0.8,2.2c-0.5,1.4,0.6,2.9,2.1,2.9h10.1c1.5,0,2.6-1.5,2.1-2.9L492.5,344.3z"/>
			<path class="st10" d="M488.5,350.9l-0.1-0.1l-1.6,0.9V345c0-0.2-0.2-0.4-0.4-0.4l0,0c-0.2,0-0.4,0.2-0.4,0.4v10.4h0.8v-2.8
				L488.5,350.9z"/>
		</g>
		<g>
			<path class="st9" d="M515.8,363.2c0.7-0.5,1.1-1.5,0.8-2.5l-5.1-14.6c-0.7-2-3.5-2-4.2,0l-5.1,14.6c-0.3,1,0,1.9,0.8,2.5
				l-0.8,2.2c-0.5,1.4,0.6,2.9,2.1,2.9h10.1c1.5,0,2.6-1.5,2.1-2.9L515.8,363.2z"/>
			<path class="st10" d="M511.8,369.8l-0.1-0.1l-1.6,0.9v-6.7c0-0.2-0.2-0.4-0.4-0.4l0,0c-0.2,0-0.4,0.2-0.4,0.4v10.4h0.8v-2.8
				L511.8,369.8z"/>
		</g>
		<g>
			<path class="st9" d="M593.9,311.7c0.7-0.5,1.1-1.5,0.8-2.5l-5.1-14.6c-0.7-2-3.5-2-4.2,0l-5.1,14.6c-0.3,1,0,1.9,0.8,2.5
				l-0.8,2.2c-0.5,1.4,0.6,2.9,2.1,2.9h10.1c1.5,0,2.6-1.5,2.1-2.9L593.9,311.7z"/>
			<path class="st10" d="M590,318.3l-0.1-0.1l-1.6,0.9v-6.7c0-0.2-0.2-0.4-0.4-0.4l0,0c-0.2,0-0.4,0.2-0.4,0.4v10.4h0.8V320
				L590,318.3z"/>
		</g>
		<g>
			<path class="st9" d="M564.7,250.3c0.7-0.5,1.1-1.5,0.8-2.5l-5.1-14.6c-0.7-2-3.5-2-4.2,0l-5.1,14.6c-0.3,1,0,1.9,0.8,2.5
				l-0.8,2.2c-0.5,1.4,0.6,2.9,2.1,2.9h10.1c1.5,0,2.6-1.5,2.1-2.9L564.7,250.3z"/>
			<path class="st10" d="M560.7,257l-0.1-0.1l-1.6,0.9v-6.7c0-0.2-0.2-0.4-0.4-0.4l0,0c-0.2,0-0.4,0.2-0.4,0.4v10.4h0.8v-2.8
				L560.7,257z"/>
		</g>
		<g>
			<path class="st9" d="M567.1,397.1c0.7-0.5,1.1-1.5,0.8-2.5l-5.1-14.6c-0.7-2-3.5-2-4.2,0l-5.1,14.6c-0.3,1,0,1.9,0.8,2.5
				l-0.8,2.2c-0.5,1.4,0.6,2.9,2.1,2.9h10.1c1.5,0,2.6-1.5,2.1-2.9L567.1,397.1z"/>
			<path class="st10" d="M563.2,403.7l-0.1-0.1l-1.6,0.9v-6.7c0-0.2-0.2-0.4-0.4-0.4l0,0c-0.2,0-0.4,0.2-0.4,0.4v10.4h0.8v-2.8
				L563.2,403.7z"/>
		</g>
		<g>
			<path class="st9" d="M586.6,231.4c0.7-0.5,1.1-1.5,0.8-2.5l-5.1-14.6c-0.7-2-3.5-2-4.2,0l-5.1,14.6c-0.3,1,0,1.9,0.8,2.5
				l-0.8,2.2c-0.5,1.4,0.6,2.9,2.1,2.9h10.1c1.5,0,2.6-1.5,2.1-2.9L586.6,231.4z"/>
			<path class="st10" d="M582.7,238.1l-0.1-0.1l-1.6,0.9v-6.7c0-0.2-0.2-0.4-0.4-0.4l0,0c-0.2,0-0.4,0.2-0.4,0.4v10.4h0.8v-2.8
				L582.7,238.1z"/>
		</g>
		<g>
			<path class="st9" d="M437.6,168.4c0.7-0.5,1.1-1.5,0.8-2.5l-5.1-14.6c-0.7-2-3.5-2-4.2,0l-5.1,14.6c-0.3,1,0,1.9,0.8,2.5
				l-0.8,2.2c-0.5,1.4,0.6,2.9,2.1,2.9h10.1c1.5,0,2.6-1.5,2.1-2.9L437.6,168.4z"/>
			<path class="st10" d="M433.7,175l-0.1-0.1l-1.6,0.9v-6.7c0-0.2-0.2-0.4-0.4-0.4l0,0c-0.2,0-0.4,0.2-0.4,0.4v10.4h0.8v-2.8
				L433.7,175z"/>
		</g>
		<g>
			<path class="st9" d="M478,404.7c0.7-0.5,1.1-1.5,0.8-2.5l-5.1-14.6c-0.7-2-3.5-2-4.2,0l-5.1,14.6c-0.3,1,0,1.9,0.8,2.5l-0.8,2.2
				c-0.5,1.4,0.6,2.9,2.1,2.9h10.1c1.5,0,2.6-1.5,2.1-2.9L478,404.7z"/>
			<path class="st10" d="M474,411.4l-0.1-0.1l-1.6,0.9v-6.7c0-0.2-0.2-0.4-0.4-0.4l0,0c-0.2,0-0.4,0.2-0.4,0.4v10.4h0.8V413
				L474,411.4z"/>
		</g>
		<g>
			<path class="st9" d="M528.4,428.4c0.7-0.5,1.1-1.5,0.8-2.5l-5.1-14.6c-0.7-2-3.5-2-4.2,0l-5.1,14.6c-0.3,1,0,1.9,0.8,2.5
				l-0.8,2.2c-0.5,1.4,0.6,2.9,2.1,2.9H527c1.5,0,2.6-1.5,2.1-2.9L528.4,428.4z"/>
			<path class="st10" d="M524.4,435.1l-0.1-0.1l-1.6,0.9v-6.7c0-0.2-0.2-0.4-0.4-0.4l0,0c-0.2,0-0.4,0.2-0.4,0.4v10.4h0.8v-2.8
				L524.4,435.1z"/>
		</g>
		<g>
			<path class="st9" d="M526.2,329.2c0.7-0.5,1.1-1.5,0.8-2.5l-5.1-14.6c-0.7-2-3.5-2-4.2,0l-5.1,14.6c-0.3,1,0,1.9,0.8,2.5
				l-0.8,2.2c-0.5,1.4,0.6,2.9,2.1,2.9h10.1c1.5,0,2.6-1.5,2.1-2.9L526.2,329.2z"/>
			<path class="st10" d="M522.2,335.8l-0.1-0.1l-1.6,0.9v-6.7c0-0.2-0.2-0.4-0.4-0.4l0,0c-0.2,0-0.4,0.2-0.4,0.4v10.4h0.8v-2.8
				L522.2,335.8z"/>
		</g>
		<g>
			<path class="st9" d="M503.6,177.8c0.7-0.5,1-1.4,0.7-2.3l-4.6-13.3c-0.6-1.8-3.2-1.8-3.8,0l-4.6,13.3c-0.3,0.9,0,1.8,0.7,2.3
				l-0.7,2c-0.5,1.3,0.5,2.7,1.9,2.7h9.2c1.4,0,2.3-1.4,1.9-2.7L503.6,177.8z"/>
			<path class="st10" d="M500,183.9l-0.1-0.1l-1.4,0.9v-6.1c0-0.2-0.2-0.4-0.4-0.4l0,0c-0.2,0-0.4,0.2-0.4,0.4v9.5h0.7v-2.6
				L500,183.9z"/>
		</g>
		<g>
			<path class="st9" d="M457.2,147.5c0.7-0.5,1-1.4,0.7-2.3l-4.6-13.3c-0.6-1.8-3.2-1.8-3.8,0l-4.6,13.3c-0.3,0.9,0,1.8,0.7,2.3
				l-0.7,2c-0.5,1.3,0.5,2.7,1.9,2.7h9.2c1.4,0,2.3-1.4,1.9-2.7L457.2,147.5z"/>
			<path class="st10" d="M453.6,153.6l-0.1-0.1l-1.4,0.9v-6.1c0-0.2-0.2-0.4-0.4-0.4l0,0c-0.2,0-0.4,0.2-0.4,0.4v9.5h0.7v-2.6
				L453.6,153.6z"/>
		</g>
		<g>
			<path class="st9" d="M434.8,132.9c0.7-0.5,1-1.4,0.7-2.3l-4.6-13.3c-0.6-1.8-3.2-1.8-3.8,0l-4.6,13.3c-0.3,0.9,0,1.8,0.7,2.3
				l-0.7,2c-0.5,1.3,0.5,2.7,1.9,2.7h9.2c1.4,0,2.3-1.4,1.9-2.7L434.8,132.9z"/>
			<path class="st10" d="M431.2,138.9l-0.1-0.1l-1.4,0.9v-6.1c0-0.2-0.2-0.4-0.4-0.4l0,0c-0.2,0-0.4,0.2-0.4,0.4v9.5h0.7v-2.6
				L431.2,138.9z"/>
		</g>
		<g>
			<path class="st9" d="M535.1,169.1c0.7-0.5,1-1.4,0.7-2.3l-4.6-13.3c-0.6-1.8-3.2-1.8-3.8,0l-4.6,13.3c-0.3,0.9,0,1.8,0.7,2.3
				l-0.7,2c-0.5,1.3,0.5,2.7,1.9,2.7h9.2c1.4,0,2.3-1.4,1.9-2.7L535.1,169.1z"/>
			<path class="st10" d="M531.4,175.2l-0.1-0.1l-1.4,0.9v-6.1c0-0.2-0.2-0.4-0.4-0.4l0,0c-0.2,0-0.4,0.2-0.4,0.4v9.5h0.7v-2.6
				L531.4,175.2z"/>
		</g>
		<g>
			<path class="st9" d="M520.5,202.1c0.7-0.5,1-1.4,0.7-2.3l-4.6-13.3c-0.6-1.8-3.2-1.8-3.8,0l-4.6,13.3c-0.3,0.9,0,1.8,0.7,2.3
				l-0.7,2c-0.5,1.3,0.5,2.7,1.9,2.7h9.2c1.4,0,2.3-1.4,1.9-2.7L520.5,202.1z"/>
			<path class="st10" d="M516.9,208.1l-0.1-0.1l-1.4,0.9v-6.1c0-0.2-0.2-0.4-0.4-0.4l0,0c-0.2,0-0.4,0.2-0.4,0.4v9.5h0.7v-2.6
				L516.9,208.1z"/>
		</g>
		<g>
			<path class="st9" d="M310.1,160.6c0.6-0.5,1-1.4,0.7-2.2l-4.5-13.1c-0.6-1.8-3.1-1.8-3.7,0l-4.5,13.1c-0.3,0.9,0,1.7,0.7,2.2
				l-0.7,2c-0.4,1.3,0.5,2.6,1.9,2.6h9.1c1.4,0,2.3-1.3,1.9-2.6L310.1,160.6z"/>
			<path class="st10" d="M306.5,166.5L306.5,166.5l-1.5,0.7v-6c0-0.2-0.2-0.3-0.3-0.3l0,0c-0.2,0-0.3,0.2-0.3,0.3v9.3h0.7V168
				L306.5,166.5z"/>
		</g>
		<g>
			<path class="st9" d="M324.4,139.4c0.6-0.5,1-1.4,0.7-2.2l-4.5-13.1c-0.6-1.8-3.1-1.8-3.7,0l-4.5,13.1c-0.3,0.9,0,1.7,0.7,2.2
				l-0.7,2c-0.4,1.3,0.5,2.6,1.9,2.6h9.1c1.4,0,2.3-1.3,1.9-2.6L324.4,139.4z"/>
			<path class="st10" d="M320.9,145.4L320.9,145.4l-1.5,0.7v-6c0-0.2-0.2-0.3-0.3-0.3l0,0c-0.2,0-0.3,0.2-0.3,0.3v9.3h0.7v-2.5
				L320.9,145.4z"/>
		</g>
		<g>
			<path class="st9" d="M343.7,152.7c0.6-0.5,1-1.4,0.7-2.2l-4.5-13.1c-0.6-1.8-3.1-1.8-3.7,0l-4.5,13.1c-0.3,0.9,0,1.7,0.7,2.2
				l-0.7,2c-0.4,1.3,0.5,2.6,1.9,2.6h9.1c1.4,0,2.3-1.3,1.9-2.6L343.7,152.7z"/>
			<path class="st10" d="M340.1,158.6L340.1,158.6l-1.5,0.7v-6c0-0.2-0.2-0.3-0.3-0.3l0,0c-0.2,0-0.3,0.2-0.3,0.3v9.3h0.7v-2.5
				L340.1,158.6z"/>
		</g>
		<g>
			<path class="st9" d="M228.4,224.8c0.6-0.5,1-1.3,0.7-2.2l-4.4-12.8c-0.6-1.7-3-1.7-3.6,0l-4.4,12.8c-0.3,0.8,0,1.7,0.7,2.2
				l-0.7,1.9c-0.4,1.3,0.5,2.6,1.8,2.6h8.9c1.3,0,2.3-1.3,1.8-2.6L228.4,224.8z"/>
			<path class="st10" d="M224.9,230.6L224.9,230.6l-1.5,0.7v-5.9c0-0.2-0.2-0.3-0.3-0.3l0,0c-0.2,0-0.3,0.2-0.3,0.3v9.1h0.7v-2.5
				L224.9,230.6z"/>
		</g>
		<g>
			<ellipse class="st11" cx="533.4" cy="191.7" rx="8.1" ry="8.4"/>
			<path class="st10" d="M533.9,203.5v-4.9l1.5-2.2l-0.1-0.1l-1.4,1.2v-3.2c0-0.2-0.2-0.4-0.4-0.4l0,0c-0.2,0-0.4,0.2-0.4,0.4v1
				l-1.5-1l-0.1,0.1l1.5,1.9v12.3h0.9v-4l1.5-2.2l-0.1-0.1L533.9,203.5z"/>
		</g>
		<g>
			<ellipse class="st11" cx="535.4" cy="353.6" rx="5.4" ry="5.6"/>
			<path class="st10" d="M535.7,361.5v-3.3l1-1.5l-0.1-0.1l-0.9,0.8v-2.2c0-0.2-0.1-0.3-0.3-0.3l0,0c-0.2,0-0.3,0.1-0.3,0.3v0.7
				l-1-0.7l0,0.1l1,1.3v8.3h0.6v-2.7l1-1.5l-0.1-0.1L535.7,361.5z"/>
		</g>
		<g>
			<ellipse class="st11" cx="323.7" cy="161.9" rx="5.4" ry="5.6"/>
			<path class="st10" d="M323.9,169.8v-3.3l1-1.5l-0.1-0.1l-0.9,0.8v-2.2c0-0.2-0.1-0.3-0.3-0.3l0,0c-0.2,0-0.3,0.1-0.3,0.3v0.7
				l-1-0.7l0,0.1l1,1.3v8.3h0.6v-2.7l1-1.5l-0.1-0.1L323.9,169.8z"/>
		</g>
		<g>
			<ellipse class="st11" cx="237.8" cy="210.3" rx="5.4" ry="5.6"/>
			<path class="st10" d="M238.1,218.1v-3.3l1-1.5l-0.1-0.1l-0.9,0.8V212c0-0.2-0.1-0.3-0.3-0.3l0,0c-0.2,0-0.3,0.1-0.3,0.3v0.7
				l-1-0.7l0,0.1l1,1.3v8.3h0.6v-2.7l1-1.5l-0.1-0.1L238.1,218.1z"/>
		</g>
		<g>
			<ellipse class="st11" cx="450.6" cy="164.7" rx="5.4" ry="5.6"/>
			<path class="st10" d="M450.9,172.6v-3.3l1-1.5l-0.1-0.1l-0.9,0.8v-2.2c0-0.2-0.1-0.3-0.3-0.3l0,0c-0.2,0-0.3,0.1-0.3,0.3v0.7
				l-1-0.7l0,0.1l1,1.3v8.3h0.6v-2.7l1-1.5l-0.1-0.1L450.9,172.6z"/>
		</g>
		<g id="XMLID_1097_">
			<path id="XMLID_1098_" class="st10" d="M552.6,478.7v11.6c0,0.5,0.4,0.8,0.8,0.8l0,0c0.5,0,0.8-0.4,0.8-0.8v-11.6
				c-0.3,0-0.6-0.1-0.8-0.3C553.2,478.6,553,478.7,552.6,478.7z"/>
			<path id="XMLID_1101_" class="st18" d="M559.7,477.9l1.4-1c-0.9-1.3-2.2-2.1-3.8-2.4c-0.5-0.1-1.1-0.1-1.6-0.1
				c0.2-0.1,0.4-0.3,0.6-0.4c1-0.5,2.1-0.5,3.2-0.2l0.6-1.6c-1.5-0.5-3-0.4-4.4,0.2c-0.9,0.4-1.6,1-2.2,1.8v2.1
				c0.2-0.2,0.5-0.3,0.8-0.3c0.7,0,1.2,0.6,1.2,1.2c0,0,0,0.1,0,0.1c1.2,0.7,2.1,2.1,2.1,3.6h1.7c0-2.2-1.2-4.1-3-5.1
				c0.2,0,0.5,0,0.7,0.1C558.1,476.4,559.1,477,559.7,477.9z"/>
			<path id="XMLID_1104_" class="st17" d="M552.6,476.2c0.3,0,0.6,0.1,0.8,0.3v-2.1c-0.6-0.8-1.3-1.4-2.2-1.8
				c-1.4-0.7-3-0.7-4.4-0.2l0.6,1.6c1-0.4,2.2-0.3,3.2,0.2c0.2,0.1,0.4,0.2,0.6,0.4c-0.5-0.1-1,0-1.6,0.1c-1.5,0.3-2.9,1.1-3.8,2.4
				l1.4,1c0.6-0.9,1.6-1.5,2.7-1.7c0.2,0,0.5-0.1,0.7-0.1c-1.8,1-3,2.9-3,5.1h1.7c0-1.5,0.8-2.9,2.1-3.6c0,0,0-0.1,0-0.1
				C551.4,476.8,551.9,476.2,552.6,476.2z"/>
			<path id="XMLID_1105_" class="st57" d="M553,477.5c0-0.4,0.2-0.7,0.4-0.9c-0.2-0.2-0.5-0.3-0.8-0.3c-0.7,0-1.2,0.6-1.2,1.2
				c0,0,0,0.1,0,0.1c0.1,0.6,0.6,1.1,1.2,1.1c0.3,0,0.6-0.1,0.8-0.3C553.2,478.2,553,477.9,553,477.5z"/>
			<path id="XMLID_1106_" class="st58" d="M554.3,476.2c-0.3,0-0.6,0.1-0.8,0.3c-0.3,0.2-0.4,0.6-0.4,0.9s0.2,0.7,0.4,0.9
				c0.2,0.2,0.5,0.3,0.8,0.3c0.6,0,1.2-0.5,1.2-1.1c0,0,0-0.1,0-0.1C555.5,476.8,555,476.2,554.3,476.2z"/>
		</g>
		<g id="XMLID_00000052096853233885853950000016028428072568556184_">
			<path id="XMLID_00000136375229498600361450000014897609016855909772_" class="st10" d="M613.3,362v11.6c0,0.5,0.4,0.8,0.8,0.8
				l0,0c0.5,0,0.8-0.4,0.8-0.8V362c-0.3,0-0.6-0.1-0.8-0.3C613.9,361.9,613.6,362,613.3,362z"/>
			<path id="XMLID_00000137811832807746358520000012747094843138765468_" class="st18" d="M620.4,361.2l1.4-1
				c-0.9-1.3-2.2-2.1-3.8-2.4c-0.5-0.1-1.1-0.1-1.6-0.1c0.2-0.1,0.4-0.3,0.6-0.4c1-0.5,2.1-0.5,3.2-0.2l0.6-1.6
				c-1.5-0.5-3-0.4-4.4,0.2c-0.9,0.4-1.6,1-2.2,1.8v2.1c0.2-0.2,0.5-0.3,0.8-0.3c0.7,0,1.2,0.6,1.2,1.2c0,0,0,0.1,0,0.1
				c1.2,0.7,2.1,2.1,2.1,3.6h1.7c0-2.2-1.2-4.1-3-5.1c0.2,0,0.5,0,0.7,0.1C618.8,359.7,619.7,360.3,620.4,361.2z"/>
			<path id="XMLID_00000112603702325061176480000005534402841993414293_" class="st17" d="M613.3,359.5c0.3,0,0.6,0.1,0.8,0.3v-2.1
				c-0.6-0.8-1.3-1.4-2.2-1.8c-1.4-0.7-3-0.7-4.4-0.2l0.6,1.6c1-0.4,2.2-0.3,3.2,0.2c0.2,0.1,0.4,0.2,0.6,0.4c-0.5-0.1-1,0-1.6,0.1
				c-1.5,0.3-2.9,1.1-3.8,2.4l1.4,1c0.6-0.9,1.6-1.5,2.7-1.7c0.2,0,0.5-0.1,0.7-0.1c-1.8,1-3,2.9-3,5.1h1.7c0-1.5,0.8-2.9,2.1-3.6
				c0,0,0-0.1,0-0.1C612,360.1,612.6,359.5,613.3,359.5z"/>
			<path id="XMLID_00000039844600761519662120000007713637631698197638_" class="st57" d="M613.7,360.8c0-0.4,0.2-0.7,0.4-0.9
				c-0.2-0.2-0.5-0.3-0.8-0.3c-0.7,0-1.2,0.6-1.2,1.2c0,0,0,0.1,0,0.1c0.1,0.6,0.6,1.1,1.2,1.1c0.3,0,0.6-0.1,0.8-0.3
				C613.9,361.5,613.7,361.1,613.7,360.8z"/>
			<path id="XMLID_00000022551712413803395330000008073525626961061281_" class="st58" d="M614.9,359.5c-0.3,0-0.6,0.1-0.8,0.3
				c-0.3,0.2-0.4,0.6-0.4,0.9s0.2,0.7,0.4,0.9c0.2,0.2,0.5,0.3,0.8,0.3c0.6,0,1.2-0.5,1.2-1.1c0,0,0-0.1,0-0.1
				C616.2,360.1,615.6,359.5,614.9,359.5z"/>
		</g>
		<g id="XMLID_00000097479845323329742520000009697110386891628417_">
			<path id="XMLID_00000028283644016036032540000010546785314992879270_" class="st10" d="M605.7,402.4V414c0,0.5,0.4,0.8,0.8,0.8
				l0,0c0.5,0,0.8-0.4,0.8-0.8v-11.6c-0.3,0-0.6-0.1-0.8-0.3C606.3,402.2,606,402.4,605.7,402.4z"/>
			<path id="XMLID_00000013185949135513337980000014719935001101347470_" class="st18" d="M612.8,401.5l1.4-1
				c-0.9-1.3-2.2-2.1-3.8-2.4c-0.5-0.1-1.1-0.1-1.6-0.1c0.2-0.1,0.4-0.3,0.6-0.4c1-0.5,2.1-0.5,3.2-0.2l0.6-1.6
				c-1.5-0.5-3-0.4-4.4,0.2c-0.9,0.4-1.6,1-2.2,1.8v2.1c0.2-0.2,0.5-0.3,0.8-0.3c0.7,0,1.2,0.6,1.2,1.2c0,0,0,0.1,0,0.1
				c1.2,0.7,2.1,2.1,2.1,3.6h1.7c0-2.2-1.2-4.1-3-5.1c0.2,0,0.5,0,0.7,0.1C611.2,400,612.1,400.6,612.8,401.5z"/>
			<path id="XMLID_00000134964547645507935630000005255445307036561046_" class="st17" d="M605.7,399.9c0.3,0,0.6,0.1,0.8,0.3v-2.1
				c-0.6-0.8-1.3-1.4-2.2-1.8c-1.4-0.7-3-0.7-4.4-0.2l0.6,1.6c1-0.4,2.2-0.3,3.2,0.2c0.2,0.1,0.4,0.2,0.6,0.4c-0.5-0.1-1,0-1.6,0.1
				c-1.5,0.3-2.9,1.1-3.8,2.4l1.4,1c0.6-0.9,1.6-1.5,2.7-1.7c0.2,0,0.5-0.1,0.7-0.1c-1.8,1-3,2.9-3,5.1h1.7c0-1.5,0.8-2.9,2.1-3.6
				c0,0,0-0.1,0-0.1C604.4,400.4,605,399.9,605.7,399.9z"/>
			<path id="XMLID_00000050652073968662240390000011728741452545303952_" class="st57" d="M606.1,401.1c0-0.4,0.2-0.7,0.4-0.9
				c-0.2-0.2-0.5-0.3-0.8-0.3c-0.7,0-1.2,0.6-1.2,1.2c0,0,0,0.1,0,0.1c0.1,0.6,0.6,1.1,1.2,1.1c0.3,0,0.6-0.1,0.8-0.3
				C606.3,401.8,606.1,401.5,606.1,401.1z"/>
			<path id="XMLID_00000120542550286148157000000016373417894372177030_" class="st58" d="M607.3,399.9c-0.3,0-0.6,0.1-0.8,0.3
				c-0.3,0.2-0.4,0.6-0.4,0.9s0.2,0.7,0.4,0.9c0.2,0.2,0.5,0.3,0.8,0.3c0.6,0,1.2-0.5,1.2-1.1c0,0,0-0.1,0-0.1
				C608.6,400.4,608,399.9,607.3,399.9z"/>
		</g>
	</g>

	<a xlink:href="https://mikrokosmos.forumactif.com/f43-01-nawa" >
	<g id="nawa">
		<g class="st66">
			<g class="st67">
				<path d="M515.8,95.5c-161.7-2.2-140.6,90.5-59.6,112.2c84.4,22.6,19.4,74.1,57.5,108.3c20.7,18.6,73.2,46.6,132.4-12.9
					c57.3-57.6-32.1-92.4,29.5-99c34.2-3.7,54.7-66.1,11.7-76.3s-99.6,17.1-102.5-8.2C581.7,93.8,560.7,96.2,515.8,95.5z"/>
			</g>
			<g id="nawabase">
				<path class="st0" d="M519.8,91.5c-161.7-2.2-140.6,90.5-59.6,112.2c84.4,22.6,19.4,74.1,57.5,108.3
					c20.7,18.6,73.2,46.6,132.4-12.9c57.3-57.6-32.1-92.4,29.5-99c34.2-3.7,54.7-66.1,11.7-76.3s-99.6,17.1-102.5-8.2
					C585.7,89.8,564.7,92.2,519.8,91.5z"/>
			</g>
		</g>
		<g id="lotus">
			<path class="st68" d="M607.8,176.1c0,0-21.4-11.6,0-33.8C629.3,164.5,607.8,176.1,607.8,176.1z"/>
			<path class="st69" d="M607.8,176.1c0,0-5-21.2-21.7-23.3C586.1,152.8,579.5,176.1,607.8,176.1z"/>
			<path class="st70" d="M607.8,176.1c0,0-14.8-12.3-31.8-10.7C576,165.4,582.6,178.4,607.8,176.1z"/>
			<path class="st71" d="M607.8,176.1c0,0,5-21.2,21.7-23.3C629.5,152.8,636.1,176.1,607.8,176.1z"/>
			<path class="st72" d="M607.8,176.1c0,0,14.8-12.3,31.8-10.7C639.6,165.4,633,178.4,607.8,176.1z"/>
			<path class="st69" d="M606,172.3c-4.6-4.9-9.2-14.4,3.3-28.4c-0.5-0.5-1-1.1-1.5-1.6c-17.6,18.3-6.3,29.3-1.7,32.7
				C606.1,174.1,606.1,173.2,606,172.3z"/>
			<path class="st70" d="M588.7,153.3c-0.8-0.2-1.7-0.4-2.6-0.5c0,0-6.6,23.3,21.7,23.3c0,0,0,0,0-0.1
				C584.9,174.7,588,156.6,588.7,153.3z"/>
			<path class="st73" d="M580.2,165.4c0.3,0,0.6,0,0.9-0.1c-1.7-0.1-3.4-0.1-5.1,0.1c0,0,6,11.8,28.1,11
				C585.4,175.6,580.2,165.4,580.2,165.4z"/>
			<path class="st68" d="M608.2,176.1c1.2-0.3,2.4-0.6,3.6-1c-0.1,0-0.1,0-0.2,0c0,0,4.1-17.3,17.2-22.2c-16.1,2.6-21,23.2-21,23.2
				c0.1,0,0.2,0,0.3,0C608.2,176.1,608.2,176.1,608.2,176.1z"/>
			<path class="st71" d="M613.9,176.1c0,0,11.4-9.5,25.7-10.7c0,0,0,0,0,0c-17.1-1.5-31.8,10.7-31.8,10.7c3.2,0.3,6.1,0.3,8.8,0.2
				C615.7,176.3,614.8,176.2,613.9,176.1z"/>
			<path id="SVGCleanerId_0" class="st74" d="M641.8,179.5h-69c-1.2,0-2.2-1-2.2-2.2l0,0c0-1.2,1-2.2,2.2-2.2h69
				c1.2,0,2.2,1,2.2,2.2l0,0C644.1,178.6,643.1,179.5,641.8,179.5z"/>
			<path class="st75" d="M573.4,177.3c0-1.2,1-2.2,2.2-2.2h-2.8c-1.2,0-2.2,1-2.2,2.2c0,1.2,1,2.2,2.2,2.2h2.8
				C574.4,179.5,573.4,178.6,573.4,177.3z"/>
			<g>
				<path id="SVGCleanerId_0_1_" class="st76" d="M641.8,179.5h-69c-1.2,0-2.2-1-2.2-2.2l0,0c0-1.2,1-2.2,2.2-2.2h69
					c1.2,0,2.2,1,2.2,2.2l0,0C644.1,178.6,643.1,179.5,641.8,179.5z"/>
			</g>
			<path class="st77" d="M573.4,177.3c0-1.2,1-2.2,2.2-2.2h-2.8c-1.2,0-2.2,1-2.2,2.2c0,1.2,1,2.2,2.2,2.2h2.8
				C574.4,179.5,573.4,178.6,573.4,177.3z"/>
		</g>
		<g>
			<g>
				<path class="st0" d="M526.4,112.2c-0.2-0.6-0.3-1.2-0.3-1.8c0-3.7,3-6.7,6.7-6.7c1.5,0,3,0.5,4.2,1.5c1.1,0.9,1.8,2,2.2,3.3
					c2.5-0.2,4.7,1.3,5.4,3.6c0.4-0.1,0.8-0.1,1.1-0.1c2.8,0,5.1,2.3,5.1,5.1c0,2.8-2.3,5.1-5.1,5.1h-17.9c-2.8,0-5.1-2.3-5.1-5.1
					C522.7,114.8,524.2,112.8,526.4,112.2z"/>
				<path class="st0" d="M546.6,109.8l-0.3,0l-0.1-0.2c-1-1.8-2.8-3-4.9-3.2l-0.3,0l-0.1-0.2c-0.1-0.2-0.2-0.4-0.3-0.6l-0.2-0.3
					l0.3-0.3c0.9-0.8,2-1.2,3.2-1.2c0.1,0,0.3,0,0.4,0c0.8-2.4,3.1-4.1,5.8-4.1c3.3,0,6.1,2.6,6.1,5.8c0,0.5-0.1,1-0.2,1.5
					c2,0.6,3.3,2.3,3.3,4.3c0,2.5-2.1,4.5-4.7,4.5H553l-0.1-0.4C552.5,112,549.8,109.8,546.6,109.8
					C546.6,109.8,546.6,109.8,546.6,109.8z"/>
			</g>
		</g>
		<g>
			<g>
				<path class="st78" d="M561,282.8c0.2-0.8,0.4-1.7,0.4-2.5c0-5.1-4.1-9.2-9.2-9.2c-2.1,0-4.2,0.7-5.8,2.1c-1.5,1.2-2.5,2.8-3,4.6
					c-3.4-0.3-6.5,1.8-7.4,5c-0.5-0.1-1-0.2-1.6-0.2c-3.9,0-7.1,3.2-7.1,7.1c0,3.9,3.2,7.1,7.1,7.1H559c3.9,0,7.1-3.2,7.1-7.1
					C566.1,286.4,564,283.6,561,282.8z"/>
				<path class="st78" d="M533,279.4l0.4,0l0.2-0.3c1.4-2.5,3.9-4.1,6.7-4.4l0.4,0l0.2-0.3c0.1-0.3,0.3-0.6,0.4-0.8l0.3-0.5
					l-0.4-0.4c-1.2-1.1-2.8-1.7-4.5-1.7c-0.2,0-0.4,0-0.5,0c-1.1-3.3-4.3-5.7-8-5.7c-4.6,0-8.4,3.6-8.4,8c0,0.7,0.1,1.4,0.3,2.1
					c-2.7,0.8-4.6,3.2-4.6,5.9c0,3.4,2.9,6.2,6.5,6.2h2.2l0.1-0.6C524.9,282.6,528.6,279.4,533,279.4C533,279.4,533,279.4,533,279.4
					z"/>
			</g>
		</g>
		<g>
			<g>
				<path class="st78" d="M607.1,261.3c-0.2-0.6-0.3-1.2-0.3-1.8c0-3.7,3-6.7,6.7-6.7c1.5,0,3,0.5,4.2,1.5c1.1,0.9,1.8,2,2.2,3.3
					c2.5-0.2,4.7,1.3,5.4,3.6c0.4-0.1,0.8-0.1,1.1-0.1c2.8,0,5.1,2.3,5.1,5.1c0,2.8-2.3,5.1-5.1,5.1h-17.9c-2.8,0-5.1-2.3-5.1-5.1
					C603.4,263.9,604.9,261.9,607.1,261.3z"/>
				<path class="st78" d="M627.3,258.9l-0.3,0l-0.1-0.2c-1-1.8-2.8-3-4.9-3.2l-0.3,0l-0.1-0.2c-0.1-0.2-0.2-0.4-0.3-0.6l-0.2-0.3
					l0.3-0.3c0.9-0.8,2-1.2,3.2-1.2c0.1,0,0.3,0,0.4,0c0.8-2.4,3.1-4.1,5.8-4.1c3.3,0,6.1,2.6,6.1,5.8c0,0.5-0.1,1-0.2,1.5
					c2,0.6,3.3,2.3,3.3,4.3c0,2.5-2.1,4.5-4.7,4.5h-1.6l-0.1-0.4C633.2,261.1,630.6,258.9,627.3,258.9
					C627.4,258.9,627.4,258.9,627.3,258.9z"/>
			</g>
		</g>
		<g>
			<g>
				<path class="st0" d="M677,155.9c0.2-0.6,0.3-1.2,0.3-1.8c0-3.7-3-6.7-6.7-6.7c-1.5,0-3,0.5-4.2,1.5c-1.1,0.9-1.8,2-2.2,3.3
					c-2.5-0.2-4.7,1.3-5.4,3.6c-0.4-0.1-0.8-0.1-1.1-0.1c-2.8,0-5.1,2.3-5.1,5.1c0,2.8,2.3,5.1,5.1,5.1h17.9c2.8,0,5.1-2.3,5.1-5.1
					C680.7,158.5,679.1,156.6,677,155.9z"/>
				<path class="st0" d="M656.7,153.5l0.3,0l0.1-0.2c1-1.8,2.8-3,4.9-3.2l0.3,0l0.1-0.2c0.1-0.2,0.2-0.4,0.3-0.6l0.2-0.3l-0.3-0.3
					c-0.9-0.8-2-1.2-3.2-1.2c-0.1,0-0.3,0-0.4,0c-0.8-2.4-3.1-4.1-5.8-4.1c-3.3,0-6.1,2.6-6.1,5.8c0,0.5,0.1,1,0.2,1.5
					c-2,0.6-3.3,2.3-3.3,4.3c0,2.5,2.1,4.5,4.7,4.5h1.6l0.1-0.4C650.9,155.8,653.5,153.5,656.7,153.5
					C656.7,153.5,656.7,153.5,656.7,153.5z"/>
			</g>
		</g>
		<g id="tagnawa">
			<path class="st79" d="M598.7,245.9h-50.1c-2.2,0-4-1.8-4-4v-16.6c0-2.2,1.8-4,4-4h50.1c2.2,0,4,1.8,4,4v16.6
				C602.7,244.1,600.9,245.9,598.7,245.9z"/>
			<text transform="matrix(1 0 0 1 552.9474 238.1833)" class="st0 st7 st8">Nawa</text>
		</g>
		<g id="bourgeons">
			<circle id="pointbourgeons" class="st80" cx="504.4" cy="156.1" r="5.9"/>
			<g id="tagbourgeons">
				<path class="st79" d="M535.6,145.5h-62.6c-2.2,0-4-1.8-4-4v-6c0-2.2,1.8-4,4-4h62.6c2.2,0,4,1.8,4,4v6
					C539.6,143.7,537.8,145.5,535.6,145.5z"/>
				<text transform="matrix(1 0 0 1 472.9584 141.0653)" class="st0 st7 st81">les bourgeons</text>
			</g>
		</g>
	</g>
	</a>

	<g id="ruche">
		<circle id="pointruche" class="st82" cx="213.8" cy="573.5" r="5.9"/>
		<g id="tagruche">
			<path class="st6" d="M231.4,597.6h-35.3c-2.2,0-4-1.8-4-4v-6c0-2.2,1.8-4,4-4h35.3c2.2,0,4,1.8,4,4v6
				C235.4,595.8,233.6,597.6,231.4,597.6z"/>
			<text transform="matrix(1 0 0 1 195.1149 593.1677)" class="st0 st7 st81">la ruche</text>
		</g>
	</g>
	<g id="foyer">
		<circle id="pointfoyer" class="st83" cx="408" cy="405.7" r="5.9"/>
		<g id="tagfoyer">
			<path class="st84" d="M425.7,395.2h-35.3c-2.2,0-4-1.8-4-4v-6c0-2.2,1.8-4,4-4h35.3c2.2,0,4,1.8,4,4v6
				C429.7,393.4,427.9,395.2,425.7,395.2z"/>
			<text transform="matrix(1 0 0 1 390.252 390.7556)" class="st0 st7 st81">le foyer</text>
		</g>
	</g>
	<g id="perle">
		<circle id="pointperle" class="st85" cx="158.3" cy="232.8" r="5.9"/>
		<g id="tagperle">
			<path class="st50" d="M176.1,257.4h-35.3c-2.2,0-4-1.8-4-4v-6c0-2.2,1.8-4,4-4h35.3c2.2,0,4,1.8,4,4v6
				C180.1,255.6,178.3,257.4,176.1,257.4z"/>
			<text transform="matrix(1 0 0 1 141.1524 253.0166)" class="st0 st7 st81">La perle</text>
		</g>
	</g>

	<a xlink:href="https://mikrokosmos.forumactif.com/f169-01-wizard-bowl-let-s-play-ball" >
	<g id="quidd">
		<circle id="pointquidd" class="st86" cx="378.3" cy="227.7" r="5.9"/>
		<g id="tagquidd">
			<path class="st34" d="M424.1,217.3H335c-2.2,0-4-1.8-4-4v-6c0-2.2,1.8-4,4-4h89.2c2.2,0,4,1.8,4,4v6
				C428.1,215.5,426.3,217.3,424.1,217.3z"/>
			<text transform="matrix(1 0 0 1 335.5367 212.8552)" class="st0 st7 st81">terrain de quidditch</text>
		</g>
	</g>
	</a>

	<a xlink:href="https://mikrokosmos.forumactif.com/f138-11-village-aya" >
	<g id="village_00000120547212674349437820000010625997244329516181_">
		<circle id="pointvillage" class="st86" cx="446.8" cy="234" r="5.9"/>
		<g id="tagvillage">
			<path class="st34" d="M489.9,259.5h-86.2c-2.2,0-4-1.8-4-4v-6c0-2.2,1.8-4,4-4h86.2c2.2,0,4,1.8,4,4v6
				C493.9,257.7,492.1,259.5,489.9,259.5z"/>
			<text transform="matrix(1 0 0 1 404.3739 255.0994)" class="st0 st7 st81">logements du staff</text>
		</g>
	</g>
	</a>

	<g id="lune">
		<circle id="pointlune" class="st87" cx="388.3" cy="477" r="5.9"/>
		<g id="taglune">
			<path class="st20" d="M404.7,466.5h-32.5c-2.2,0-4-1.8-4-4v-6c0-2.2,1.8-4,4-4h32.5c2.2,0,4,1.8,4,4v6
				C408.7,464.7,406.9,466.5,404.7,466.5z"/>
			<text transform="matrix(1 0 0 1 372.8265 462.1053)" class="st0 st7 st81">la lune</text>
		</g>
	</g>

	<a xlink:href="https://mikrokosmos.forumactif.com/f72-08-quartier-pauvre" >
	<g id="gure">
		<circle id="pointgure" class="st87" cx="327.1" cy="595.2" r="5.9"/>
		<g id="taggure">
			<path class="st20" d="M338.4,620.1h-22.9c-2.2,0-4-1.8-4-4v-6c0-2.2,1.8-4,4-4h22.9c2.2,0,4,1.8,4,4v6
				C342.4,618.3,340.6,620.1,338.4,620.1z"/>
			<text transform="matrix(1 0 0 1 316.9276 615.6634)" class="st0 st7 st81">GURE</text>
		</g>
	</g>
	</a>
</g>
</svg>
