<?xml version="1.0" encoding="utf-8"?>
<!-- Generator: Adobe Illustrator 25.4.2, SVG Export Plug-In . SVG Version: 6.00 Build 0)  -->
<svg version="1.1" id="Calque_1" xmlns="http://www.w3.org/2000/svg" xmlns:xlink="http://www.w3.org/1999/xlink" x="0px" y="0px"
	 viewBox="0 0 1600 198" style="enable-background:new 0 0 1600 198;" xml:space="preserve">
<style type="text/css">
	.st0{display:none;fill-rule:evenodd;clip-rule:evenodd;fill:url(#SVGID_1_);}
	.st1{display:none;fill-rule:evenodd;clip-rule:evenodd;fill:url(#SVGID_00000129208269351585448010000012444485310762200468_);}
	.st2{display:none;fill-rule:evenodd;clip-rule:evenodd;fill:url(#SVGID_00000076564790523243288100000015453309987423937709_);}
	.st3{display:none;fill-rule:evenodd;clip-rule:evenodd;fill:url(#SVGID_00000155860998477055132380000013195888786978875576_);}
	.st4{fill-rule:evenodd;clip-rule:evenodd;fill:url(#SVGID_00000093140504063077616590000001278916775047239848_);}
	.st5{filter:url(#Adobe_OpacityMaskFilter);}
	.st6{fill-rule:evenodd;clip-rule:evenodd;fill:url(#SVGID_00000093178455311112931820000015656969467827665825_);}
	
		.st7{display:none;mask:url(#SVGID_00000134230832982852245920000013566786717961092773_);fill-rule:evenodd;clip-rule:evenodd;fill:url(#SVGID_00000018951774172233290890000013834891375160884366_);}
</style>
<linearGradient id="SVGID_1_" gradientUnits="userSpaceOnUse" x1="-317.6988" y1="4.4133" x2="-317.6988" y2="5.4444" gradientTransform="matrix(-1600 0 0 198.0004 -507518 -880.0039)">
	<stop  offset="8.524463e-08" style="stop-color:#D07F7F;stop-opacity:0.25"/>
	<stop  offset="1" style="stop-color:#D07F7F"/>
</linearGradient>
<path class="st0" d="M1600,36c-311,0-410.9-22.2-812-22C388,14,289,36,0,36v162h1600C1600,198,1600,65,1600,36z"/>
<linearGradient id="SVGID_00000090984350178420147960000015921891677001960090_" gradientUnits="userSpaceOnUse" x1="-317.6988" y1="4.4133" x2="-317.6988" y2="5.4444" gradientTransform="matrix(-1600 0 0 198.0004 -507518 -880.0039)">
	<stop  offset="7.458905e-08" style="stop-color:#94A982;stop-opacity:0.25"/>
	<stop  offset="1" style="stop-color:#94A982"/>
</linearGradient>
<path style="display:none;fill-rule:evenodd;clip-rule:evenodd;fill:url(#SVGID_00000090984350178420147960000015921891677001960090_);" d="
	M1600,36c-311,0-410.9-22.2-812-22C388,14,289,36,0,36v162h1600C1600,198,1600,65,1600,36z"/>
<image style="display:none;overflow:visible;" width="398" height="178" xlink:href="20974CA4.jpg"  transform="matrix(1 0 0 1 683.1564 -259.5336)">
</image>
<linearGradient id="SVGID_00000065065908228202797230000014378021671266244226_" gradientUnits="userSpaceOnUse" x1="-317.6988" y1="4.4133" x2="-317.6988" y2="5.4444" gradientTransform="matrix(-1600 0 0 198.0004 -507518 -880.0039)">
	<stop  offset="7.458905e-08" style="stop-color:#6FB2AC;stop-opacity:0.25"/>
	<stop  offset="1" style="stop-color:#6FB2AC"/>
</linearGradient>
<path style="display:none;fill-rule:evenodd;clip-rule:evenodd;fill:url(#SVGID_00000065065908228202797230000014378021671266244226_);" d="
	M1600,36c-311,0-410.9-22.2-812-22C388,14,289,36,0,36v162h1600C1600,198,1600,65,1600,36z"/>
<linearGradient id="SVGID_00000014634550146632972660000007035284374166946203_" gradientUnits="userSpaceOnUse" x1="-317.6988" y1="4.4133" x2="-317.6988" y2="5.4444" gradientTransform="matrix(-1600 0 0 198.0004 -507518 -880.0039)">
	<stop  offset="7.458905e-08" style="stop-color:#8097D9;stop-opacity:0.25"/>
	<stop  offset="1" style="stop-color:#87A0E7"/>
</linearGradient>
<path style="display:none;fill-rule:evenodd;clip-rule:evenodd;fill:url(#SVGID_00000014634550146632972660000007035284374166946203_);" d="
	M1600,36c-311,0-410.9-22.2-812-22C388,14,289,36,0,36v162h1600C1600,198,1600,65,1600,36z"/>
<linearGradient id="SVGID_00000120525087841609397520000012635174818154821818_" gradientUnits="userSpaceOnUse" x1="-317.6988" y1="4.4133" x2="-317.6988" y2="5.4444" gradientTransform="matrix(-1600 0 0 198.0004 -507518 -880.0039)">
	<stop  offset="0" style="stop-color:#C48C73;stop-opacity:0.25"/>
	<stop  offset="1" style="stop-color:#C48C73"/>
</linearGradient>
<path style="fill-rule:evenodd;clip-rule:evenodd;fill:url(#SVGID_00000120525087841609397520000012635174818154821818_);" d="
	M1600,36c-311,0-410.9-22.2-812-22C388,14,289,36,0,36v162h1600C1600,198,1600,65,1600,36z"/>
<image style="display:none;overflow:visible;" width="637" height="271" xlink:href="20974CA3.jpg"  transform="matrix(1 0 0 1 594.9483 -508.5115)">
</image>
<defs>
	<filter id="Adobe_OpacityMaskFilter" filterUnits="userSpaceOnUse" x="0.6" y="13.5" width="1600" height="184">
		<feColorMatrix  type="matrix" values="1 0 0 0 0  0 1 0 0 0  0 0 1 0 0  0 0 0 1 0"/>
	</filter>
</defs>
<mask maskUnits="userSpaceOnUse" x="0.6" y="13.5" width="1600" height="184" id="SVGID_00000083059141491765216070000014809065325733147564_">
	<g class="st5">
		
			<linearGradient id="SVGID_00000073690269801695249930000013955568008629230745_" gradientUnits="userSpaceOnUse" x1="800.6217" y1="1.4325" x2="800.6217" y2="220.6234">
			<stop  offset="1.385225e-07" style="stop-color:#FFFFFF;stop-opacity:0.25"/>
			<stop  offset="1" style="stop-color:#FFFFFF"/>
		</linearGradient>
		
			<rect x="0.6" style="fill-rule:evenodd;clip-rule:evenodd;fill:url(#SVGID_00000073690269801695249930000013955568008629230745_);" width="1600" height="197.5"/>
	</g>
</mask>
<linearGradient id="SVGID_00000121970545896542610640000010055605616981255811_" gradientUnits="userSpaceOnUse" x1="-317.2064" y1="4.9775" x2="-318.316" y2="4.9775" gradientTransform="matrix(-1600 0 0 198.0004 -507518 -880.0039)">
	<stop  offset="0" style="stop-color:#AA7070"/>
	<stop  offset="0.2" style="stop-color:#7AA9C8"/>
	<stop  offset="0.4" style="stop-color:#6FB2AC"/>
	<stop  offset="0.6" style="stop-color:#92A680"/>
	<stop  offset="0.8" style="stop-color:#C99E8A"/>
	<stop  offset="0.8935" style="stop-color:#AA7070"/>
</linearGradient>
<path style="display:none;mask:url(#SVGID_00000083059141491765216070000014809065325733147564_);fill-rule:evenodd;clip-rule:evenodd;fill:url(#SVGID_00000121970545896542610640000010055605616981255811_);" d="
	M1600.6,35.5c-311,0-410.9-22.2-812-22c-400,0-499,22-788,22v162h1600C1600.6,197.5,1600.6,64.5,1600.6,35.5z"/>
</svg>
