<svg xmlns="http://www.w3.org/2000/svg" width="20" height="20" viewBox="0 0 20 20" fill="none">
  <path d="M10 6.25C10.625 3.78282 12.9856 2.52305 18.125 2.5C18.2072 2.49969 18.2886 2.51565 18.3645 2.54695C18.4405 2.57825 18.5095 2.62427 18.5676 2.68237C18.6257 2.74047 18.6718 2.80949 18.7031 2.88546C18.7344 2.96143 18.7503 3.04284 18.75 3.125V14.375C18.75 14.5408 18.6842 14.6997 18.5669 14.8169C18.4497 14.9342 18.2908 15 18.125 15C13.125 15 11.1934 16.0082 10 17.5M10 6.25C9.375 3.78282 7.01446 2.52305 1.875 2.5C1.79284 2.49969 1.71143 2.51565 1.63546 2.54695C1.55949 2.57825 1.49047 2.62427 1.43237 2.68237C1.37427 2.74047 1.32825 2.80949 1.29695 2.88546C1.26565 2.96143 1.24969 3.04284 1.25 3.125V14.2996C1.25 14.6856 1.48907 15 1.875 15C6.875 15 8.81368 16.0156 10 17.5M10 6.25V17.5" stroke="url(#paint0_linear_2676_39)" stroke-linecap="round" stroke-linejoin="round"/>
  <defs>
    <linearGradient id="paint0_linear_2676_39" x1="17.9479" y1="8.60907" x2="-1.31196" y2="8.72257" gradientUnits="userSpaceOnUse">
      <stop stop-color="#8C6034"/>
      <stop offset="0.07" stop-color="#906436"/>
      <stop offset="0.14" stop-color="#9B723E"/>
      <stop offset="0.21" stop-color="#AF894B"/>
      <stop offset="0.29" stop-color="#CBA85D"/>
      <stop offset="0.37" stop-color="#EED174"/>
      <stop offset="0.4" stop-color="#FFE47F"/>
      <stop offset="0.43" stop-color="#FFE998"/>
      <stop offset="0.51" stop-color="#FFF5CB"/>
      <stop offset="0.55" stop-color="#FFFADF"/>
      <stop offset="0.69" stop-color="#CEB578"/>
      <stop offset="1" stop-color="#A67033"/>
    </linearGradient>
  </defs>
</svg>
