<svg width="220" height="52" viewBox="0 0 220 52" fill="none" xmlns="http://www.w3.org/2000/svg">
<path d="M219 51L69 51C62.094 51 56.4956 45.4036 56.4956 38.5C56.4956 31.5964 62.094 26 69 26L158.562 26C165.468 26 171.067 20.4036 171.067 13.5C171.067 6.59641 165.468 1 158.562 1L1 1" stroke="url(#paint0_linear_2839_1813)" stroke-linecap="round"/>
<path d="M146 1C152.906 1 158.504 6.59641 158.504 13.5C158.504 20.4036 152.906 26 146 26" stroke="#BD9955" stroke-linecap="round"/>
<path d="M83 26C75.8203 26 70 31.5964 70 38.5C70 45.4036 75.8203 51 83 51" stroke="#FEF8DB" stroke-linecap="round"/>
<defs>
<linearGradient id="paint0_linear_2839_1813" x1="209.009" y1="21.3636" x2="-30.8068" y2="26.6448" gradientUnits="userSpaceOnUse">
<stop stop-color="#8C6034"/>
<stop offset="0.07" stop-color="#906436"/>
<stop offset="0.14" stop-color="#9B723E"/>
<stop offset="0.21" stop-color="#AF894B"/>
<stop offset="0.29" stop-color="#CBA85D"/>
<stop offset="0.37" stop-color="#EED174"/>
<stop offset="0.4" stop-color="#FFE47F"/>
<stop offset="0.43" stop-color="#FFE998"/>
<stop offset="0.51" stop-color="#FFF5CB"/>
<stop offset="0.55" stop-color="#FFFADF"/>
<stop offset="0.69" stop-color="#CEB578"/>
<stop offset="1" stop-color="#A67033"/>
</linearGradient>
</defs>
</svg>
