<svg width="122" height="130" viewBox="0 0 122 130" fill="none" xmlns="http://www.w3.org/2000/svg">
<path d="M5.92885 57.5146C9.06656 27.5352 35.608 5.82534 65.9725 10.1186C96.5289 14.4391 118.798 42.7775 115.763 73.6025C112.877 102.922 86.2318 125.305 55.3074 120.631C24.3255 115.95 2.96616 87.4965 5.92885 57.5146ZM82.2989 74.9072C82.1866 75.1948 82.0262 75.4699 81.9722 75.7714C81.7659 76.9068 81.2068 77.7062 80.1509 78.1954C79.1985 78.637 78.233 79.1173 77.4264 79.7722C76.883 80.2133 76.4044 80.3491 75.757 80.2302C75.2319 80.1335 74.7023 80.0689 74.1753 79.9903L74.1462 80.1748C74.698 80.366 75.2484 80.5583 75.8002 80.7496L75.8153 80.9079L73.5301 81.9823C73.5092 81.9451 73.4883 81.9079 73.4676 81.8694C73.8298 81.6519 74.1935 81.4333 74.5599 81.2138C74.0668 80.7126 73.5529 80.2896 73.1629 79.771C72.5405 78.9462 71.8625 78.336 70.8015 78.1725C70.0333 78.0539 69.5336 77.5163 69.1191 76.7658C68.7462 76.0923 68.0382 75.5984 67.4784 75.0255C67.4379 75.0667 67.3985 75.1094 67.358 75.1505C68.2683 76.7319 69.0923 78.3831 70.739 79.4133C69.9834 79.1195 69.0981 79.2196 68.6895 78.2076C68.4935 77.7218 67.9745 77.323 67.5318 76.9776C67.1325 76.6661 66.6289 75.7449 66.7363 75.2506C67.1048 73.5413 65.9276 72.1719 64.2266 72.3654C63.7656 72.4173 63.5684 72.237 63.5411 71.8158C63.4858 70.9811 63.4481 70.1517 62.6887 69.5635C62.6164 69.5082 62.5957 69.3673 62.5712 69.2627C62.2969 68.1304 61.3628 67.7785 60.4546 67.4409C60.0016 67.2737 59.6293 67.5001 59.379 67.9062C59.27 68.0841 59.1692 68.3222 59.0007 68.3967C57.9403 68.8655 57.4269 69.7911 56.9533 70.7843C56.8277 71.0489 56.5274 71.2442 56.2686 71.4141C55.7844 71.7328 55.2484 71.9742 54.7791 72.3121C53.9583 72.9019 53.254 73.6482 52.1614 73.8092C51.7554 73.8693 51.4033 74.2168 50.984 74.4586C51.7086 75.0442 52.3528 75.5654 52.9972 76.0852C52.9514 76.1518 52.9044 76.2183 52.8587 76.2849C52.2337 75.9962 51.5848 75.7512 50.9917 75.4042C50.569 75.1562 50.2502 74.7164 49.8314 74.4558C49.1524 74.0345 48.8173 73.486 48.761 72.6866C48.7362 72.33 48.5482 71.9189 48.3106 71.6382C47.5909 70.787 46.7607 70.7419 45.6483 71.3656C44.8664 71.8025 44.0638 72.2009 43.2686 72.6161C43.0629 72.7231 42.8653 72.8537 42.6463 72.926C42.1962 73.0752 42.1378 73.3814 42.3029 73.7877C42.8695 75.1748 43.5488 76.4739 45.0393 77.074C46.1044 77.5032 46.6425 78.3141 46.8066 79.4208C46.8606 79.7831 46.9266 80.1432 46.9882 80.5078C48.0511 80.7032 48.8973 81.2938 49.2709 82.2416C49.5632 82.9804 50.0022 83.3358 50.632 83.6672C51.0287 83.8773 51.323 83.8556 51.71 83.727C52.1346 83.5858 52.6662 83.4014 53.0488 83.5451C54.1368 83.954 55.1174 84.6264 55.641 85.7342C55.8354 86.1463 56.0555 86.3182 56.434 86.477C56.7516 86.6096 57.1619 86.8388 57.2724 87.1189C57.5572 87.8422 57.9969 87.8593 58.5555 87.6514C59.1734 87.4222 59.7298 87.5302 60.2198 88.0099C60.5469 88.3303 60.8909 88.3816 61.3356 88.3496C61.7699 88.3173 62.3065 88.3895 62.6625 88.6302C63.4324 89.1531 64.2353 89.3266 65.11 89.3561C65.5305 89.3703 65.9684 89.4304 66.3712 89.5679C67.075 89.8094 67.757 90.1249 68.5358 90.4458C67.8298 90.3405 67.1871 90.2511 66.5459 90.1476C65.8919 90.0421 65.2002 89.7461 64.5969 89.8568C63.9525 89.9757 63.4805 89.8555 62.986 89.4957C62.2704 88.9744 61.5512 88.8343 60.7545 89.2375C60.578 89.3266 60.1634 89.2543 60.0461 89.1056C59.5168 88.4376 58.9408 88.2034 58.1199 88.4115C57.6855 88.5212 56.9839 88.5516 56.8655 87.9279C56.7223 87.1785 56.3024 87.0949 55.746 87.0761C55.1948 87.0581 54.947 86.8008 54.91 86.2194C54.8955 85.9798 54.6479 85.7199 54.4584 85.5158C54.3156 85.362 54.0473 85.3194 53.9168 85.1595C53.2972 84.3968 52.6148 84.4681 51.8314 84.767C50.5334 85.262 49.2368 84.6449 48.6397 83.3162C48.5317 83.0757 48.4281 82.8307 48.2968 82.6026C47.9357 81.9781 47.4868 81.5031 46.6942 81.5856C46.2716 81.6301 46.1367 81.3358 46.1097 80.9631C46.0686 80.3969 46.1598 79.7808 45.4969 79.4432C45.4339 79.4115 45.4081 79.2948 45.3707 79.2158C44.9661 78.3815 44.3343 77.8149 43.4821 77.4753C43.2525 77.3833 42.9884 77.2232 42.8661 77.0213C42.4246 76.2943 42.0178 75.5449 41.6409 74.783C41.5214 74.5408 41.5239 74.2355 41.4976 73.9575C41.3922 72.811 41.3476 71.6657 40.6626 70.6269C40.4364 70.2849 40.323 69.8036 40.3208 69.3914C40.3169 68.5106 39.8919 67.8385 39.3654 67.2064C38.9824 66.7465 38.5056 66.6098 37.9151 66.7735C37.1443 66.9865 36.3359 67.0718 35.5629 67.2805C35.2212 67.3725 34.8575 67.5661 34.6308 67.8288C34.3129 68.1972 33.991 68.4141 33.4904 68.3447C32.4867 68.2054 31.7594 68.6544 31.3766 69.5207C30.6688 71.1191 29.3335 71.6361 27.7419 71.6859C26.894 71.7129 26.345 72.094 25.9475 72.7732C25.332 73.8213 23.4697 74.5155 22.2601 74.2051C21.3112 73.9612 20.3804 73.9351 19.7302 74.839C19.6335 74.9728 19.4972 75.0876 19.3548 75.1726C18.7993 75.5029 18.189 75.7595 17.6817 76.1521C16.5419 77.0315 15.2251 77.5459 13.9016 78.0621C12.7767 78.5016 11.6527 78.9452 10.4249 79.427C11.0453 81.1396 11.6293 82.7511 12.1726 84.2515C13.1597 84.0564 14.0111 83.9053 14.8515 83.7106C15.0443 83.6659 15.232 83.5051 15.3624 83.3461C16.0736 82.4802 16.9701 82.1417 18.0848 82.4537C18.4712 82.5612 18.8385 82.7537 19.2137 82.9068C19.2391 82.8738 19.2631 82.842 19.2886 82.8091C18.8625 82.4661 18.4365 82.1231 17.9912 81.7654C18.0452 81.1452 18.3654 80.6774 18.9092 80.3598C20.1101 79.6575 22.0537 79.8491 23.1589 80.7774C23.849 81.3579 24.1282 82.0987 23.8163 82.8799C23.6508 83.2947 23.7431 83.5236 24.0015 83.8428C24.6324 84.6217 24.6569 85.339 24.1337 86.0152C23.8207 85.8373 23.5223 85.5803 23.1896 85.4939C21.4415 85.0402 19.8434 86.2526 19.8378 88.0699C19.8363 88.5694 19.6925 88.7448 19.2506 88.8389C18.7557 88.9434 18.3768 89.2227 18.292 89.8266C18.497 89.8283 18.6607 89.8147 18.8225 89.8323C19.7982 89.9398 20.2819 90.8266 19.8167 91.6479C19.7438 91.7774 19.6697 91.9067 19.6129 92.0438C19.5574 92.1811 19.5229 92.3281 19.48 92.47C20.491 91.0428 21.8562 90.2954 23.684 90.1956C23.2907 89.544 22.9429 88.9674 22.6074 88.411C22.3847 88.4945 22.2129 88.5751 22.0301 88.6239C21.4952 88.7645 20.5692 88.3718 20.3909 87.9412C20.2492 87.5987 20.674 87.0337 21.2779 86.7644C22.4407 86.2453 24.0625 86.6644 24.9101 87.7261C25.0552 87.9078 25.1153 88.1595 25.2129 88.3747C25.9965 87.7807 25.9993 87.6761 25.4256 87.1891C24.7922 86.6513 24.7653 86.3285 25.3069 85.739C25.7493 85.2567 26.5031 85.2498 27.1699 85.7782C27.57 86.095 27.9131 86.4873 28.2971 86.8607C28.4265 86.3671 28.48 85.8792 28.681 85.4724C28.954 84.9202 28.7509 84.5423 28.4484 84.2361C27.8022 84.1948 27.2318 84.1097 26.6707 84.1375C26.2883 84.1565 25.9728 84.0674 25.9159 83.7074C25.8643 83.3849 25.8919 82.8708 26.089 82.7337C26.729 82.2874 27.4442 81.931 28.1724 81.6383C28.3822 81.5542 28.74 81.7768 29.0131 81.9002C29.1607 81.9681 29.257 82.1832 29.404 82.2313C30.2557 82.5119 30.9202 83.0374 31.4009 83.8896C31.6588 83.0007 31.4724 82.5229 30.7793 81.9079C30.5626 81.7155 30.2385 81.3405 30.2958 81.1982C30.4211 80.8851 30.7095 80.5516 31.0165 80.4308C31.9145 80.0768 33.2723 80.6664 33.9698 81.6218C34.626 82.5225 34.6041 83.1975 33.8899 84.2203C33.8746 84.243 33.8992 84.2952 33.8848 84.2064C34.4453 84.479 34.9973 84.6427 35.4214 84.9788C35.9705 85.4136 35.8555 85.9959 35.4525 86.5497C36.5595 86.6309 37.3826 87.0148 37.6487 88.1773C44.9172 89.09 52.1641 89.9995 59.4122 90.9091C59.4091 90.9651 59.406 91.021 59.4017 91.0768C57.9008 91.064 56.3987 91.0511 54.898 91.0371C54.8948 91.0681 54.8918 91.0978 54.8874 91.1286C55.562 91.325 56.2368 91.5202 56.9101 91.7164C56.9051 91.7655 56.9 91.8159 56.8963 91.8652C54.6396 91.7016 52.3827 91.5394 50.1248 91.3756C50.1222 91.4395 50.1196 91.5034 50.1182 91.5675C51.0637 91.82 52.0103 92.0741 52.9557 92.3267C52.9507 92.3758 52.9472 92.4238 52.9434 92.473C49.7294 92.1863 46.5153 91.9009 43.3 91.614C43.2989 91.6505 43.2965 91.6869 43.2954 91.7235C44.6205 92.0471 45.9456 92.3708 47.2707 92.6944C47.2612 92.7494 47.2516 92.8057 47.2434 92.8609C46.8827 92.8582 46.5196 92.8801 46.1593 92.8486C43.2071 92.5918 40.2573 92.2986 37.304 92.0783C36.3724 92.0088 35.4256 92.063 34.5059 92.1829C33.8309 92.2711 33.5701 92.7923 33.742 93.3492C33.9607 94.0587 35.2419 94.789 36.0211 94.6206C35.8703 94.3541 35.724 94.0949 35.4818 93.6678C36.0157 93.6399 36.4594 93.5146 36.8596 93.6137C38.1147 93.9242 39.3767 94.2424 40.5875 94.7077C41.2959 94.98 41.9639 95.4719 42.5508 95.9819C43.1853 96.5344 43.136 97.377 42.5098 97.8411C41.6378 98.4876 40.6272 98.3906 39.6073 98.1807C39.9418 98.0063 40.301 97.9208 40.637 97.7834C41.3075 97.5095 41.3768 97.0962 40.7574 96.6627C40.2376 96.2979 39.6195 96.081 39.0445 95.7985C39.0396 95.8856 39.0345 95.974 39.0295 96.0612C38.8503 96.1381 38.6685 96.292 38.4907 96.2786C37.6155 96.2162 36.7296 96.1824 35.8686 96.0054C34.2128 95.6652 32.5951 95.168 31.2602 93.9824C30.3944 93.2144 29.9328 92.2889 30.1423 91.1225C30.163 91.0089 30.1658 90.8912 30.1976 90.5785C29.499 90.9885 28.8993 91.2558 28.3982 91.6507C27.0661 92.6981 26.6126 94.362 27.1983 96.072C27.7678 97.7364 28.8577 98.8028 30.6557 98.9451C31.1051 98.9807 31.5551 99.0242 32.0029 99.0766C33.3461 99.2351 34.6332 99.5754 35.7243 100.49C36.8561 101.438 37.4429 102.638 37.355 103.95C38.5357 103.74 39.6807 103.37 40.8435 103.363C44.1407 103.342 47.1865 104.466 50.0121 106.262C50.6401 106.661 51.1996 107.25 51.6507 107.856C52.2426 108.649 52.0771 109.549 51.369 110.181C50.6423 110.828 49.7505 111.133 48.7915 111.064C47.5759 110.979 46.3655 110.741 45.152 110.583C43.4311 110.359 41.8067 110.502 40.5106 111.757C39.7143 112.528 39.7508 113.369 40.7212 113.964C41.529 114.459 42.4371 114.798 43.3252 115.13C44.8388 115.694 46.1919 115.487 47.4618 114.489C48.9222 113.342 50.6491 112.753 52.5437 113.26C53.6281 113.55 54.6611 114.143 55.6743 114.686C57.9383 115.902 60.2952 116.613 62.8168 116.443C64.6979 116.317 66.3125 115.607 67.4894 114.106C68.5651 112.733 68.5358 111.285 67.3235 109.98C65.8819 108.426 64.1002 107.536 62.0243 107.536C61.3531 107.536 60.6717 107.801 60.0435 108.055C59.8391 108.137 59.787 108.573 59.6644 108.847C59.9119 108.941 60.1565 109.089 60.4071 109.114C60.7888 109.153 61.1868 109.031 61.555 109.112C61.9396 109.199 62.5308 109.373 62.6171 109.635C62.797 110.176 62.2355 110.388 61.8206 110.51C60.3033 110.952 58.7738 110.851 57.3094 110.136C56.0021 109.496 55.8231 108.243 56.9524 107.402C57.5944 106.924 58.377 106.581 59.1526 106.347C61.0252 105.78 62.9479 105.999 64.8664 106.424C65.0734 106.469 65.3809 106.497 65.5029 106.383C66.3529 105.582 67.177 104.129 66.2417 102.729C65.6828 101.893 64.9269 101.091 64.0936 100.553C60.4625 98.2006 56.5374 97.6163 52.4496 98.3391C51.3522 98.5334 50.2942 98.8649 49.4585 99.6138C49.1771 99.8657 49.0726 100.32 48.8877 100.682C49.2617 100.745 49.6541 100.908 50.0086 100.857C51.7107 100.614 53.4197 100.584 55.1103 101.029C55.9511 101.25 56.7608 101.664 57.5463 102.072C57.9323 102.273 58.2355 102.686 58.0093 103.175C57.7949 103.636 57.3953 103.774 56.9051 103.628L57.026 103.486C56.6084 103.009 56.1895 102.532 55.7719 102.055L55.6319 102.181C56.3993 103.036 56.3132 103.601 55.2513 103.945C54.5666 104.167 53.8103 104.187 53.0864 104.296C54.3173 103.286 54.4216 103.026 53.687 102.437C53.468 103.161 52.856 103.281 52.233 103.316C51.4469 103.362 50.6521 103.402 49.8654 103.337C48.6254 103.236 47.3777 103.084 46.2571 102.396C45.0974 101.684 44.8822 100.518 45.7755 99.547C46.1406 99.1489 46.5809 98.7896 47.0537 98.5322C49.8694 97.003 52.9497 96.5484 56.1682 96.702C59.0016 96.8374 61.7347 97.564 64.4355 98.493C64.6512 98.5672 64.9247 98.5332 65.1502 98.4737C65.8814 98.2798 66.5874 97.9628 67.3317 97.8574C68.4593 97.6977 69.6116 97.6781 70.7544 97.5981C70.7612 97.5571 70.7679 97.5161 70.7747 97.4752C68.8104 97.1047 66.8474 96.7344 64.883 96.3639C65.0925 96.2443 65.2966 96.2288 65.4994 96.2525C69.4093 96.7047 73.3184 97.1529 77.2274 97.6273C77.87 97.7048 78.4717 97.788 79.097 97.5245C79.5283 97.3436 80.0583 97.277 80.535 97.3259C82.6908 97.5492 84.8436 97.8284 86.9978 98.0934C87.5312 98.1586 88.0622 98.2864 88.5947 98.3107C89.4646 98.3487 90.0414 98.0635 90.1169 97.5645C90.23 96.8218 89.7306 96.3709 89.182 96.0332C88.4951 95.612 87.7659 95.2631 87.0502 94.8966C85.2991 93.9991 84.7131 91.5649 85.9374 90.1092C86.2904 89.6896 86.771 89.3809 87.2232 88.9932C82.201 88.2058 77.223 87.2125 72.2908 85.8967C73.0322 85.9339 73.775 85.9713 74.5164 86.0084C74.5213 85.9606 74.5247 85.9139 74.5283 85.8659C71.5075 85.2748 68.4855 84.6835 65.4647 84.0924C65.4692 84.0485 65.4748 84.0061 65.4805 83.9623C66.0255 83.9649 66.5718 83.9677 67.117 83.9691C67.1187 83.888 67.1205 83.8069 67.1221 83.7272L62.2329 82.9976C62.2418 82.9098 62.2509 82.8206 62.2598 82.7327C68.0004 83.4529 73.7398 84.1715 79.41 84.8824C79.0474 84.5279 79.3722 84.3088 79.6477 84.1662C80.5331 83.7067 81.4007 83.1029 82.5042 83.6913C82.5177 83.6985 82.5558 83.6557 82.5867 83.6328C82.4417 83.5009 82.3027 83.3739 82.135 83.223C82.8741 82.7089 83.6296 82.9397 84.3365 83.1383C84.2074 82.046 84.082 80.9805 83.9382 79.764C83.4991 80.4055 83.1515 80.9125 82.7825 81.4516C82.4853 80.9272 82.1583 81.0148 81.784 81.3249C81.6409 81.4426 81.2963 81.5631 81.2453 81.503C80.747 80.9262 80.5212 81.4999 80.2214 81.69C80.1076 81.7622 80.0706 82.0111 79.9646 82.0321C79.3238 82.1542 78.673 82.2342 77.9693 82.3365C79.3626 81.2234 81.4475 81.3784 82.5052 79.7482C82.419 80.0856 82.3315 80.4228 82.2452 80.7602C82.5054 80.7164 82.692 80.6052 82.7581 80.4405C82.9558 79.9519 83.1038 79.4414 83.2765 78.9425C83.4053 78.5695 83.5441 78.2006 83.6791 77.8311C83.7536 77.8383 83.8282 77.8455 83.9014 77.8538C83.7788 78.6501 84.2239 79.0864 84.798 79.4673C85.434 79.8901 86.0451 80.3538 86.6765 80.7838C86.9206 80.9501 87.1937 81.0735 87.4531 81.2159C85.4636 79.8801 84.4902 77.9233 85.0879 76.4882C85.4065 77.0067 85.7228 77.6245 86.1366 78.165C86.5516 78.7057 87.0664 79.1708 87.5376 79.6701C87.5664 79.3871 87.4832 79.1963 87.4094 79.0029C87.0185 77.97 86.3211 77.0014 86.6283 75.8181C86.6453 75.7538 86.593 75.6423 86.5391 75.5845C85.8548 74.8448 85.1633 74.112 84.5484 73.4562C84.0085 73.7993 83.2313 74.292 82.4555 74.7849C82.9489 74.2355 83.6743 73.958 84.0012 73.1817C84.2256 72.6472 84.8545 72.6676 85.1908 73.127C85.826 73.9918 86.4147 74.893 87.0176 75.7818C87.065 75.8518 87.1056 75.951 87.0976 76.0298C87.0206 76.749 87.3516 77.3362 87.7217 77.9227C87.9901 78.3484 88.2016 78.8089 88.4602 79.241C88.9595 80.0764 89.4489 80.9194 89.9969 81.7227C90.1495 81.9461 90.4872 82.0595 90.7548 82.186C91.2204 82.4076 91.7264 82.5513 92.167 82.8152C93.0655 83.3506 93.9339 83.9393 94.8088 84.5159C95.0229 84.6567 95.2152 84.8349 95.5359 85.09C94.2346 84.9916 93.2597 84.492 92.433 83.7232C92.1056 83.4186 91.649 83.2363 91.2276 83.0646C90.8673 82.9177 90.4001 82.9673 90.1109 82.7471C89.4649 82.2559 88.8994 81.6507 88.3871 81.1729C88.9516 82.9506 91.0002 83.3599 92.2305 84.7188C91.226 84.3696 90.2999 84.0543 89.3811 83.7191C89.2759 83.6811 89.2095 83.5295 89.1175 83.4384C88.5495 82.8827 87.9787 82.3293 87.4093 81.7747C87.3651 81.814 87.3207 81.8546 87.2764 81.8939C87.5292 82.358 87.7832 82.8222 88.0447 83.302C86.6739 83.3257 86.3609 82.0367 85.5549 81.3826C86.2064 82.4452 86.4857 83.7711 88.0577 84.0674C89.0107 84.2463 89.9567 84.7613 90.5006 85.7069C90.6982 86.0499 90.909 86.16 91.2578 86.1898C92.764 86.3161 94.2648 86.5716 95.6429 87.2678C96.7148 87.8095 97.7067 88.5242 98.7692 89.1838C99.9553 87.6568 101.682 86.983 103.724 87.1762C105.732 87.367 107.386 88.4061 108.824 90.0269C109.577 88.1689 110.294 86.4014 111.039 84.5646C105.078 83.851 99.2499 83.1531 93.3123 82.443C93.9534 82.9558 94.466 83.4048 95.0189 83.7903C95.2881 83.9774 95.6419 84.1496 95.9461 84.1451C96.6235 84.136 97.1196 84.3766 97.6006 84.8813C97.8892 85.1841 98.4078 85.5356 98.7373 85.4746C99.9663 85.25 100.705 85.9899 101.465 86.767C101.028 86.593 100.604 86.3828 100.176 86.1851C99.8837 86.0497 99.5616 85.7956 99.293 85.8317C98.344 85.959 97.6403 85.4355 96.9361 84.9303C96.5598 84.6604 96.253 84.4598 95.7714 84.5992C95.5561 84.6615 95.2083 84.5322 95.0048 84.3759C94.0528 83.6383 93.0999 82.8966 92.2101 82.0844C91.767 81.6798 91.4592 81.1184 91.0896 80.629C91.141 80.5711 91.1911 80.5117 91.2425 80.4538C91.4676 80.4873 91.6939 80.5211 91.919 80.5547C98.0149 81.4577 104.111 82.3607 110.207 83.2637C110.441 83.2986 110.679 83.3159 110.91 83.3687C111.249 83.4468 111.411 83.3358 111.493 82.9873C111.688 82.1507 111.933 81.3293 112.141 80.4972C112.315 79.803 112.467 79.1016 112.639 78.3546C112.163 78.2836 111.795 78.2641 111.444 78.1684C110.72 77.9712 109.899 77.8894 109.313 77.4701C108.593 76.9547 107.907 76.7093 107.094 76.7874C106.362 76.8579 105.748 76.5931 105.353 75.9741C104.732 74.9973 103.924 74.7443 102.859 74.8792C101.774 75.0177 100.732 74.8333 99.9045 73.8926C99.6706 73.6268 99.2902 73.4861 98.9687 73.303C98.3073 72.925 97.6255 72.5819 96.9785 72.1784C95.7551 71.416 94.607 70.4878 93.3233 69.8713C91.6387 69.0611 90.3829 67.941 89.6341 66.2014C89.4379 65.7432 89.0859 65.3483 88.8044 64.9246C88.9539 65.4466 89.2478 65.8762 89.4574 66.3429C90.2789 68.1721 91.5664 69.4911 93.3457 70.4046C94.0971 70.7908 94.8496 71.3701 95.3586 72.0468C96.5984 73.6945 98.2303 74.6398 100.04 75.4188C100.898 75.7882 101.662 76.4111 102.467 76.9183C102.434 76.9763 102.4 77.0328 102.367 77.0908C101.426 76.6553 100.516 76.0551 99.5359 75.8197C97.6335 75.364 96.1622 74.3325 94.836 72.8963C94.2406 72.2526 93.4634 71.6735 92.668 71.3489C90.4691 70.4515 88.7615 69.0502 87.4113 67.0451C86.6217 65.8726 85.6387 64.7762 84.569 63.8558C83.1758 62.6562 81.6109 61.6645 80.0861 60.5594C80.7705 61.8342 81.4331 63.1452 82.1742 64.4114C82.4121 64.8169 82.8055 65.2127 83.2162 65.4261C85.2011 66.4621 86.9613 67.7676 88.3658 69.5579C89.0473 70.427 89.7795 71.2577 90.4316 72.1486C90.916 72.8112 91.4934 73.2869 92.2169 73.6533C93.3332 74.2173 94.2869 75.0273 95.1326 75.9681C94.6693 75.7232 94.2617 75.3909 93.8118 75.1414C93.2256 74.8165 92.6264 74.4398 91.9944 74.297C91.2012 74.117 90.6391 73.6829 90.0668 73.1436C89.5787 72.6838 88.9952 72.3317 88.4501 71.9343C88.2035 71.7545 87.9375 71.5994 87.7013 71.4067C86.3741 70.3246 85.0787 69.1986 83.7213 68.1578C82.4783 67.205 81.5278 66.0701 81.0107 64.5802C80.8117 64.0087 80.586 63.4451 80.3723 62.878C80.7525 65.1018 82.0387 67.0082 82.7952 69.1963C81.8559 68.0789 80.9991 67.0433 80.1183 66.0277C79.9766 65.8636 79.6244 65.6497 79.5433 65.7071C79.0442 66.0564 78.7196 65.6866 78.4184 65.4055C77.9243 64.9409 77.334 64.4894 77.0491 63.9078C76.5414 62.8744 76.1201 61.77 75.8673 60.6553C75.5289 59.1697 75.0122 57.8032 74.0572 56.5968C73.0403 55.3104 72.0772 53.9927 71.651 52.3746C71.6368 52.3227 71.5747 52.2819 71.5247 52.2246C71.386 53.193 71.7167 54.5252 72.2332 55.6504C72.6052 56.4615 72.8629 57.3238 73.1414 58.1721C73.2138 58.3927 73.1828 58.6465 73.1871 58.8846C73.2105 60.0215 73.3403 61.1322 73.8203 62.2087C74.1206 62.8818 73.9333 63.2422 73.363 63.3092C73.4529 63.7149 73.5614 64.1167 73.6264 64.5239C73.7217 65.1192 73.9054 65.7382 73.8357 66.309C73.7391 67.0934 73.8753 67.7591 74.2968 68.4267C74.4958 68.7424 74.6128 69.1114 74.7661 69.4557C74.3507 69.1864 74.0929 68.824 73.7622 68.5516C72.8506 67.8004 72.5213 66.8894 72.7239 65.7521C72.7752 65.4647 72.7343 65.0624 72.5675 64.8381C72.0961 64.2011 71.9287 63.511 71.8351 62.7586C71.7783 62.2962 71.7045 61.7067 71.4089 61.4212C70.852 60.8843 70.3096 60.3967 70.1635 59.5734C70.0813 61.1864 69.4303 62.7749 70.4234 64.3464C70.496 64.4621 70.4738 64.6425 70.4806 64.793C70.5054 65.3149 70.516 65.8359 70.5474 66.3574C70.6007 67.2508 70.667 68.1436 70.7281 69.0368C70.3842 68.3965 70.139 67.7434 69.9193 67.0823C69.6711 66.3316 69.4844 65.5626 69.1955 64.8282C69.081 64.537 68.7793 64.1338 68.5418 64.1076C67.9938 64.0442 67.8404 63.7143 67.7476 63.2991C67.5602 62.4605 67.7238 61.7201 68.2716 61.0699C69.2315 59.9289 69.1848 58.5747 68.8562 57.1719C68.7496 57.4918 68.7115 57.8285 68.6231 58.1485C68.1651 59.7934 66.9251 60.726 65.6094 61.6001C65.3059 61.8014 65.0528 62.0942 64.8148 62.3788C63.7502 63.6563 62.7022 64.9481 61.6387 66.2271C61.4435 66.4617 61.2028 66.658 60.9074 66.9458C62.3465 67.1447 63.0735 68.0259 63.5442 69.194C63.7163 69.6211 63.8929 70.0541 64.0036 70.4983C64.1281 70.997 64.4484 71.1799 64.8846 71.3591C65.5962 71.6515 66.2939 72.0036 66.9586 72.4005C67.5241 72.7381 67.7675 73.2938 67.7681 73.9642C67.7689 74.1611 67.8915 74.4103 68.0348 74.5589C68.5318 75.0725 69.1986 75.4737 69.5502 76.0627C70.1402 77.0532 70.9732 77.4543 71.9853 77.6132C73.6888 77.8805 75.4143 78.0199 77.0938 78.4082C78.4029 78.7111 79.4153 78.3427 80.3274 77.5829C80.8394 77.1569 81.4069 76.747 81.5234 75.9327C81.5807 75.5359 81.5759 74.8544 82.308 74.8941L82.2989 74.9072ZM79.3794 51.8041C79.3407 51.8403 79.3018 51.8778 79.2631 51.914C79.6075 52.3064 79.9475 52.7035 80.2991 53.0891C80.633 53.4564 81.0097 53.7868 81.3142 54.1759C83.8441 57.4117 86.3487 60.6661 88.8884 63.8942C89.5345 64.716 90.3403 65.3465 91.3451 65.705C94.9034 66.9719 97.9191 69.0052 100.049 72.2928C100.188 72.5077 100.578 72.667 100.848 72.6743C102.277 72.7144 103.588 73.137 104.843 73.8792C106.028 74.5793 107.257 75.1982 108.453 75.8766C109.174 76.2845 109.904 76.6911 110.566 77.1874C111.227 77.6822 111.929 77.804 112.678 77.8292C116.05 62.1109 111.51 39.683 92.9467 24.4133C74.9416 9.60332 49.0279 7.58111 30.3327 20.5381C20.8112 27.1376 14.1678 36.0122 10.5227 47.2179C8.83997 52.391 7.91762 57.734 8.01472 63.2658C9.69845 63.6888 11.209 63.3895 12.6847 62.8961C13.9158 62.4842 15.1434 62.388 16.4599 62.6815C17.1963 62.8452 18.0166 62.8469 18.7401 62.6899C20.3918 62.3303 21.9987 61.7974 23.6405 61.3944C24.8669 61.0933 26.1187 60.8866 27.3581 60.636C27.9361 60.5189 28.5433 60.4718 29.0849 60.2653C31.6065 59.3048 34.1082 58.2968 36.6204 57.314C36.861 57.22 37.1214 57.1749 37.3736 57.1076C36.5267 58.1841 35.2359 58.3785 34.0994 58.8688C35.4672 58.5678 36.9059 58.3365 37.8044 57.1614C38.8374 55.8122 40.1492 54.9389 41.6503 54.1829C44.7753 52.6121 47.8134 50.8747 50.8809 49.1929C51.2852 48.9712 51.6673 48.6989 52.023 48.4057C52.7658 47.7911 53.6829 46.3302 53.7427 45.6531C52.7854 47.7901 51.0422 48.973 48.822 49.8039C49.0469 49.5712 49.1674 49.4331 49.3008 49.3087C50.8568 47.8474 52.2529 46.2467 53.4848 44.4865C54.0134 43.7311 54.6842 43.0716 55.3457 42.4266C56.4613 41.3377 57.6204 40.2933 58.7653 39.235C58.84 39.1648 58.9414 39.1248 59.1698 38.9858C58.8199 39.7836 58.5375 40.4288 58.2538 41.0739C58.9798 40.0501 59.6549 39.003 60.3361 37.9595C60.6852 37.4252 61.2694 36.9916 60.9916 36.4163C61.7712 35.8479 62.4472 35.3545 63.123 34.8624C63.136 34.9772 63.1485 35.084 63.1679 35.2508C63.4738 34.8859 63.737 34.5697 64.0355 34.2128C64.4118 35.4155 64.9734 36.5447 63.9666 37.5725C63.8999 37.6412 63.8699 37.8466 63.9212 37.9173C64.2606 38.3837 63.9855 38.7402 63.7982 39.1136C63.5996 39.509 63.39 39.8975 63.1853 40.2893C63.2682 40.3293 63.3499 40.369 63.4328 40.4089C63.7146 39.6678 64.0064 38.9308 64.2757 38.184C64.4038 37.8306 64.425 37.4179 64.6113 37.1059C64.9588 36.5229 65.0439 35.9151 64.9434 35.2442C64.9033 34.9746 64.892 34.7027 64.8559 34.2906C65.2335 34.6893 65.5113 34.9827 65.8326 35.3218C66.0796 35.0123 66.294 34.7426 66.5083 34.4729C66.5599 34.5016 66.6127 34.5318 66.6643 34.5605C66.3242 35.3007 65.9854 36.0411 65.644 36.7812C65.4958 37.1015 65.3001 37.4055 65.2097 37.7448C65.1111 38.1145 65.1182 38.5169 65.0662 38.9014C64.9514 39.7369 64.6051 40.3844 63.7905 40.722C62.8878 41.0963 62.3307 41.774 62.0422 42.7594C61.8552 43.3992 61.4258 43.9569 61.0983 44.5481C61.0138 44.7021 60.9049 44.8407 60.8071 44.9861C61.6268 44.4447 62.0728 43.6468 62.3592 42.7319C62.603 41.9563 63.0015 41.3179 63.8866 41.0407C63.8459 41.1605 63.8187 41.2103 63.8133 41.2632C63.8078 41.3175 63.8229 41.3735 63.8331 41.4774C64.9914 40.4408 65.7973 39.3083 66.0274 37.6832C66.2057 36.4282 66.7927 35.2512 67.2076 34.0434C67.2572 33.9012 67.3692 33.7828 67.5544 33.493C67.7134 34.0742 67.8692 34.4831 67.9307 34.9003C68.0788 35.9075 68.3023 36.8762 68.9974 37.6882C69.3595 38.1109 69.3051 38.5697 69.1314 39.0397C68.8573 39.7819 69.0356 40.5182 69.2499 41.3857C69.3814 40.8452 69.4777 40.4477 69.5741 40.0489C69.6597 40.0617 69.744 40.0756 69.8296 40.0896C69.8053 40.814 69.7784 41.5381 69.7566 42.2628C69.7313 43.1117 69.9817 43.7774 70.332 44.0737C70.2266 43.3614 69.9953 42.507 69.9991 41.6654C70.0048 40.1027 69.8204 38.5968 69.1611 37.1381C68.9799 36.7372 68.906 36.2893 68.7618 35.7917C69.3239 35.7417 69.7511 35.7031 70.1782 35.6646C70.2533 36.3815 70.3162 36.9891 70.3791 37.5966C70.4263 37.5918 70.4735 37.5871 70.5219 37.5838C70.508 37.3627 70.4956 37.1404 70.4817 36.9193C71.0427 37.9265 71.8846 38.8405 71.6659 40.0593C71.5691 40.0921 71.4735 40.125 71.3766 40.1591C71.2005 39.6816 71.0232 39.2039 70.8471 38.7264C70.7866 38.7475 70.726 38.7686 70.664 38.7909C70.8386 39.2314 70.9007 39.8848 71.2134 40.0652C71.7665 40.3852 71.8028 40.8196 71.9039 41.2938C71.969 41.5986 72.0169 41.9062 72.0713 42.2134C72.1078 42.2123 72.1443 42.2111 72.1806 42.2113L72.2648 41.383C73.1049 41.8416 73.6874 42.4335 73.9939 43.2886C74.2971 44.1367 74.5895 44.9897 74.9346 45.8217C75.0399 46.0761 75.2792 46.302 75.5009 46.4833C75.8306 46.7529 76.2371 46.9303 76.5425 47.2212C76.9141 47.5757 77.219 47.999 77.6187 47.694C78.3971 48.8621 79.1443 49.9666 79.872 51.084C80.0988 51.4326 80.2971 51.8059 80.4582 52.1881C80.5375 52.3783 80.5047 52.6122 80.523 52.8274C80.4676 52.8493 80.4107 52.8723 80.3552 52.8942C80.0311 52.5323 79.7058 52.169 79.3817 51.8071L79.3794 51.8041ZM30.8455 61.681C30.825 61.6281 30.8045 61.5739 30.7839 61.521C30.1969 61.7272 29.5938 61.8996 29.0257 62.1494C27.8855 62.6508 26.718 62.9345 25.4361 62.7734C24.9746 62.715 24.4936 62.76 24.0356 62.8333C22.0267 63.1567 20.025 63.5244 18.0135 63.8355C17.4779 63.9183 16.9142 63.8696 16.3625 63.8568C15.6449 63.8402 14.9052 63.6839 14.2153 63.7909C12.4926 64.0572 10.7813 64.3397 9.01058 64.0952C8.84419 64.0717 8.67041 64.1336 8.50169 64.1203C8.13343 64.0902 8.01013 64.2686 8.02788 64.6176C8.07329 65.4862 8.15592 66.359 8.13431 67.2229C8.11989 67.7861 8.34411 67.9048 8.83163 67.9749C14.4815 68.7957 20.1285 69.6317 25.7754 70.4821C26.7804 70.6334 27.7481 70.7187 28.7544 70.4872C29.5388 70.3064 30.0212 69.9678 30.1811 69.1863C30.3954 68.1386 31.0375 67.5694 32.0597 67.3861C32.725 67.2663 33.4487 67.2864 33.9068 66.6372C33.9902 66.5185 34.2592 66.5297 34.4453 66.4998C35.4869 66.3299 36.5299 66.1589 37.5742 66.0012C37.9065 65.9511 38.3291 65.7911 38.5675 65.9369C39.3561 66.4166 39.9296 65.9604 40.5956 65.7437C42.662 65.0721 44.1415 63.762 45.1868 61.8454C45.5699 61.1417 46.1926 60.521 46.8419 60.0473C48.8657 58.5679 50.0931 56.5328 50.8617 54.1708C51.1585 53.2562 51.2714 52.2735 51.0809 51.1078C50.9394 51.4657 50.841 51.6544 50.789 51.8591C50.3465 53.6191 49.3839 54.8122 47.6006 55.3817C45.8695 55.9354 44.6345 57.1639 43.8181 58.834C43.536 59.4123 43.1812 60.0677 42.6697 60.3863C41.2475 61.2733 39.7547 62.062 38.2344 62.777C36.9608 63.3766 35.6221 63.8511 34.2863 64.309C33.9084 64.4376 33.4183 64.3933 33.0113 64.2841C32.1088 64.0432 31.2746 64.0879 30.4839 64.5353C30.437 64.5624 30.4166 64.6354 30.3764 64.699C30.4965 64.8205 30.6081 64.9356 30.7269 65.0569C29.1519 66.1311 25.3867 66.3747 23.6678 65.5699C24.7147 65.4887 25.8239 65.4456 26.9159 65.3042C27.6237 65.213 28.4698 65.1779 28.9686 64.767C29.888 64.0122 30.9395 63.8595 32.0269 63.7253C34.5633 63.4111 36.9726 62.8012 39.0835 61.3086C39.7788 60.8167 40.5765 60.3901 41.3979 60.1768C42.3808 59.9208 42.5479 59.1705 42.9148 58.3712C42.6433 58.3989 42.4939 58.4383 42.3486 58.4245C41.4729 58.341 40.8324 58.6259 40.4367 59.4536C40.3132 59.7106 39.9853 59.8834 39.7167 60.0349C39.148 60.3553 38.553 60.6273 37.9764 60.9348C37.3478 61.2686 36.7293 61.6184 36.1062 61.9623C37.6635 60.5903 39.7742 59.7509 39.9121 57.0023C39.1322 58.6201 37.9065 59.4512 36.4054 59.9264C35.9426 60.0725 35.4649 60.1875 35.0244 60.3828C34.0889 60.7981 33.1852 61.2838 32.2457 61.688C31.738 61.906 31.1823 62.0212 30.645 62.1719C30.6143 62.1804 30.5559 62.1035 30.4826 62.0454C30.6157 61.9117 30.7298 61.7976 30.8441 61.6821L30.8455 61.681ZM42.4708 72.2006C43.1497 71.8572 43.9205 71.9119 44.2467 71.1171C44.3398 70.8909 44.7056 70.754 44.9769 70.6515C45.5872 70.4211 46.2094 70.2136 46.8396 70.0426C47.8357 69.7715 48.7761 70.2909 49.1531 71.3074C49.2673 71.6143 49.2902 71.9509 49.4004 72.2586C49.6068 72.8338 49.8466 73.3995 50.0482 73.9071C51.0422 73.5923 51.8667 73.3494 52.6758 73.0661C52.9396 72.9743 53.1863 72.8077 53.4043 72.6304C53.7935 72.3133 54.0973 71.8156 54.5386 71.6505C55.6008 71.2528 56.2615 70.5014 56.9226 69.6175C57.6331 68.6689 58.4832 67.7397 59.4791 67.1393C60.1734 66.7208 60.6551 66.2601 61.0104 65.5877C61.417 64.8193 61.8287 64.0517 62.191 63.2597C62.9049 61.7029 63.8663 60.3561 65.2594 59.3729C65.7881 58.9992 66.0117 58.4607 66.0754 57.8471C66.1478 57.1469 66.1527 56.4353 66.1945 55.564C65.6201 56.7442 65.2398 57.8929 64.162 58.5717C64.1292 58.3831 64.1089 58.2633 64.0752 58.072C62.9892 59.7885 61.9582 61.4632 60.8799 63.1047C60.207 64.1298 59.5325 65.1704 58.7247 66.0796C58.0604 66.8292 57.1991 67.396 56.4256 68.044C56.3805 67.99 56.3341 67.9359 56.2889 67.8819C56.397 67.7642 56.5014 67.6434 56.6118 67.5287C58.7828 65.2658 60.5682 62.7355 61.4592 59.6415C61.8604 58.2492 62.2368 56.8965 63.273 55.8351C64.26 54.8241 64.8305 53.5292 65.2755 52.1789C65.3615 51.9202 65.42 51.6509 65.491 51.3873C65.4571 51.3757 65.4232 51.3641 65.3893 51.3524C65.1299 51.8358 64.8717 52.3194 64.6122 52.8027C64.5401 52.7841 64.468 52.7655 64.3947 52.7454C64.4124 51.9072 64.4289 51.0688 64.4462 50.2476C64.4218 50.2702 64.3613 50.3031 64.3326 50.3552C63.6481 51.5977 62.9696 52.8436 62.285 54.086C62.1289 54.3697 61.9959 54.746 61.4701 54.2097C61.2669 55.9529 60.2268 57.103 59.3015 58.3383C58.9829 58.7644 58.8004 59.3209 58.6429 59.8483C58.381 60.7262 58.1906 61.6278 57.9701 62.5197C57.9218 62.5099 57.8733 62.5013 57.825 62.4915L58.3897 56.9377C58.2936 56.9628 58.2652 56.9611 58.2575 56.9731C58.2153 57.0442 58.1705 57.1136 58.1407 57.1905C57.5064 58.8444 56.9896 60.5815 55.0492 61.1892C54.7059 61.2967 54.6297 61.6251 54.7538 62.0516C54.8636 62.4274 54.8694 62.8808 54.7718 63.2532C54.3033 65.0395 51.9775 66.7559 50.037 66.7641C50.3184 66.4991 50.5717 66.2549 50.8321 66.0183C52.1524 64.8183 52.8974 63.4288 52.2741 61.4888C52.0021 60.6401 52.3053 59.8799 52.7988 59.1888C53.571 58.1064 54.3424 57.0186 55.0468 55.888C55.4455 55.2483 55.7104 54.5204 56.0349 53.8316C55.8425 53.8974 55.7638 54.0208 55.6948 54.1495C54.6551 56.0762 53.4 57.8093 51.5943 59.0707C51.3637 59.2318 51.1536 59.4851 51.0437 59.7481C50.6111 60.7723 49.8485 61.4417 48.8703 61.8558C47.3941 62.4817 46.0957 63.3636 44.9207 64.4371C43.7686 65.4891 42.4527 66.2621 40.9745 66.767C40.727 66.852 40.4906 66.9676 40.2439 67.0699C41.7169 69.7571 42.7451 70.8182 42.4704 72.1914L42.4708 72.2006ZM75.9598 100.045C75.9579 99.9998 75.9547 99.9547 75.9528 99.9098C75.1153 99.7061 74.2837 99.4574 73.4402 99.3132C72.5967 99.169 71.7337 99.0507 70.8912 99.0745C70.2781 99.0906 69.7837 99.4838 69.6141 100.143C69.4465 100.795 69.7531 101.304 70.2374 101.7C70.694 102.074 71.1826 102.415 71.685 102.722C72.7275 103.36 73.4475 104.222 73.7454 105.428C73.9948 106.436 74.6334 107.191 75.4323 107.813C78.4687 110.179 82.41 109.671 84.8216 106.626C85.9149 105.245 87.0298 103.882 88.0371 102.632C83.4859 101.847 78.7369 101.028 73.9892 100.208C73.9936 100.14 73.9993 100.071 74.0037 100.002L75.9624 100.045L75.9598 100.045ZM25.4303 71.6283C19.7409 70.6731 14.0311 69.7136 8.29068 68.7495C8.64969 72.3055 9.36456 75.6942 10.413 79.1222C10.9471 78.811 11.478 78.582 11.9073 78.2289C12.4697 77.7671 13.0883 77.5314 13.8048 77.456C15.4751 77.2829 16.578 76.0255 17.9692 75.3161C18.0212 75.2898 18.0602 75.226 18.088 75.1699C18.6358 74.0723 19.6722 73.6603 20.7226 73.2503C21.1551 73.0827 21.5252 73.0697 21.9148 73.4006C22.0641 73.5279 22.3207 73.6475 22.4867 73.6106C23.6983 73.3401 25.1106 73.3554 25.4294 71.6242L25.4303 71.6283ZM43.6012 105.316C40.836 104.969 38.6715 105.009 36.6523 105.932C35.0293 106.673 33.908 107.87 33.6494 109.75C33.6259 109.917 33.714 110.161 33.8344 110.28C33.9217 110.366 34.2122 110.382 34.3059 110.303C35.903 108.947 37.8305 108.39 39.8826 108.332C41.4932 108.286 43.1246 108.535 44.7468 108.618C45.532 108.659 46.3333 108.708 47.0976 108.596C47.8647 108.484 48.0448 107.874 47.5261 107.255C47.196 106.862 46.7663 106.479 46.3083 106.285C45.2541 105.838 44.1554 105.509 43.6 105.314L43.6012 105.316ZM101.891 96.943C101.772 95.6384 101.316 94.4069 100.305 93.4899C97.7456 91.1679 94.7956 90.3788 91.5631 91.1545C90.9642 91.2986 90.3662 91.7158 89.9429 92.176C89.2278 92.9521 89.695 94.167 90.7576 94.3911C91.2279 94.4902 91.7396 94.4629 92.2143 94.3908C94.2805 94.0786 96.3133 94.2992 98.275 95.1298C99.5011 95.6485 100.669 96.3225 101.892 96.9432L101.891 96.943ZM89.4135 105.274C89.4426 105.269 89.4703 105.264 89.4994 105.259C89.3229 105.424 89.115 105.566 88.9758 105.761C88.3228 106.667 87.6783 107.579 87.0494 108.503C86.3214 109.573 85.3423 110.226 84.042 110.386C83.5161 110.45 82.99 110.517 82.47 110.613C81.1694 110.853 79.944 111.272 78.8958 112.095C80.2658 111.466 81.7273 111.342 83.2343 111.345C86.0665 111.352 87.1881 110.51 88.1349 107.94C88.4757 107.015 88.9819 106.16 89.4135 105.274ZM22.6479 94.3463C22.1714 95.3429 21.8876 96.6268 21.9831 97.9738C22.1025 99.672 22.9503 100.873 24.5974 101.49C26.0019 102.016 27.3833 102.616 28.7744 103.185C28.6178 103.129 28.4874 102.956 28.3179 102.848C27.1821 102.118 26.0674 101.346 24.8898 100.695C23.5695 99.967 22.7524 98.9242 22.6398 97.4395C22.5561 96.3474 22.6404 95.2503 22.6492 94.3464L22.6479 94.3463ZM91.9684 95.6855C95.124 96.0239 97.43 97.4515 98.2983 100.8C98.4405 98.9035 98.0528 97.2506 96.4137 96.1337C95.0065 95.1747 93.5109 95.1102 91.9683 95.6868L91.9684 95.6855ZM50.7843 115.165C52.1188 115.09 53.0774 115.685 53.7186 116.875C53.8552 117.127 53.9592 117.42 54.1566 117.611C54.4616 117.905 54.8045 118.249 55.1817 118.356C55.8705 118.554 56.596 118.595 57.3058 118.701C57.3204 118.634 57.3365 118.565 57.3511 118.498C56.979 118.365 56.6142 118.186 56.2349 118.111C55.5081 117.968 54.9497 117.612 54.5616 116.96C54.3809 116.656 54.2043 116.349 53.9957 116.065C53.1203 114.868 51.9225 114.517 50.7829 115.166L50.7843 115.165ZM73.1541 109.521C73.6579 107.043 71.6685 104.544 70.2344 105.011C71.459 106.034 72.4322 107.537 73.1541 109.521ZM34.4938 101.942C33.7955 100.944 32.8701 100.329 31.656 100.446C30.5783 100.548 29.7664 101.128 29.2095 102.047C30.8931 100.759 32.6407 100.81 34.4938 101.942ZM76.5694 54.4518C76.2235 56.2707 76.3632 56.6838 78.5002 60.1706C77.7256 58.3012 76.2235 56.6538 76.5694 54.4518ZM63.0238 48.3523C62.8742 46.6824 63.4385 45.2568 64.2794 43.9196C63.0337 44.9983 62.4993 46.9216 63.0238 48.3523ZM44.9813 53.2554C43.6073 53.5777 42.6574 55.0298 42.8193 56.5651C43.0089 55.0835 43.6679 53.9396 44.9813 53.2554ZM69.233 45.6767C69.1759 45.6891 69.1189 45.7003 69.0631 45.713C69.3458 46.84 69.6285 47.967 69.911 49.0953C69.9894 49.0781 70.0677 49.061 70.1461 49.0438C69.8421 47.9215 69.5382 46.7992 69.2342 45.6768L69.233 45.6767ZM71.3321 47.8749C71.2858 47.9086 71.2383 47.9422 71.192 47.976C71.8996 48.9591 72.6059 49.9421 73.3135 50.9253C73.3626 50.8893 73.413 50.8535 73.4619 50.8189C72.7528 49.8381 72.0424 48.8571 71.3333 47.8764L71.3321 47.8749ZM68.5887 42.6658C68.658 42.6486 68.7287 42.6302 68.7979 42.613C68.4537 41.6447 68.1094 40.6764 67.765 39.7094C67.7034 39.7278 67.6418 39.7461 67.5815 39.7647C67.9168 40.7317 68.2534 41.6988 68.5887 42.6658ZM73.6125 46.7328C73.6743 46.7001 73.7359 46.6686 73.7964 46.6357C73.4258 45.6831 73.0554 44.7293 72.6862 43.7769C72.6321 43.7977 72.5779 43.8198 72.5239 43.8406C72.8868 44.8038 73.2497 45.7683 73.6126 46.7315L73.6125 46.7328ZM77.3292 52.5332C76.9379 51.5684 76.5601 50.6357 76.1554 49.6361C76.2919 50.7453 76.5287 51.7369 77.3292 52.5332Z" fill="white"/>
<path d="M14.5802 46.2815C15.3175 44.3346 17.1394 43.2909 19.3426 43.537C19.5131 43.5562 19.7124 43.5067 19.8583 43.4263C20.3154 43.172 20.7615 42.899 21.1961 42.6134C21.5824 42.3583 21.9774 42.107 22.3116 41.7968C22.6628 41.4709 22.9485 41.0806 23.2586 40.7158C23.7354 40.1557 24.3243 39.9841 25.1058 40.2044C25.6086 40.3457 26.1474 40.4109 26.6632 40.412C27.2447 40.4131 27.7116 40.2003 28.0656 39.6962C28.2811 39.3891 28.7411 39.1935 29.1397 39.0703C30.4206 38.6743 30.5092 38.4371 29.9646 37.185C29.7345 36.6551 29.5684 36.0411 29.6065 35.4938C29.6917 34.2475 30.8173 33.6341 32.1288 33.8806C32.7751 34.0019 33.481 33.9934 34.1115 33.8681C34.8548 33.7206 35.3471 33.1726 35.3921 32.4319C35.514 30.4254 36.8266 29.5687 38.694 29.2377C39.2614 29.1371 39.6057 28.928 39.8853 28.4092C40.1125 27.9872 40.6369 27.6286 41.1239 27.4589C42.1113 27.1142 43.1632 26.9189 44.1882 26.6588C44.8633 26.4866 45.4269 26.6867 45.933 27.1724C46.6827 27.8923 47.1367 27.9693 48.0309 27.5549C48.347 27.4085 48.6476 27.2367 48.9627 27.0878C49.6158 26.7786 50.295 26.7043 51.0453 26.9029C51.2707 26.963 51.631 26.8754 51.788 26.7237C52.4109 26.1197 53.137 25.763 54.0575 25.7827C54.7045 25.7971 55.1162 25.5337 55.3558 24.9786C55.771 24.0145 56.6183 23.581 57.6741 23.5733C59.0144 23.5641 60.2369 23.3235 61.3811 22.691C62.2581 22.206 63.1761 22.2751 64.0245 23.0109C64.307 23.2556 64.6675 23.416 64.9908 23.6133C64.3379 24.4608 63.6578 24.6068 62.6206 24.1056C62.1364 23.871 61.1582 24.0263 60.888 24.4274C60.8349 24.507 61.0053 24.8652 61.1086 24.8866C61.5633 24.9819 62.0344 25.0432 62.4941 25.0396C63.3785 25.0345 64.2628 24.9929 65.1413 24.9323C65.3331 24.9194 65.5774 24.8073 65.6745 24.6637C66.3334 23.6822 67.2678 23.1644 68.5231 23.1438C68.7345 23.1399 68.9455 23.1395 69.1556 23.1233C70.0415 23.054 70.302 22.8848 70.4356 22.0454C70.5483 21.3342 70.9669 20.9782 71.6346 20.7781C72.3673 20.5586 73.0929 20.3197 73.8121 20.069C74.4885 19.8338 75.1302 19.8365 75.7016 20.3756C76.1356 20.7863 76.5669 20.6825 77.0464 20.536C77.9908 20.2469 78.94 19.961 79.911 19.7512C80.4728 19.6303 81.0209 19.8439 81.6173 20.3515C80.3046 20.1291 79.3502 20.5662 78.4103 21.0625C77.7235 21.4249 76.9688 21.5319 76.1585 21.4289C74.8897 21.2676 73.673 22.5068 73.923 23.6837C74.0548 24.3059 73.8976 24.7359 73.2653 24.816C71.6123 25.0268 70.1642 25.6241 68.7444 26.3713C68.0454 26.7393 67.2046 26.6828 66.4437 26.1849C65.7575 25.7369 65.0291 25.714 64.2409 25.7844C63.3527 25.8643 62.4377 25.7785 61.5358 25.7653C60.8626 25.7555 60.1561 25.6314 59.5282 25.7704C59.0253 25.8819 58.5096 26.2308 58.1918 26.62C57.6269 27.3116 56.9345 27.6659 56.0147 27.6767C55.2997 27.6862 54.696 27.7888 54.2571 28.4311C53.8576 29.0159 53.0077 29.0103 52.1137 28.5935C51.8043 28.4493 51.5017 28.2756 51.1787 28.1755C50.5028 27.966 49.8816 28.0648 49.327 28.4542C48.5812 28.978 47.8386 29.5072 47.0747 30.0065C46.4225 30.4324 45.7571 30.6607 44.8986 30.2237C44.5538 30.0486 44.0125 30.107 43.6132 30.2119C42.3376 30.5443 41.3181 31.2901 40.3954 32.134C39.8105 32.6684 39.9062 33.0034 40.6382 33.4314C41.2779 33.8056 41.4314 34.4044 40.8484 34.8078C40.3443 35.1572 39.6669 35.3011 39.0502 35.4941C38.3497 35.7136 37.6117 35.8461 36.9261 36.0957C36.6388 36.2002 36.4068 36.4805 36.2166 36.7294C35.8051 37.2676 35.8862 37.5056 36.5221 37.8416C37.0531 38.122 37.2255 38.5109 36.852 38.9295C36.5207 39.2997 36.0322 39.5469 35.5914 39.8182C35.082 40.1316 34.4934 40.3507 34.0363 40.718C33.0043 41.5482 31.7733 41.4704 30.511 41.3964C29.6285 41.3447 28.7437 41.3533 27.8625 41.3528C27.3453 41.3528 27.0323 41.5944 26.8539 42.0674C26.6948 42.4898 26.469 42.8987 26.1976 43.262C25.6024 44.0609 24.6491 44.311 23.6304 43.9437C22.572 43.5622 21.6804 43.6002 21.0107 44.523C20.9014 44.6733 20.5919 44.693 20.3683 44.7535C20.2955 44.7731 20.1953 44.7461 20.1174 44.7151C17.8698 43.8098 16.2943 44.822 14.8178 46.1223C14.7583 46.1754 14.7001 46.2288 14.6371 46.279C14.6258 46.2883 14.5983 46.2805 14.5791 46.2801L14.5802 46.2815ZM29.9226 40.207C31.0677 40.1944 32.1575 40.1444 33.1615 39.3987C33.9733 38.7959 34.3537 38.173 34.2715 37.2044C34.1812 36.1387 34.4522 35.7791 35.523 35.4747C36.159 35.2943 36.8032 35.1357 37.4352 34.9438C38.0462 34.7572 38.3547 34.3326 38.2346 33.7097C38.0657 32.834 38.4311 32.193 39.0191 31.6276C39.4359 31.2263 39.8608 30.8336 40.2836 30.4369C39.6126 30.6571 39.0052 30.9474 38.3965 31.2376C37.6633 31.5871 37.1792 32.168 37.1121 32.9358C37.0041 34.1787 36.2472 34.6973 35.0817 34.9718C33.4839 35.3476 33.1248 35.9008 33.1906 37.494C33.199 37.6884 33.0662 37.8802 32.9988 38.0731C32.8153 37.9803 32.5429 37.9266 32.4648 37.785C32.2425 37.3802 32.0616 36.9476 31.9431 36.5096C31.8796 36.2753 31.9788 36.0105 32.0086 35.7196C31.3268 36.3466 31.2641 37.499 31.834 38.2032C32.3287 38.8124 32.3417 39.0367 31.6865 39.4293C31.141 39.7556 30.5066 39.9569 29.9238 40.2084L29.9226 40.207ZM66.9965 25.2472C67.0246 25.3376 67.0525 25.4293 67.0806 25.5197C67.5046 25.45 68.0001 25.4858 68.3404 25.2907C69.2932 24.7441 70.3051 24.3994 71.4284 24.2851C72.0278 24.2244 72.3531 23.874 72.4133 23.3118C72.4966 22.5233 72.8921 21.9415 73.5775 21.5302C73.7378 21.4348 73.8655 21.2933 74.0077 21.1734C72.9096 21.4689 71.91 21.8324 71.7681 23.1165C71.6981 23.7502 71.1513 23.9633 70.5526 24.131C69.3537 24.4675 68.1802 24.8708 66.9965 25.2472ZM41.5055 29.8C41.6714 29.6873 41.8407 29.5799 42.0021 29.4616C42.7956 28.8744 43.6734 28.7201 44.7207 28.9092C45.3611 29.0247 46.0482 28.8993 46.6983 28.8072C46.9659 28.7703 47.1904 28.5374 47.4343 28.3925C46.6457 28.5175 45.9241 28.7035 45.2838 27.984C45.1995 27.8901 44.9224 27.894 44.7566 27.9302C44.1881 28.0538 43.6253 28.1977 43.0685 28.3582C42.3008 28.5799 41.7609 29.0528 41.5042 29.7998L41.5055 29.8ZM53.7432 26.8043L53.8465 27.0262C54.5476 27.0025 55.2583 27.0227 55.9466 26.9351C56.206 26.9018 56.5359 26.6712 56.6285 26.4455C56.9971 25.5352 57.7494 25.1363 58.6826 24.9318C58.9471 24.8738 59.2143 24.8283 59.4807 24.7767C58.6638 24.6508 57.7705 24.3909 57.1759 24.9954C56.2466 25.9405 55.4044 26.9532 53.7419 26.8041L53.7432 26.8043ZM25.1112 41.3572C24.6466 41.7988 24.1819 42.2403 23.6674 42.7292C24.5667 42.8041 25.109 42.3339 25.1112 41.3572Z" fill="white"/>
<path d="M95.873 43.0931C96.448 42.6207 97.0162 42.2029 97.5277 41.7296C101.408 38.1258 101.024 32.2064 96.6253 28.9283C93.7368 26.7758 90.5589 26.3461 87.4366 27.7956C84.3333 29.2357 82.8783 31.8268 83.0062 35.216C83.1145 38.0824 84.4612 40.463 86.7084 42.4371C86.8693 42.5784 87.0359 42.7144 87.2378 42.8865C84.4669 41.6963 81.1616 37.5404 81.7225 32.7139C82.2514 28.1631 86.4077 24.6252 91.1176 24.771C96.2272 24.9294 100.55 28.4321 101.379 33.125C102.258 38.1008 98.9365 42.1078 95.8717 43.0929L95.873 43.0931Z" fill="white"/>
<path d="M90.5499 38.9417C89.9355 39.2851 89.3778 39.5576 88.8669 39.8941C88.3896 40.2083 88.0258 40.149 87.6735 39.6812C87.4372 39.3671 87.173 39.0711 86.9606 38.701C88.3942 39.0228 89.6053 38.626 90.9091 38.2008C90.1296 37.7982 89.4861 37.4666 88.8426 37.1351C88.8613 37.0536 88.88 36.9721 88.8987 36.8906C89.2583 36.8637 89.618 36.8356 89.9784 36.8125C90.592 36.7719 90.9133 36.4559 90.9421 35.8644C90.9495 35.7019 90.9453 35.5389 90.9475 35.3372C90.3785 35.3625 89.8357 35.3856 89.2522 35.4114C88.4766 36.7644 87.5016 38.0033 85.7517 38.7685C86.8138 36.7368 88.5066 35.1625 88.4848 32.8141C89.3023 32.9461 89.6592 33.4319 89.6078 34.5658C90.1016 34.409 90.559 34.2653 91.0986 34.0942C90.7929 33.8342 90.5683 33.6742 90.3877 33.4774C90.219 33.2924 90.0972 33.0684 89.9009 32.7838C90.4042 32.6879 90.8394 32.6338 91.2524 32.517C91.5085 32.4449 91.7169 32.2008 91.9695 32.1753C92.2866 32.1433 92.6742 32.1739 92.9506 32.3243C93.3147 32.5224 93.2987 32.8844 93.0529 33.1762C92.8516 33.4138 92.6179 33.6244 92.355 33.8925C93.3238 33.9826 93.6102 33.8047 94.0685 32.7935C94.7375 33.207 95.4031 33.5902 96.0296 34.0245C96.2059 34.1475 96.27 34.4261 96.3845 34.6328C96.1515 34.7343 95.926 34.9151 95.6831 34.9222C95.1736 34.9379 94.6541 34.8344 94.1428 34.8299C92.4185 34.818 92.4189 34.8267 92.2437 36.5123C92.8121 36.5438 93.3754 36.5759 93.94 36.6068C93.9713 36.6574 94.0025 36.7091 94.0339 36.7597C93.7179 36.9728 93.4119 37.2035 93.0811 37.3958C92.7363 37.5972 92.3679 37.7629 92.0096 37.9437L92.0635 38.1438C92.785 38.1301 93.5105 38.1417 94.2241 38.0784C94.345 38.0679 94.4808 37.7436 94.4926 37.5507C94.5112 37.2523 94.4295 36.9414 94.3896 36.6293C95.1572 36.8542 96.3306 38.3023 96.3121 38.9837C96.294 39.6739 95.1006 40.2432 94.3775 39.8873C93.8715 39.6383 93.402 39.3116 92.8885 39.085C92.1556 38.7624 92.0562 38.843 91.9424 39.566C91.7842 40.5712 91.6055 41.5733 91.4332 42.5763C91.4199 42.6562 91.4179 42.7525 91.3704 42.8099C91.2041 43.0119 91.0208 43.2002 90.8435 43.3944C90.7307 43.1594 90.5243 42.9216 90.5205 42.6905C90.5012 41.4841 90.5336 40.2804 90.5499 38.9417Z" fill="white"/>
<path d="M86.8271 31.8817C87.9248 31.6421 89.0211 31.4024 90.2761 31.1283C89.7712 30.4206 89.3804 29.8736 88.8944 29.1939C90.0253 29.4128 91.1151 29.3232 91.7625 30.401C91.8217 30.4985 91.9982 30.6133 92.0981 30.6015C92.5445 30.5495 92.9823 30.4554 93.5427 30.3541C93.2956 29.929 93.1084 29.6076 92.8626 29.1827C94.2076 29.3406 95.3853 29.6407 96.2739 30.6172C96.4131 30.7708 96.4926 31.0801 96.4287 31.2519C96.3757 31.3929 96.057 31.5369 95.8753 31.509C93.3268 31.1155 90.971 31.7715 88.5917 32.2824C87.9219 32.4265 87.3141 32.4404 86.8284 31.8819L86.8271 31.8817Z" fill="white"/>
<path d="M29.2643 73.0498C29.2964 73.2802 29.3324 73.5112 29.3592 73.7421C29.3894 74.0036 29.3186 74.3203 29.4536 74.5171C29.7584 74.9596 30.2926 75.2846 30.0982 75.9277C30.0779 75.9961 30.4066 76.179 30.6227 76.3477C30.4329 76.6091 30.2352 76.8819 30.0777 77.0993L28.7807 76.9069C28.9846 76.521 29.2332 76.0489 29.5225 75.5026C28.4072 74.8169 28.8464 73.9331 29.2643 73.0498Z" fill="white"/>
<path d="M46.0944 82.6855C45.7248 82.6308 45.3559 82.569 44.9867 82.5229C44.2469 82.4318 43.7937 82.0899 43.6125 81.3523C43.5515 81.1072 43.2031 80.7712 42.9498 80.7228C42.0838 80.5585 41.7691 79.932 41.4404 79.416C42.0299 79.6823 42.6995 79.9315 43.3086 80.2818C43.5985 80.4494 43.8624 80.7826 43.9788 81.088C44.1501 81.5347 44.3764 81.8091 44.8683 81.9618C45.3129 82.1001 45.7234 82.357 46.1496 82.5616C46.1312 82.6025 46.113 82.6422 46.0947 82.6831L46.0944 82.6855Z" fill="white"/>
<path d="M44.7842 80.2344C46.1832 80.7576 47.4051 81.2151 48.6258 81.6724C48.6122 81.7165 48.5999 81.7607 48.5863 81.8058C47.9122 81.7518 47.2336 81.7302 46.5648 81.6263C46.3586 81.5941 46.1773 81.3379 45.988 81.1809C45.8541 81.0695 45.7328 80.947 45.5958 80.84C45.369 80.6633 45.135 80.495 44.7842 80.2344Z" fill="white"/>
<path d="M15.0031 76.5439C15.6074 76.1562 16.2363 75.6423 16.9689 75.3209C17.5037 75.0857 18.1746 75.1024 18.8149 75.0928C17.4334 75.4322 16.5194 76.8084 15.0043 76.5441L15.0031 76.5439Z" fill="white"/>
<path d="M68.2305 79.1333C68.907 78.8124 69.5607 78.4386 70.2695 78.1902C70.7186 78.0328 71.2497 78.064 71.7446 78.0101C71.7645 78.0917 71.7842 78.1744 71.8041 78.2559C70.6101 78.5754 69.4148 78.8958 68.2208 79.2153C68.2236 79.1879 68.2264 79.1605 68.2305 79.1333Z" fill="white"/>
<path d="M72.6772 89.6203L67.1232 88.924C67.1253 88.907 67.1273 88.89 67.1294 88.873L72.6834 89.5693C72.6813 89.5863 72.6793 89.6033 72.6772 89.6203Z" fill="white"/>
<path d="M79.5575 92.0316L74.553 91.4052C74.5547 91.3912 74.5564 91.3773 74.5581 91.3633L79.5626 91.9897C79.5609 92.0036 79.5592 92.0176 79.5575 92.0316Z" fill="white"/>
<path d="M85.1508 90.6506L82.8327 90.3534C82.8347 90.3363 82.8355 90.319 82.8364 90.3008L85.1395 90.5961C85.1437 90.614 85.1467 90.6317 85.1508 90.6506Z" fill="white"/>
<path d="M77.709 90.4707L81.6714 90.9703L81.6654 91.0196L77.703 90.52L77.709 90.4707Z" fill="white"/>
<path d="M79.3323 86.3459L82.6755 86.7687C82.6735 86.7848 82.6717 86.7999 82.6697 86.8161L79.3378 86.3947C79.336 86.3781 79.3329 86.3623 79.3311 86.3457L79.3323 86.3459Z" fill="white"/>
<path d="M70.9224 87.8438L74.0912 88.2478C74.0887 88.2681 74.0863 88.2885 74.0839 88.3088L70.9163 87.9049C70.9187 87.8846 70.9212 87.8642 70.9236 87.8439L70.9224 87.8438Z" fill="white"/>
<path d="M80.3189 98.1125L75.4721 97.4993C75.4749 97.4761 75.4777 97.4529 75.4805 97.4297L80.3273 98.0429C80.3245 98.0661 80.3217 98.0893 80.3189 98.1125Z" fill="white"/>
</svg>
