<svg width="15" height="15" viewBox="0 0 15 15" fill="none" xmlns="http://www.w3.org/2000/svg">
<path d="M8.2582 5.04145L8.40473 5.62131L8.94944 5.37433L11.7681 4.09631L9.89491 6.55991L9.53291 7.036L10.0656 7.30789L12.8222 8.71476L9.7282 8.78627L9.13026 8.80009L9.24984 9.38611L9.86861 12.4185L7.88361 10.0441L7.5 9.58519L7.11639 10.0441L5.13139 12.4185L5.75016 9.38611L5.86974 8.80009L5.27181 8.78627L2.17778 8.71476L4.93437 7.30789L5.46709 7.036L5.10509 6.55991L3.23191 4.09631L6.05056 5.37433L6.59527 5.62131L6.7418 5.04145L7.5 2.04091L8.2582 5.04145Z" stroke="#A267F2"/>
</svg>
