<svg width="15" height="15" viewBox="0 0 15 15" fill="none" xmlns="http://www.w3.org/2000/svg">
<path d="M7.5 0L8.74297 4.91895L13.3637 2.82383L10.2929 6.86253L14.812 9.16891L9.73975 9.28614L10.7541 14.2573L7.5 10.3647L4.24587 14.2573L5.26025 9.28614L0.188041 9.16891L4.70708 6.86253L1.63626 2.82383L6.25703 4.91895L7.5 0Z" fill="white"/>
</svg>
