<svg width="48" height="48" viewBox="0 0 48 48" fill="none" xmlns="http://www.w3.org/2000/svg">
<style>
    #animate1{
        display: block;
        animation: animate 1s ease infinite alternate-reverse;
        transform-origin: 5px 22px;
        width: 7.68px;
        height: 7.68px;
    }
    #animate2{
        display: block;
        animation: animate 1s ease infinite alternate-reverse 0.3s;
        transform-origin: 15px 9px;
        width: 3px;
        height: 3px;
    }
    #animate3{
        display: block;
        animation: animate 1s ease infinite alternate-reverse 0.6s;
        transform-origin: 27px 42px;
        width: 2px;
        height: 2px;
    }

    @keyframes animate{
        0%{ opacity: 0; transform: scale(0%); }
        100%{ opacity: 1; transform: scale(100%); }
    }
</style>
    <g id="const">
    <path id="Star 8" d="M35.421 28.5112L35.5601 27.9608L35.6991 28.5112L36.2161 28.2768L35.8725 28.7286L36.3781 28.9866L35.8106 28.9998L35.9241 29.5559L35.5601 29.1204L35.196 29.5559L35.3095 28.9998L34.742 28.9866L35.2476 28.7286L34.904 28.2768L35.421 28.5112Z" stroke="white"/>
    <path id="Star 7" d="M26.44 19.2002L27.4099 22.1852L30.5486 22.1852L28.0093 24.0301L28.9792 27.0151L26.44 25.1703L23.9008 27.0151L24.8707 24.0301L22.3314 22.1852L25.4701 22.1852L26.44 19.2002Z" fill="white"/>
    <path id="Star 9" d="M7.24 41.2798L7.99437 43.6015H10.4356L8.4606 45.0364L9.21496 47.3581L7.24 45.9232L5.26505 47.3581L6.01941 45.0364L4.04446 43.6015H6.48564L7.24 41.2798Z" fill="white"/>
    <path id="Star 6" d="M38.92 0L39.5411 6.57888L46.12 7.2L39.5411 7.82112L38.92 14.4L38.2988 7.82112L31.72 7.2L38.2988 6.57888L38.92 0Z" fill="white"/>
    <circle id="Ellipse 30" cx="9.64005" cy="34.5601" r="0.96" fill="white"/>
    <circle id="Ellipse 31" cx="18.7599" cy="29.2798" r="1.44" fill="white"/>
    <circle id="Ellipse 32" cx="44.2" cy="19.2002" r="0.96" fill="white"/>
    </g>
    <path id="animate1" d="M4.84 18.2402L5.17127 21.749L8.68 22.0802L5.17127 22.4115L4.84 25.9202L4.50873 22.4115L1 22.0802L4.50873 21.749L4.84 18.2402Z" fill="white"/>
    <circle id="animate3" cx="26" cy="41" r="1.5" fill="white"/>
    <circle id="animate2" cx="15" cy="9" r="2" fill="white"/>
</svg>
