<svg width="59" height="51" viewBox="0 0 59 51" fill="none" xmlns="http://www.w3.org/2000/svg">
<path fill-rule="evenodd" clip-rule="evenodd" d="M4.05124 0L4.9608 2.79934H7.9042L5.52294 4.52943L6.4325 7.32878L4.05124 5.59869L1.66997 7.32878L2.57954 4.52943L0.198273 2.79934H3.14168L4.05124 0ZM52.6006 34.4506L53.1163 32.4097L53.6321 34.4506L53.7626 34.9673L54.0116 35.9524L54.937 35.5328L55.4223 35.3127L57.3395 34.4435L56.0654 36.1191L55.7429 36.5434L55.1279 37.3522L56.0329 37.8141L56.5076 38.0564L58.3826 39.0133L56.2781 39.062L55.7453 39.0743L54.7295 39.0977L54.9326 40.0933L55.0392 40.6155L55.46 42.6781L54.1099 41.063L53.7681 40.6541L53.1163 39.8746L52.4646 40.6541L52.1228 41.063L50.7727 42.6781L51.1935 40.6155L51.3001 40.0933L51.5032 39.0977L50.4874 39.0743L49.9546 39.062L47.8501 39.0133L49.7251 38.0564L50.1998 37.8141L51.1048 37.3522L50.4898 36.5434L50.1673 36.1191L48.8932 34.4435L50.8103 35.3127L51.2957 35.5328L52.2211 35.9524L52.4701 34.9673L52.6006 34.4506ZM51.8296 38.105L52.7222 38.1257L52.5437 39.0005L53.1163 38.3155L53.689 39.0005L53.5105 38.1257L54.4031 38.105L53.6078 37.6992L54.1482 36.9884L53.3351 37.3571L53.1163 36.4915L52.8976 37.3571L52.0844 36.9884L52.6248 37.6992L51.8296 38.105ZM17.7116 18.9717L17.1052 17.1055L16.4989 18.9717H14.5366L16.1241 20.1251L15.5177 21.9913L17.1052 20.8379L18.6928 21.9913L18.0864 20.1251L19.6739 18.9717H17.7116ZM20.2562 20.7065L20.8387 26.8761L27.0083 27.4586L20.8387 28.0411L20.2562 34.2107L19.6737 28.0411L13.5041 27.4586L19.6737 26.8761L20.2562 20.7065ZM18.0055 50.4158C18.5027 50.4158 18.9058 50.0127 18.9058 49.5155C18.9058 49.0183 18.5027 48.6152 18.0055 48.6152C17.5083 48.6152 17.1052 49.0183 17.1052 49.5155C17.1052 50.0127 17.5083 50.4158 18.0055 50.4158Z" fill="#161415"/>
</svg>
