<svg width="81" height="43" viewBox="0 0 81 43" fill="none" xmlns="http://www.w3.org/2000/svg">
<path fill-rule="evenodd" clip-rule="evenodd" d="M4.54178 -0.575634L5.55209 2.53379H8.82153L6.1765 4.45552L7.18681 7.56494L4.54178 5.64322L1.89674 7.56494L2.90706 4.45552L0.262024 2.53379H3.53147L4.54178 -0.575634ZM18.6077 25.7084L18.9007 26.8682L19.9902 26.3742L21.0067 25.9133L20.3312 26.8018L19.6072 27.754L20.6726 28.2977L21.6667 28.8051L20.5509 28.8309L19.355 28.8585L19.5942 30.0306L19.8174 31.1242L19.1015 30.2678L18.3343 29.3501L17.567 30.2678L16.8512 31.1242L17.0743 30.0306L17.3135 28.8585L16.1176 28.8309L15.0018 28.8051L15.9959 28.2977L17.0614 27.754L16.3374 26.8018L15.6618 25.9133L16.6783 26.3742L17.7678 26.8682L18.0608 25.7084L18.3343 24.6263L18.6077 25.7084ZM24.198 23.3683L22.2808 24.2376L20.5026 25.0438L19.5772 25.4634L19.3283 24.4783L18.85 22.5854L18.3343 20.5445L17.8185 22.5854L17.3402 24.4783L17.0913 25.4634L16.1659 25.0438L14.3877 24.2376L12.4705 23.3683L13.7446 25.044L14.9263 26.5982L15.5413 27.407L14.6363 27.8689L12.8973 28.7565L11.0223 29.7134L13.1268 29.762L15.0787 29.8071L16.0945 29.8306L15.8914 30.8262L15.501 32.7392L15.0801 34.8017L16.4303 33.1867L17.6826 31.6888L18.3343 30.9092L18.986 31.6888L20.2382 33.1867L21.5884 34.8017L21.1675 32.7392L20.7772 30.8262L20.574 29.8306L21.5898 29.8071L23.5417 29.762L25.6462 29.7134L23.7712 28.7565L22.0322 27.8689L21.1272 27.407L21.7422 26.5982L22.9239 25.044L24.198 23.3683ZM74.6655 30.7485L74.0784 29.9763L73.465 29.1696L74.3879 29.5881L75.2715 29.9887L75.3133 30.0077L75.3246 29.9631L75.5623 29.0225L75.8105 28.0401L76.0588 29.0225L76.2964 29.9631L76.3077 30.0077L76.3496 29.9887L77.2331 29.5881L78.156 29.1696L77.5427 29.9763L76.9555 30.7485L76.9277 30.7851L76.9686 30.806L77.8327 31.247L78.7353 31.7077L77.7222 31.7311L76.7524 31.7535L76.7064 31.7545L76.7156 31.7996L76.9096 32.7501L77.1122 33.743L76.4622 32.9655L75.84 32.2212L75.8105 32.186L75.781 32.2212L75.1588 32.9655L74.5089 33.743L74.7115 32.7501L74.9054 31.7996L74.9146 31.7545L74.8687 31.7535L73.8988 31.7311L72.8857 31.7077L73.7883 31.247L74.6524 30.806L74.6934 30.7851L74.6655 30.7485ZM62.2567 37.0245L61.2464 33.9151L60.2361 37.0245H56.9666L59.6117 38.9462L58.6014 42.0557L61.2464 40.1339L63.8914 42.0557L62.8811 38.9462L65.5262 37.0245H62.2567ZM58.4103 11.8897L59.0573 18.7427L65.9103 19.3897L59.0573 20.0367L58.4103 26.8897L57.7633 20.0367L50.9103 19.3897L57.7633 18.7427L58.4103 11.8897ZM79.5606 24.0231C80.0841 24.1991 80.6511 23.9175 80.8272 23.394C81.0032 22.8705 80.7216 22.3034 80.1981 22.1274C79.6746 21.9514 79.1075 22.233 78.9315 22.7565C78.7555 23.28 79.0371 23.847 79.5606 24.0231ZM9.82979 22.7817C9.65375 23.3052 9.08668 23.5868 8.56321 23.4108C8.03973 23.2347 7.75808 22.6677 7.93412 22.1442C8.11016 21.6207 8.67723 21.339 9.20071 21.5151C9.72418 21.6911 10.0058 22.2582 9.82979 22.7817ZM17.7267 4.48938C18.2501 4.66542 18.8172 4.38377 18.9932 3.86029C19.1693 3.33681 18.8876 2.76974 18.3642 2.5937C17.8407 2.41766 17.2736 2.69931 17.0976 3.22279C16.9215 3.74627 17.2032 4.31334 17.7267 4.48938Z" fill="white"/>
</svg>
