<svg width="428" height="293" viewBox="0 0 428 293" fill="none" xmlns="http://www.w3.org/2000/svg">
    <style>
    #Star1{
       animation: twinkle 4s ease infinite alternate-reverse 1s;
       transform-origin: 61px 118px;
    }
    #Star2{
       animation: twinkle 4s ease infinite alternate-reverse 4s;
       transform-origin: 398px 83px;
    }
    @keyframes twinkle{
        0%{ transform: scale(0%) rotate(0); }
        20%{ transform: scale(100%) rotate(1turn); }
        100%{ transform: scale(100%) rotate(1turn); }
    }
    </style>

    <g id="orbit">
        <g id="orbitpath" filter="url(#filter0_b_1483_8681)">
            <path fill-rule="evenodd" clip-rule="evenodd" d="M401.769 96.1223L400.799 96.3665C400.72 96.0533 400.638 95.7405 400.553 95.4282C400.511 95.2724 400.467 95.117 400.423 94.9618C400.379 94.8058 400.334 94.6502 400.289 94.4948L401.248 94.2133C401.341 94.5294 401.431 94.8468 401.518 95.1653C401.605 95.4839 401.688 95.8029 401.769 96.1223ZM397.583 85.0816L396.694 85.5407C396.399 84.9694 396.093 84.403 395.776 83.8413L396.647 83.3496C396.97 83.9219 397.282 84.4993 397.583 85.0816ZM391.068 75.244L390.295 75.8789C389.886 75.3802 389.466 74.8861 389.037 74.3967L389.789 73.7373C390.225 74.2347 390.651 74.7369 391.068 75.244ZM382.766 66.8427L382.118 67.6038C381.622 67.1816 381.119 66.7637 380.607 66.3503L381.235 65.5724C381.754 65.9913 382.264 66.4148 382.766 66.8427ZM373.229 59.8626L372.695 60.7083C372.144 60.3605 371.586 60.0167 371.021 59.6768L371.537 58.8201C372.108 59.1635 372.671 59.5111 373.229 59.8626ZM362.876 54.1604L362.442 55.0617C361.852 54.7782 361.257 54.4982 360.656 54.2219L361.073 53.3133C361.68 53.592 362.28 53.8744 362.876 54.1604ZM351.985 49.5619L351.638 50.4999C351.027 50.2738 350.41 50.051 349.79 49.8315L350.123 48.8887C350.748 49.1098 351.369 49.3342 351.985 49.5619ZM340.728 45.9095L340.456 46.8718C339.833 46.6956 339.206 46.5223 338.575 46.3521L338.836 45.3867C339.47 45.558 340.101 45.7323 340.728 45.9095ZM329.24 43.082L329.032 44.0603C328.395 43.9253 327.754 43.793 327.11 43.6635L327.307 42.6831C327.954 42.8133 328.598 42.9463 329.24 43.082ZM317.613 40.9792L317.463 41.9679C316.818 41.8701 316.17 41.7749 315.519 41.6823L315.66 40.6922C316.313 40.7852 316.964 40.8809 317.613 40.9792ZM305.858 39.5141L305.76 40.5092C305.113 40.4453 304.464 40.3838 303.813 40.3247L303.903 39.3288C304.557 39.3881 305.209 39.4499 305.858 39.5141ZM294.08 38.6313L294.028 39.63C293.376 39.5961 292.722 39.5647 292.066 39.5355L292.11 38.5365C292.769 38.5658 293.425 38.5974 294.08 38.6313ZM282.25 38.2755L282.241 39.2755C281.584 39.2696 280.924 39.266 280.263 39.2647L280.265 38.2647C280.929 38.2661 281.59 38.2697 282.25 38.2755ZM270.419 38.4086L270.45 39.4081C269.8 39.4282 269.148 39.4504 268.495 39.4748L268.458 38.4755C269.113 38.4511 269.767 38.4287 270.419 38.4086ZM258.616 38.9967L258.684 39.9944C258.03 40.0391 257.376 40.0859 256.72 40.1347L256.646 39.1374C257.304 39.0885 257.96 39.0416 258.616 38.9967ZM246.825 40.0153L246.928 41.0099C246.273 41.0781 245.618 41.1483 244.961 41.2205L244.851 40.2265C245.51 40.1541 246.168 40.0836 246.825 40.0153ZM235.073 41.4423L235.21 42.4329C234.566 42.5222 233.92 42.6134 233.274 42.7066L233.132 41.7168C233.78 41.6234 234.427 41.5319 235.073 41.4423ZM223.396 43.2564L223.566 44.2419C222.922 44.3526 222.277 44.4653 221.632 44.5799L221.457 43.5953C222.104 43.4804 222.751 43.3674 223.396 43.2564ZM211.775 45.4467L211.976 46.4263C211.334 46.5579 210.691 46.6913 210.048 46.8266L209.842 45.848C210.487 45.7124 211.131 45.5786 211.775 45.4467ZM200.223 48.0013L200.454 48.9743C199.814 49.1261 199.174 49.2797 198.534 49.4352L198.298 48.4634C198.94 48.3076 199.582 48.1535 200.223 48.0013ZM188.75 50.9102L189.011 51.8757C188.693 51.9615 188.375 52.0477 188.057 52.1344C187.739 52.221 187.421 52.3081 187.103 52.3955L186.838 51.4313C187.156 51.3437 187.475 51.2564 187.794 51.1695C188.113 51.0826 188.432 50.9962 188.75 50.9102ZM177.369 54.1662L177.658 55.1233C177.028 55.3141 176.398 55.5064 175.77 55.7L175.476 54.7443C176.105 54.5502 176.736 54.3575 177.369 54.1662ZM166.094 57.7684L166.413 58.7161C165.79 58.9259 165.168 59.137 164.548 59.3493L164.224 58.4033C164.846 58.1903 165.469 57.9787 166.094 57.7684ZM154.941 61.7194L155.29 62.6566C154.676 62.8852 154.063 63.1151 153.452 63.3463L153.098 62.411C153.711 62.1792 154.325 61.9486 154.941 61.7194ZM143.927 66.0228L144.307 66.9482C143.702 67.1957 143.1 67.4444 142.499 67.6944L142.115 66.7712C142.718 66.5205 143.322 66.271 143.927 66.0228ZM133.072 70.6838L133.482 71.5959C132.879 71.8669 132.278 72.1391 131.679 72.4125L131.264 71.5028C131.865 71.2286 132.467 70.9556 133.072 70.6838ZM122.355 75.7285L122.797 76.6256C122.207 76.9162 121.619 77.2079 121.033 77.5009L120.586 76.6065C121.174 76.3126 121.763 76.02 122.355 75.7285ZM111.84 81.1502L112.315 82.0303C111.74 82.3406 111.167 82.652 110.596 82.9645L110.116 82.0875C110.688 81.7739 111.263 81.4615 111.84 81.1502ZM101.558 86.9583L102.067 87.8191C101.498 88.1555 100.931 88.4931 100.367 88.8318L99.8525 87.9746C100.418 87.6347 100.987 87.2959 101.558 86.9583ZM91.4877 93.2014L92.0327 94.0398C91.4824 94.3976 90.9348 94.7565 90.39 95.1164L89.8388 94.282C90.3856 93.9208 90.9352 93.5605 91.4877 93.2014ZM81.7269 99.8665L82.31 100.679C81.7788 101.06 81.2507 101.442 80.7258 101.826L80.1362 101.018C80.6633 100.633 81.1935 100.249 81.7269 99.8665ZM72.287 107.005L72.9106 107.787C72.3969 108.197 71.8867 108.608 71.3801 109.02L70.7494 108.244C71.2584 107.83 71.7709 107.417 72.287 107.005ZM63.2599 114.63L63.9272 115.374C63.4378 115.813 62.9526 116.252 62.4714 116.692L61.7966 115.954C62.2803 115.512 62.7681 115.07 63.2599 114.63ZM54.6956 122.808L55.4101 123.508C54.9531 123.974 54.5009 124.442 54.0533 124.91L53.3307 124.218C53.781 123.748 54.236 123.278 54.6956 122.808ZM46.7451 131.552L47.5107 132.195C47.0873 132.699 46.6693 133.204 46.257 133.709L45.4824 133.077C45.8977 132.568 46.3186 132.06 46.7451 131.552ZM39.5532 140.92L40.3741 141.491C39.9962 142.034 39.6249 142.577 39.2603 143.121L38.4298 142.564C38.7976 142.016 39.1721 141.468 39.5532 140.92ZM33.3293 150.974L34.2084 151.45C33.8942 152.03 33.5879 152.609 33.2894 153.188L32.4005 152.73C32.7022 152.145 33.0119 151.559 33.3293 150.974ZM28.3969 161.713L29.3331 162.064C29.1018 162.68 28.8798 163.296 28.6671 163.911L27.722 163.584C27.9376 162.96 28.1626 162.337 28.3969 161.713ZM25.168 173.088L26.1504 173.275C26.0288 173.914 25.9178 174.553 25.8176 175.19L24.8297 175.035C24.9316 174.387 25.0444 173.738 25.168 173.088ZM24.1341 184.85L25.134 184.832C25.1455 185.477 25.169 186.121 25.2044 186.763L24.2059 186.818C24.1698 186.163 24.1459 185.508 24.1341 184.85ZM25.6794 196.547C25.7598 196.866 25.8434 197.185 25.9302 197.504C26.017 197.823 26.1068 198.14 26.1996 198.456L27.1591 198.174C27.0682 197.865 26.9801 197.553 26.895 197.241C26.81 196.929 26.728 196.616 26.6491 196.303L25.6794 196.547ZM29.8652 207.588L30.7535 207.129C31.0488 207.7 31.355 208.266 31.6722 208.828L30.8014 209.32C30.4782 208.747 30.1661 208.17 29.8652 207.588ZM36.38 217.425L37.1526 216.79C37.5624 217.289 37.982 217.783 38.4113 218.273L37.6595 218.932C37.2233 218.435 36.7967 217.932 36.38 217.425ZM44.6816 225.827L45.3303 225.066C45.8256 225.488 46.3292 225.906 46.841 226.319L46.2126 227.097C45.6941 226.678 45.1837 226.255 44.6816 225.827ZM54.2194 232.807L54.7531 231.961C55.3042 232.309 55.8621 232.653 56.4266 232.992L55.9109 233.849C55.3404 233.506 54.7765 233.158 54.2194 232.807ZM64.5724 238.509L65.0055 237.608C65.5956 237.891 66.1912 238.171 66.7924 238.447L66.3747 239.356C65.7684 239.077 65.1676 238.795 64.5724 238.509ZM75.4631 243.107L75.8099 242.169C76.4214 242.395 77.0375 242.618 77.6581 242.838L77.3246 243.781C76.6997 243.559 76.0791 243.335 75.4631 243.107ZM86.7203 246.76C87.3471 246.937 87.9777 247.111 88.6119 247.283L88.8727 246.317C88.2422 246.147 87.6155 245.974 86.9924 245.797L86.7203 246.76ZM98.2085 249.587L98.4157 248.609C99.0535 248.744 99.6944 248.876 100.338 249.006L100.141 249.986C99.494 249.856 98.8497 249.723 98.2085 249.587ZM109.835 251.69L109.985 250.701C110.63 250.799 111.278 250.894 111.929 250.987L111.788 251.977C111.135 251.884 110.484 251.788 109.835 251.69ZM121.59 253.155L121.688 252.16C122.335 252.224 122.984 252.286 123.635 252.345L123.545 253.34C122.891 253.281 122.239 253.219 121.59 253.155ZM133.368 254.038L133.42 253.039C134.072 253.073 134.726 253.105 135.382 253.134L135.338 254.133C134.679 254.104 134.023 254.072 133.368 254.038ZM145.198 254.394L145.207 253.394C145.864 253.4 146.524 253.403 147.185 253.405L147.183 254.405C146.519 254.403 145.858 254.4 145.198 254.394ZM157.029 254.261L156.998 253.261C157.648 253.241 158.3 253.219 158.953 253.194L158.99 254.194C158.335 254.218 157.681 254.241 157.029 254.261ZM168.832 253.673L168.764 252.675C169.418 252.63 170.072 252.583 170.728 252.535L170.802 253.532C170.144 253.581 169.488 253.628 168.832 253.673ZM180.623 252.654L180.52 251.659C181.175 251.591 181.83 251.521 182.487 251.449L182.597 252.443C181.938 252.515 181.28 252.586 180.623 252.654ZM192.375 251.227L192.238 250.236C192.882 250.147 193.528 250.056 194.174 249.963L194.316 250.952C193.668 251.046 193.021 251.137 192.375 251.227ZM204.052 249.413L203.882 248.427C204.526 248.317 205.171 248.204 205.816 248.089L205.991 249.074C205.344 249.189 204.697 249.302 204.052 249.413ZM215.673 247.223L215.472 246.243C216.114 246.111 216.757 245.978 217.4 245.843L217.606 246.821C216.961 246.957 216.317 247.091 215.673 247.223ZM227.225 244.668L226.994 243.695C227.634 243.543 228.274 243.39 228.914 243.234L229.15 244.206C228.508 244.362 227.866 244.516 227.225 244.668ZM238.698 241.759L238.437 240.794C238.755 240.708 239.073 240.622 239.391 240.535C239.709 240.448 240.027 240.361 240.345 240.274L240.61 241.238C240.292 241.326 239.973 241.413 239.654 241.5C239.335 241.587 239.016 241.673 238.698 241.759ZM250.079 238.503L249.79 237.546C250.42 237.355 251.05 237.163 251.678 236.969L251.972 237.925C251.343 238.119 250.712 238.312 250.079 238.503ZM261.354 234.901L261.035 233.953C261.658 233.743 262.28 233.532 262.9 233.32L263.224 234.266C262.602 234.479 261.979 234.691 261.354 234.901ZM272.507 230.95L272.158 230.013C272.772 229.784 273.385 229.554 273.996 229.323L274.35 230.258C273.737 230.49 273.123 230.721 272.507 230.95ZM283.521 226.646L283.141 225.721C283.746 225.474 284.348 225.225 284.949 224.975L285.333 225.898C284.73 226.149 284.126 226.398 283.521 226.646ZM294.376 221.985L293.966 221.073C294.569 220.802 295.17 220.53 295.769 220.257L296.184 221.166C295.583 221.441 294.981 221.714 294.376 221.985ZM305.093 216.941L304.651 216.044C305.241 215.753 305.829 215.461 306.415 215.168L306.862 216.063C306.274 216.357 305.685 216.649 305.093 216.941ZM315.608 211.519L315.133 210.639C315.708 210.329 316.281 210.017 316.852 209.705L317.332 210.582C316.76 210.895 316.185 211.208 315.608 211.519ZM325.89 205.711L325.381 204.85C325.95 204.514 326.517 204.176 327.081 203.837L327.596 204.695C327.03 205.035 326.461 205.373 325.89 205.711ZM335.96 199.468L335.415 198.629C335.966 198.272 336.513 197.913 337.058 197.553L337.609 198.387C337.062 198.749 336.513 199.109 335.96 199.468ZM345.721 192.803L345.138 191.99C345.669 191.609 346.197 191.227 346.722 190.844L347.312 191.651C346.785 192.036 346.254 192.42 345.721 192.803ZM355.161 185.664L354.537 184.882C355.051 184.472 355.561 184.061 356.068 183.65L356.699 184.426C356.19 184.839 355.677 185.252 355.161 185.664ZM364.188 178.04L363.521 177.295C364.01 176.857 364.495 176.417 364.977 175.977L365.651 176.715C365.168 177.158 364.68 177.599 364.188 178.04ZM372.752 169.861L372.038 169.161C372.495 168.695 372.947 168.228 373.395 167.76L374.117 168.451C373.667 168.922 373.212 169.392 372.752 169.861ZM380.703 161.117L379.937 160.474C380.361 159.97 380.779 159.465 381.191 158.96L381.966 159.593C381.55 160.101 381.129 160.61 380.703 161.117ZM387.895 151.749L387.074 151.178C387.452 150.635 387.823 150.092 388.188 149.548L389.018 150.105C388.65 150.654 388.276 151.202 387.895 151.749ZM394.119 141.696L393.24 141.219C393.554 140.64 393.86 140.06 394.159 139.481L395.048 139.939C394.746 140.525 394.436 141.11 394.119 141.696ZM399.051 130.957L398.115 130.605C398.346 129.989 398.568 129.374 398.781 128.759L399.726 129.085C399.51 129.709 399.285 130.333 399.051 130.957ZM402.28 119.582L401.298 119.395C401.419 118.755 401.53 118.117 401.63 117.479L402.618 117.634C402.516 118.282 402.404 118.932 402.28 119.582ZM403.314 107.819L402.314 107.837C402.302 107.192 402.279 106.548 402.244 105.906L403.242 105.851C403.278 106.506 403.302 107.162 403.314 107.819Z" fill="url(#paint0_linear_1483_8681)"/>
        </g>
        <path id="Star2" d="M397.536 73.8325L400.088 80.2806L406.536 82.8325L400.088 85.3845L397.536 91.8325L394.984 85.3845L388.536 82.8325L394.984 80.2806L397.536 73.8325Z" fill="#FECBBD"/>
        <path id="Star1" d="M60.5358 108.833L63.0877 115.281L69.5358 117.833L63.0877 120.384L60.5358 126.833L57.9838 120.384L51.5358 117.833L57.9838 115.281L60.5358 108.833Z" fill="#FECBBD"/>
    </g>
    <defs>
        <filter id="filter0_b_1483_8681" x="8.13412" y="22.2646" width="411.18" height="248.14" filterUnits="userSpaceOnUse" color-interpolation-filters="sRGB">
            <feFlood flood-opacity="0" result="BackgroundImageFix"/>
            <feGaussianBlur in="BackgroundImageFix" stdDeviation="8"/>
            <feComposite in2="SourceAlpha" operator="in" result="effect1_backgroundBlur_1483_8681"/>
            <feBlend mode="normal" in="SourceGraphic" in2="effect1_backgroundBlur_1483_8681" result="shape"/>
        </filter>
        <linearGradient id="paint0_linear_1483_8681" x1="177.302" y1="47.7722" x2="222.81" y2="210.477" gradientUnits="userSpaceOnUse">
            <stop offset="0.0864582" stop-color="#FEC6B5"/>
            <stop offset="0.607292" stop-color="#F9AC96"/>
            <stop offset="1" stop-color="#FECCBE" stop-opacity="0"/>
        </linearGradient>
    </defs>
</svg>
