<svg width="208" height="40" viewBox="0 0 208 40" fill="none" xmlns="http://www.w3.org/2000/svg">
<path d="M2 34V26H6V34H2ZM2 6V2H6V6H2ZM6 38V34H30V38H6ZM6 10V6H10V10H6ZM10 14V10H14V14H10ZM26 22V14H30V22H26ZM34 22V14H38V22H34ZM6 22H10V26H6V22ZM10 18H14V22H10V18ZM18 18H14V14H18V18ZM18 10H22V14H18V10ZM22 6H30V10H22V6Z" fill="#ACC79A"/>
<path d="M42 34V2H46V34H42ZM46 38V34H62V38H46ZM54 14V6H58V14H54ZM62 14V6H66V14H62ZM66 34H62V22H66V34Z" fill="#ACC79A"/>
<path d="M70 38V22H74V30H78V34H74V38H70ZM86 34V30H90V34H86ZM90 38V34H98V38H90ZM78 22H74V10H78V22ZM78 26H86V30H78V26ZM82 10H78V2H82V10ZM102 34H98V26H102V34Z" fill="#ACC79A"/>
<path d="M106 10V6H118V2H122V6H138V38H130V34H134V10H122V14H118V10H106ZM110 30V22H114V30H110ZM118 22H114V14H118V22Z" fill="#ACC79A"/>
<path d="M142 6V2H174V18H170V6H142ZM146 38V34H158V38H146ZM158 30H162V34H158V30ZM162 26H166V30H162V26ZM170 26H166V18H170V26Z" fill="#ACC79A"/>
<path d="M178 34V30H190V18H182V14H202V18H194V30H206V34H178Z" fill="#ACC79A"/>
<path fill-rule="evenodd" clip-rule="evenodd" d="M0 36V24H4V20H8V12H4V8H0V0H8V4H12V8H20V4H32V12H40V0H48V32H60V20H72V8H76V0H84V12H80V24H88V28H92V32H96V24H104V36H100V40H88V36H84V32H80V36H76V40H68V36H64V40H44V36H40V24H24V16H20V20H16V24H12V28H8V32H32V40H4V36H0ZM6 34V38H30V34H6V26H10V22H14V18H18V14H22V10H30V6H22V10H18V14H14V10H10V6H6V2H2V6H6V10H10V14H14V18H10V22H6V26H2V34H6ZM46 34V38H62V34H66V22H62V34H46V2H42V34H46ZM74 34H78V30H86V34H90V38H98V34H102V26H98V34H90V30H86V26H78V30H74V22H78V10H82V2H78V10H74V22H70V38H74V34ZM52 16V4H68V16H52ZM104 12V4H116V0H124V4H140V0H176V20H172V28H168V32H164V36H160V40H144V32H156V28H160V24H164V16H168V8H140V40H128V32H132V12H124V16H120V24H116V32H108V20H112V12H104ZM114 22H110V30H114V22H118V14H122V10H134V34H130V38H138V6H122V2H118V6H106V10H118V14H114V22ZM170 6V18H166V26H162V30H158V34H146V38H158V34H162V30H166V26H170V18H174V2H142V6H170ZM176 36V28H188V20H180V12H204V20H196V28H208V36H176ZM194 30V18H202V14H182V18H190V30H178V34H206V30H194ZM26 22H30V14H26V22ZM34 22H38V14H34V22ZM54 14H58V6H54V14ZM62 14H66V6H62V14Z" fill="white"/>
</svg>
