<svg width="115" height="18" viewBox="0 0 115 18" fill="none" xmlns="http://www.w3.org/2000/svg">
<path fill-rule="evenodd" clip-rule="evenodd" d="M3.58615 4.45528C4.48352 3.29166 6.02484 2.87096 7.44334 3.18908C8.84535 3.50349 10.0023 4.50894 10.2179 6.08595C10.3526 7.07137 10.0547 7.76774 9.53949 8.26121C8.99759 8.78022 8.15416 9.12865 7.14301 9.24071C5.08992 9.46825 2.73981 8.68989 1.61228 7.09662C1.42359 6.82999 1.08403 6.71615 0.772752 6.81515C0.461475 6.91415 0.25007 7.20323 0.25007 7.52987L0.250054 7.66797C0.249534 10.6496 0.248949 13.9991 2.43541 16.4223C2.7129 16.7298 3.18715 16.7541 3.49468 16.4767C3.80221 16.1992 3.82657 15.7249 3.54908 15.4174C2.13045 13.8452 1.83006 11.7483 1.76681 9.34078C3.3594 10.4893 5.4841 10.9337 7.30824 10.7316C8.53829 10.5953 9.72854 10.1571 10.577 9.34451C11.4522 8.50635 11.9014 7.32602 11.704 5.88277C11.3884 3.5739 9.66773 2.15066 7.77158 1.72543C5.89191 1.30389 3.7145 1.83259 2.39834 3.53925C2.14539 3.86725 2.20623 4.33821 2.53423 4.59117C2.86224 4.84412 3.3332 4.78328 3.58615 4.45528ZM12.7765 11.4114C13.0913 11.1422 13.1283 10.6688 12.8592 10.354C12.59 10.0391 12.1166 10.0021 11.8017 10.2713C11.2015 10.7845 10.3697 12.1341 10.0876 14.3327C7.16714 12.0134 4.45438 11.9199 3.19836 12.3375C2.8053 12.4682 2.5926 12.8928 2.72329 13.2858C2.85397 13.6789 3.27855 13.8916 3.67161 13.7609C4.46089 13.4985 7.18435 13.4326 10.21 16.4505C10.4246 16.6646 10.7471 16.7284 11.0271 16.6122C11.3071 16.496 11.4896 16.2226 11.4896 15.9195C11.4896 13.0602 12.4768 11.6676 12.7765 11.4114Z" fill="white"/>
<path fill-rule="evenodd" clip-rule="evenodd" d="M20.4935 3.89809C19.7793 2.3269 18.0556 1.55608 16.4737 1.58837C14.8561 1.62138 13.1707 2.49912 12.6136 4.44902C12.4145 5.14591 12.3653 5.77585 12.4737 6.35422C12.5832 6.93839 12.8441 7.41935 13.1873 7.82775C13.523 8.22726 13.9382 8.55807 14.3607 8.85352C14.6481 9.05451 14.9671 9.25779 15.2818 9.45832C15.4211 9.54707 15.5596 9.63529 15.694 9.72253C16.6019 10.3115 17.4881 10.9553 18.1835 11.9108C18.8696 12.8535 19.4038 14.1485 19.5084 16.0843C19.5294 16.4721 19.8429 16.7797 20.231 16.7934C20.6191 16.807 20.9534 16.5222 21.0016 16.1369C21.1219 15.1742 21.1184 13.4996 21.0343 11.8739C20.9821 10.8655 20.8969 9.83422 20.7817 8.96529C21.1503 9.1607 21.5501 9.4144 21.9158 9.71964C22.7573 10.422 23.187 11.191 23.0158 11.9616C22.9259 12.3659 23.1809 12.7666 23.5852 12.8564C23.9896 12.9463 24.3902 12.6913 24.4801 12.287C24.8379 10.6769 23.8572 9.38618 22.877 8.56804C21.8845 7.73964 20.656 7.18558 19.9578 7.04594C19.7057 6.99552 19.4453 7.07774 19.2679 7.26381C19.0905 7.44988 19.0208 7.71386 19.0831 7.96328C19.2536 8.64509 19.3969 9.8414 19.4883 11.1573C19.4579 11.1137 19.4273 11.0707 19.3963 11.0281C18.5325 9.84125 17.4528 9.07545 16.5104 8.46412C16.3511 8.36078 16.1994 8.26416 16.0538 8.17143L16.0537 8.17139C15.7544 7.98075 15.481 7.80656 15.2203 7.62429C14.8408 7.35886 14.5482 7.11569 14.3356 6.86273C14.1305 6.61865 14.0026 6.36862 13.9481 6.07787C13.8925 5.78132 13.9041 5.39242 14.0559 4.86111C14.392 3.68466 15.3864 3.11087 16.5043 3.08806C17.658 3.06451 18.7256 3.63355 19.128 4.51878C19.2993 4.89587 19.744 5.06261 20.1211 4.89122C20.4982 4.71982 20.6649 4.27518 20.4935 3.89809ZM15.1213 12.2474C14.4513 12.9174 14.0047 13.5873 15.3446 14.0339C16.6844 14.4805 17.131 13.364 16.4611 12.694C16.3054 12.5383 16.1859 12.3947 16.0858 12.2743C15.755 11.8768 15.6355 11.7332 15.1213 12.2474Z" fill="white"/>
<path fill-rule="evenodd" clip-rule="evenodd" d="M25.9928 1.09915C25.9567 0.810509 25.757 0.568764 25.4804 0.478878C25.2037 0.388992 24.9 0.467176 24.7012 0.679484C23.2134 2.268 22.9762 4.33273 22.9872 6.29807C22.9907 6.9348 23.022 7.60065 23.0525 8.24959C23.0688 8.59481 23.0848 8.93524 23.0963 9.26397C23.1303 10.2375 23.1281 11.1594 23.0055 12.0179C22.9469 12.4279 23.2318 12.8078 23.6419 12.8664C24.0519 12.925 24.4318 12.6401 24.4904 12.23C24.6323 11.2369 24.6302 10.2081 24.5953 9.2116C24.5825 8.84258 24.5655 8.48368 24.5488 8.13089L24.5488 8.13089C24.5192 7.50537 24.4906 6.89908 24.4872 6.28967C24.4796 4.93925 24.6041 3.7632 25.0655 2.78477C25.2158 3.01112 25.3841 3.2111 25.5572 3.38494C26.0386 3.86856 26.5847 4.17996 26.975 4.32633C27.3629 4.47178 27.7952 4.27527 27.9406 3.88743C28.086 3.49959 27.8895 3.06728 27.5017 2.92184C27.3025 2.84714 26.9421 2.65004 26.6203 2.32671C26.3051 2.01009 26.0558 1.60308 25.9928 1.09915ZM30.0415 4.27526C30.279 3.93593 30.1965 3.46828 29.8571 3.23074C29.5178 2.99321 29.0502 3.07573 28.8126 3.41507C27.1607 5.77494 25.5385 9.54128 27.1572 15.3226C27.2291 15.5792 27.4317 15.7784 27.6894 15.8459C27.9472 15.9135 28.2214 15.8391 28.4098 15.6507C28.4092 15.6513 28.4096 15.651 28.411 15.65C28.4199 15.6431 28.4724 15.6027 28.5989 15.5413C28.7324 15.4765 28.9107 15.4064 29.1268 15.3385C29.5592 15.2026 30.1007 15.0887 30.6556 15.0383C31.2147 14.9875 31.7513 15.0043 32.1877 15.1051C32.6306 15.2073 32.8878 15.375 33.0173 15.5563C33.1873 15.7943 33.4802 15.9118 33.7675 15.8573C34.0549 15.8027 34.2843 15.5861 34.3552 15.3023C34.7298 13.8041 34.5407 12.3162 34.0476 11.0835C33.5598 9.86382 32.7455 8.82553 31.7889 8.2789C31.4292 8.07339 30.9711 8.19834 30.7656 8.55798C30.5601 8.91762 30.685 9.37576 31.0447 9.58126C31.6357 9.91897 32.2584 10.6493 32.6549 11.6405C32.9176 12.2972 33.0681 13.0382 33.0514 13.8037C32.878 13.7365 32.7007 13.684 32.525 13.6435C31.8837 13.4955 31.1767 13.4847 30.5198 13.5444C29.8587 13.6045 29.2119 13.7394 28.6771 13.9075C28.5724 13.9404 28.4703 13.9751 28.3719 14.0114C27.2978 9.26197 28.6828 6.21625 30.0415 4.27526Z" fill="white"/>
<path fill-rule="evenodd" clip-rule="evenodd" d="M49.9194 0.763206C50.1308 0.540196 50.4569 0.468724 50.7422 0.582853C52.1233 1.13529 53.1905 1.7883 53.9356 2.76111C54.3032 3.24095 54.5761 3.77723 54.7751 4.38027C54.9643 4.04133 55.1447 3.72366 55.3176 3.4323C55.7722 2.66637 56.2239 1.99632 56.7396 1.50282C57.275 0.990469 57.8952 0.65336 58.6621 0.586353C59.4008 0.521811 60.194 0.715672 61.075 1.09323C63.028 1.93021 64.3513 3.00318 65.1783 4.27939C66.0053 5.55572 66.2908 6.96553 66.2908 8.39536C66.2908 9.23909 65.9633 10.176 65.4378 10.9834C64.9083 11.7972 64.1325 12.5492 63.1586 12.9675C62.165 13.3943 60.9998 13.4566 59.7755 12.9278C58.9227 12.5595 58.0677 11.9166 57.2244 10.957C57.1975 11.4886 57.255 12.0103 57.4008 12.5207C57.685 13.5154 58.3206 14.5228 59.4263 15.5056C59.7359 15.7808 59.7638 16.2549 59.4886 16.5645C59.2134 16.8741 58.7393 16.9019 58.4297 16.6268C57.1548 15.4935 56.3356 14.2525 55.9585 12.9328C55.5808 11.6105 55.6628 10.2647 56.1004 8.95175C56.1907 8.68094 56.4269 8.48486 56.7096 8.44593C56.9924 8.407 57.2728 8.53197 57.4329 8.7683C58.5082 10.3558 59.5155 11.1817 60.3702 11.5508C61.2042 11.911 61.9401 11.8584 62.5666 11.5893C63.2128 11.3117 63.7762 10.7868 64.1806 10.1653C64.5892 9.53742 64.7908 8.88078 64.7908 8.39536C64.7908 7.16689 64.5472 6.06383 63.9195 5.09511C63.2916 4.12627 62.2343 3.22201 60.4842 2.47195C59.7117 2.14092 59.1823 2.04661 58.7927 2.08066C58.4312 2.11224 58.1174 2.26048 57.7767 2.58655C57.4162 2.93148 57.0497 3.45293 56.6075 4.19791C56.3294 4.66645 56.0404 5.18951 55.7135 5.78112C55.5193 6.13271 55.3117 6.5085 55.085 6.91144C54.924 7.19768 54.5955 7.34587 54.2744 7.27713C53.9532 7.20839 53.7142 6.93871 53.6844 6.61165C53.559 5.23166 53.2538 4.33772 52.7448 3.67322C52.4962 3.34861 52.183 3.05784 51.7815 2.78662C52.493 5.70782 51.8275 8.71361 50.5482 11.1428C50.847 12.7487 51.0055 14.7018 50.9308 17.1728C50.9182 17.5868 50.5725 17.9123 50.1584 17.8998C49.7444 17.8873 49.4189 17.5415 49.4314 17.1275C49.4787 15.5646 49.4288 14.2325 49.3106 13.0811C48.5788 14.0371 47.7467 14.8515 46.8744 15.4575C45.6448 16.3119 44.2519 16.8063 42.9235 16.5652C42.7022 16.5251 42.5106 16.3877 42.4015 16.191C42.2924 15.9942 42.2774 15.7589 42.3606 15.5499C43.4086 12.9171 43.194 11.8037 42.8455 11.3198C42.6687 11.0743 42.3942 10.8926 41.9971 10.7573C41.5924 10.6193 41.1172 10.548 40.5927 10.4888C40.1811 10.4423 39.8851 10.071 39.9316 9.65941C39.9781 9.24781 40.3494 8.95181 40.761 8.99828C41.2946 9.05852 41.9104 9.14293 42.4811 9.33749C43.0593 9.53461 43.6444 9.86227 44.0628 10.4433C44.7923 11.4565 44.8278 12.95 44.1294 15.0763C44.7102 14.9696 45.3515 14.6892 46.0185 14.2257C47.0582 13.5033 48.0801 12.3877 48.8941 11.0258C48.9193 10.9836 48.9443 10.9413 48.9691 10.8987C48.8714 10.4489 48.7623 10.0338 48.6451 9.6474C48.1882 8.14072 47.6056 7.05344 47.038 5.99437C46.9491 5.82831 46.8604 5.66294 46.7727 5.49676C46.2829 4.56863 45.4909 4.19336 44.6268 4.1498C43.7266 4.10441 42.7872 4.429 42.1802 4.87712C41.847 5.12314 41.3774 5.05243 41.1314 4.71919C40.8854 4.38595 40.9561 3.91637 41.2893 3.67035C42.1604 3.02724 43.4382 2.58797 44.7024 2.6517C46.0027 2.71726 47.3222 3.3241 48.0993 4.79666C48.1818 4.95288 48.2671 5.11183 48.3544 5.2745L48.3544 5.27459C48.8738 6.24227 49.464 7.3419 49.9453 8.78696C50.7492 6.49701 50.8638 3.92719 49.7832 1.59447C49.654 1.31564 49.708 0.986217 49.9194 0.763206ZM60.7135 6.81699C59.3909 7.08148 59.3909 8.66856 60.7135 8.66856C62.0361 8.66856 61.4917 6.66136 60.7135 6.81699Z" fill="white"/>
<path fill-rule="evenodd" clip-rule="evenodd" d="M69.296 1.44142C69.3854 1.03697 69.13 0.636613 68.7255 0.547194C68.3211 0.457776 67.9207 0.713157 67.8313 1.1176C67.6767 1.81683 67.8035 2.53453 68.0107 3.19802C68.2186 3.86351 68.5375 4.56286 68.8444 5.23606L68.8445 5.23607L68.8448 5.23686C69.1821 5.97662 69.5069 6.69458 69.7389 7.39657C69.2665 7.3899 68.8203 7.43432 68.3979 7.52146C66.3666 7.94063 65.0582 9.3514 64.2872 10.1827C64.1616 10.3182 64.0502 10.4382 63.9523 10.5361C63.6594 10.829 63.6594 11.3039 63.9523 11.5967C64.2452 11.8896 64.7201 11.8896 65.013 11.5967C65.1532 11.4565 65.2961 11.3049 65.4445 11.1475L65.4445 11.1475C66.2359 10.3078 67.182 9.30397 68.7011 8.99051C69.1015 8.90789 69.5547 8.87317 70.0674 8.91456C70.0763 9.02853 70.0809 9.14218 70.0809 9.25552C70.0809 12.0825 68.9953 14.4856 67.2911 15.4373C66.9294 15.6392 66.8 16.0961 67.0019 16.4578C67.2039 16.8194 67.6608 16.9489 68.0224 16.7469C70.3992 15.4197 71.5809 12.3535 71.5809 9.25552C71.5809 9.24543 71.5808 9.23533 71.5808 9.22524C73.116 9.71492 75.048 10.8172 77.4776 12.9523C77.777 13.2154 78.2298 13.1984 78.5086 12.9137C78.7874 12.629 78.7949 12.1759 78.5256 11.8822C76.0072 9.13483 74.5496 6.43665 74.0854 3.40952C76.6489 4.138 78.8975 4.03626 80.9532 3.00841C81.3237 2.82317 81.4739 2.37266 81.2886 2.00218C81.1034 1.63169 80.6529 1.48153 80.2824 1.66677C78.4027 2.60663 76.2465 2.64319 73.4678 1.63274C73.229 1.5459 72.9624 1.5859 72.7596 1.73902C72.5568 1.89213 72.4453 2.13754 72.4634 2.39102C72.63 4.72368 73.2959 6.8482 74.4407 8.87555C73.3173 8.23689 72.2949 7.82907 71.361 7.60675C71.099 6.56361 70.6472 5.57348 70.2522 4.70791L70.2096 4.61452C69.8932 3.92065 69.6171 3.30994 69.4425 2.7508C69.2671 2.18941 69.2238 1.76768 69.296 1.44142Z" fill="white"/>
<path fill-rule="evenodd" clip-rule="evenodd" d="M89.2593 2.65033C87.3741 0.445254 83.4729 -0.0920599 80.2558 1.68076C79.893 1.88067 79.761 2.33682 79.9609 2.6996C80.1608 3.06238 80.6169 3.19441 80.9797 2.99449C83.7198 1.48456 86.7967 2.07819 88.1192 3.62507C88.8797 4.51463 89.9858 6.60641 90.7922 8.78461C91.191 9.86172 91.5023 10.9227 91.6594 11.8264C91.8236 12.771 91.7918 13.3985 91.6568 13.7095C91.5684 13.9131 91.2311 14.2102 90.4256 14.4512C89.6695 14.6774 88.6844 14.7977 87.6376 14.8118C86.5957 14.8258 85.5305 14.7342 84.6263 14.5581C83.6923 14.3762 83.0344 14.1236 82.72 13.8823C82.4012 13.6376 81.9907 13.0764 81.5717 12.2509C81.166 11.4515 80.7955 10.4918 80.5202 9.54812C80.2434 8.59887 80.074 7.7039 80.0485 7.02954C80.0357 6.68918 80.0614 6.44691 80.1037 6.29578C80.1144 6.25754 80.1242 6.23131 80.1317 6.2142C80.2115 6.18458 80.3616 6.14476 80.6002 6.11324C80.8824 6.07594 81.2363 6.05668 81.6412 6.06013C82.451 6.06704 83.4181 6.16434 84.3426 6.35914C85.2763 6.55588 86.1146 6.8413 86.6997 7.19683C87.3017 7.5626 87.4705 7.89215 87.4705 8.14602C87.4705 9.82189 86.2117 10.9108 85.5876 11.2302C85.2189 11.4189 85.0729 11.8708 85.2616 12.2395C85.4503 12.6082 85.9022 12.7542 86.2709 12.5655C87.1743 12.1032 88.9705 10.5972 88.9705 8.14602C88.9705 7.1102 88.2515 6.38455 87.4787 5.91495C86.689 5.43511 85.6658 5.105 84.6519 4.89137C83.6289 4.67582 82.5625 4.56794 81.6539 4.56019C81.1996 4.55631 80.773 4.57736 80.4037 4.62616C80.0506 4.67282 79.688 4.75228 79.4013 4.89897C78.9639 5.12282 78.7575 5.54006 78.6591 5.89177C78.5582 6.25268 78.5338 6.66807 78.5496 7.08614C78.5814 7.92863 78.7843 8.95354 79.0803 9.96813C79.3778 10.9883 79.7806 12.0364 80.2341 12.9298C80.6743 13.7969 81.2089 14.6134 81.8067 15.0722C82.4087 15.5343 83.3547 15.8386 84.3396 16.0304C85.3543 16.2281 86.523 16.3269 87.6578 16.3117C88.7877 16.2964 89.9219 16.1676 90.8556 15.8882C91.74 15.6236 92.6628 15.1586 93.0326 14.307C93.3559 13.5628 93.3079 12.5514 93.1372 11.5694C92.9594 10.5464 92.617 9.39302 92.1989 8.26384C91.3717 6.02946 90.1919 3.74116 89.2593 2.65033ZM80.1462 6.18688C80.1462 6.18696 80.1455 6.18808 80.144 6.19002C80.1454 6.18778 80.1462 6.18681 80.1462 6.18688ZM82.3992 9.33341C83.3639 10.276 84.6741 9.38043 83.9278 8.28857C83.1815 7.19671 81.8316 8.77881 82.3992 9.33341Z" fill="white"/>
<path fill-rule="evenodd" clip-rule="evenodd" d="M95.4435 0.657017C95.402 0.324765 95.1453 0.0602918 94.8144 0.00892162C94.4835 -0.0424485 94.1587 0.13173 94.0184 0.435749C92.5194 3.6835 92.5423 6.91346 93.5037 10.7593C93.6042 11.1612 94.0114 11.4055 94.4133 11.305C94.8151 11.2046 95.0594 10.7974 94.959 10.3955C94.2242 7.45654 94.0973 5.03081 94.7637 2.71346C94.8584 2.83059 94.9569 2.93939 95.0569 3.0399C95.5618 3.54707 96.1343 3.8733 96.5418 4.02613C96.9297 4.17157 97.362 3.97506 97.5074 3.58722C97.6529 3.19938 97.4564 2.76707 97.0685 2.62163C96.8521 2.54048 96.4653 2.32854 96.12 1.98167C95.7814 1.6415 95.5117 1.20224 95.4435 0.657017ZM99.7359 3.98812C99.9734 3.64879 99.8909 3.18114 99.5516 2.9436C99.2122 2.70607 98.7446 2.78859 98.507 3.12793C96.7648 5.61682 95.0523 9.58959 96.7614 15.6935C96.8332 15.9501 97.0358 16.1493 97.2935 16.2168C97.5513 16.2843 97.8255 16.21 98.0139 16.0216L98.013 16.0226C98.013 16.0226 98.0266 16.0102 98.0616 15.9876C98.1003 15.9627 98.1544 15.932 98.2259 15.8973C98.3696 15.8276 98.5604 15.7527 98.7906 15.6803C99.2512 15.5355 99.8274 15.4144 100.418 15.3608C101.012 15.3067 101.585 15.3244 102.053 15.4324C102.527 15.5418 102.811 15.7233 102.957 15.9272C103.127 16.1652 103.42 16.2827 103.707 16.2281C103.994 16.1736 104.224 15.9569 104.295 15.6732C104.689 14.0975 104.49 12.5322 103.971 11.235C103.457 9.95084 102.601 8.86094 101.599 8.2885C101.24 8.083 100.782 8.20794 100.576 8.56758C100.371 8.92722 100.496 9.38536 100.855 9.59087C101.491 9.95438 102.156 10.7364 102.578 11.7921C102.865 12.51 103.027 13.3227 102.999 14.1615C102.8 14.0801 102.594 14.0179 102.39 13.9708C101.718 13.8155 100.974 13.804 100.282 13.8669C99.5854 13.9302 98.9039 14.0723 98.3409 14.2493C98.2139 14.2892 98.0908 14.3316 97.9732 14.3761C96.8126 9.30745 98.2875 6.05729 99.7359 3.98812Z" fill="white"/>
<path fill-rule="evenodd" clip-rule="evenodd" d="M104.969 5.28924C104.872 4.50987 104.877 3.40618 105.107 2.55789C105.222 2.13195 105.374 1.84231 105.533 1.67863C105.662 1.54513 105.803 1.48008 106.033 1.50568C106.863 1.59793 108.712 2.13834 110.348 3.04457C111.161 3.49452 111.878 4.01184 112.384 4.57187C112.889 5.13071 113.139 5.68158 113.139 6.22263C113.139 7.50472 112.257 9.04439 110.858 9.78866C110.178 10.1509 109.384 10.3193 108.513 10.1796C107.639 10.0395 106.639 9.58115 105.57 8.60895C105.35 8.40926 105.034 8.35793 104.762 8.47802C104.491 8.59812 104.315 8.86705 104.315 9.16391C104.315 10.0518 104.424 11.2631 104.869 12.3607C105.321 13.4737 106.15 14.5343 107.599 14.9297C107.999 15.0387 108.411 14.8031 108.52 14.4034C108.629 14.0038 108.394 13.5915 107.994 13.4825C107.133 13.2476 106.596 12.6275 106.259 11.7971C106.128 11.4731 106.032 11.1273 105.964 10.7793C106.742 11.2523 107.517 11.5391 108.275 11.6607C109.492 11.8558 110.615 11.6172 111.563 11.1128C113.421 10.1238 114.639 8.09192 114.639 6.22263C114.639 5.188 114.155 4.29449 113.497 3.56654C112.841 2.83976 111.97 2.22784 111.075 1.73238C109.297 0.74778 107.259 0.13269 106.199 0.0148528C105.484 -0.0645964 104.889 0.185492 104.454 0.636307C104.047 1.05694 103.806 1.6208 103.659 2.16653C103.363 3.26158 103.368 4.57394 103.481 5.4753C103.532 5.88631 103.907 6.17785 104.318 6.12648C104.729 6.0751 105.021 5.70026 104.969 5.28924ZM109.149 6.2195C108.099 6.42958 108.099 7.69014 109.149 7.69014C110.2 7.69014 109.767 6.0959 109.149 6.2195Z" fill="white"/>
</svg>
