[
    {
        "nom": "Amokna Nyl",
        "prenom": "Nevenyl",
        "surnom": "Nyl",
        "ndf": "Amokna",
        "type": "Inventé.e",
        "profilID": "96",
        "dob": "20/03/1995",
        "ryu": "Yes",
        "parti1": "Sōgaka",
        "parti2": "Rōnin",
        "ronin_details": "Ressent les ombres et peut les contrôler comme des extensions d'elle-même.",
        "mangetsuki_details": "",
        "animal": "",
        "maison": "Suisei",
        "promo": "2013",
        "ecole": "Wakoku",
        "otherEcole": "",
        "occupation1": "Commerce",
        "occupation_lieu1": "",
        "occupation_details1": "Gérante d'une boutique d'artefacts",
        "occupation2": "Éducation",
        "occupation_lieu2": "Tokidai",
        "occupation_details2": "Intervenante",
        "cosmoball": "No",
        "dustquash": "Yes",
        "logement": "Tenchijima",
        "logement_details": "Uminomiya",
        "logement_type": "Appartement",
        "coloc": "Village océanique, avec <a href=\"/u218\">@Hoshino Tsuru</a>",
        "fiche": "https://isekai-monogatari.forumactif.com/t271-dancing-in-the-rain",
        "jdb": "https://isekai-monogatari.forumactif.com/t957-love-month-nyl",
        "image": "https://i.imgur.com/WLMuFpT.png",
        "credits": "ethereal",
        "intouche": "No",
        "faceclaim": "Yoon Youngbae",
        "pseudo": "SKATE VIBE"
    },
    
    {
        "nom": "Keeng Saem",
        "prenom": "Saem",
        "surnom": "Sam",
        "ndf": "Keeng",
        "type": "Inventé.e",
        "maison": "Fugi",
        "promo": "2016",
        "ecole": "Wakoku",
        "dob": "05/01/1998",
        "occupation1": "Étudiant.e",
        "occupation_lieu1": "",
        "occupation_details1": "",
        "occupation2": "",
        "occupation_lieu2": "",
        "occupation_details2": "",
        "cursus1": "APSC",
        "cursus1_annee": "7e",
        "cursus2": "",
        "cursus2_annee": "",
        "option1": "Magie Élémentaire (Air)",
        "option2": "",
        "logement": "Shinmeidai",
        "logement_details": "Kinmokusei-dōri",
        "logement_type": "Appartement",
        "coloc": "Avec <a href=\"/u60\">@Andrea Davis</a> et <a href=\"/u8\">@Sawano Akira</a>",
        "profilID": 4,
        "parti1": "",
        "parti2": "",
        "mangetsuki_details": "",
        "ronin_details": "",
        "animal": "",
        "cosmoball": "Yes",
        "cosmo_equipe": "Great White Chimeras",
        "cosmo_poste": "Skyrunner",
        "dustquash": "No",
        "ryu": "No",
        "intouche": "No",
        "fiche": "https://isekai-monogatari.forumactif.com/t2301-die-hard-saem",
        "jdb": "https://isekai-monogatari.forumactif.com/t272-curious-furious",
        "image": "https://images2.imgbox.com/5c/27/Xmj7QLhh_o.png",
        "credits": "moonset",
        "faceclaim": "Mark Lee",
        "pseudo": "SKATE VIBE",
        "cosmo_cap": "Yes"
    },

    {
        "nom": "Igarashi Senri",
        "prenom": "Senri",
        "surnom": "Sen",
        "ndf": "Igarashi",
        "type": "Inventé.e",
        "maison": "Raiyo",
        "dob": "03/12/1989",
        "promo": "2007",
        "ecole": "Wakoku",
        "occupation1": "Arts et Médias",
        "occupation_details1": "Journaliste-reporter",
        "occupation_lieu1": "Makōsa Itachi Shimbun",
        "occupation2": "Sports",
        "occupation_details2": "coach de Dustquash",
        "occupation_lieu2": "",
        "logement": "Eiyamachi",
        "logement_details": "Komeikyū",
        "logement_type": "Maison",
        "profilID": 62,
        "parti1": "",
        "parti2": "",
        "mangetsuki_details": "",
        "ronin_details": "",
        "animal": "",
        "cosmoball": "No",
        "dustquash": "Yes",
        "ryu": "No",
        "intouche": "No",
        "fiche": "https://isekai-monogatari.forumactif.com/t148-senri-travelling-c",
        "jdb": "https://isekai-monogatari.forumactif.com/t199-senri-journal-de-bord",
        "image": "https://i.imgur.com/6s7wDpY.png",
        "credits": "melody",
        "faceclaim": "Asahina Aya",
        "pseudo": "melody"
    },

    {
        "nom": "Kayn Ashkan",
        "prenom": "Kayn",
        "surnom": "",
        "ndf": "Ashkan",
        "type": "Inventé.e",
        "profilID": "93",
        "dob": "20/11/1991",
        "parti1": "Gengaka",
        "parti2": "Mangetsuki",
        "mangetsuki_details": "Kinrō",
        "ronin_details": "",
        "animal": "",
        "maison": "Hiisa",
        "promo": "2009",
        "ecole": "Eiyamachi",
        "otherEcole": "Salem",
        "occupation1": "Illégalité",
        "occupation_details1": "Membre de l'arumiopokimi",
        "occupation_lieu1": "Arumiopokimi",
        "occupation2": "Autres",
        "occupation_details2": "Botaniste",
        "occupation_lieu2": "",
        "cosmoball": "No",
        "dustquash": "No",
        "logement": "Eiyamachi",
        "logement_details": "Komeikyū",
        "logement_type": "Appartement",
        "coloc": "Avec <a href=\"/u80\">@Esraa Nyok</a> et <i>Sawatari Hajime</i> (PNJ)",
        "fiche": "https://isekai-monogatari.forumactif.com/t1489-where-we-re-from-there-s-no-sun-kayn",
        "jdb": "https://isekai-monogatari.forumactif.com/t1751-heavydirtysoul-kayn",
        "image": "https://images2.imgbox.com/26/25/YtOwD1Kq_o.png",
        "credits": "SKATE VIBE",
        "intouche": "No",
        "ryu": "No",
        "faceclaim": "Freddie Carter",
        "pseudo": "SKATE VIBE"
    },

    {
        "nom": "Kurri Anla",
        "prenom": "Anlariya",
        "surnom": "Anla",
        "ndf": "Kurri",
        "type": "Inventé.e",
        "profilID": "21",
        "dob": "02/11/2001",
        "ryu": "Yes",
        "parti1": "Mangetsuki",
        "parti2": "",
        "mangetsuki_details": "Shinrō",
        "ronin_details": "",
        "animal": "",
        "maison": "Fugi",
        "promo": "2020",
        "ecole": "Wakoku",
        "otherEcole": "",
        "occupation1": "Étudiant.e",
        "occupation_lieu1": "",
        "occupation_details1": "",
        "occupation2": "Illégalité",
        "occupation_lieu2": "Arumiopokimi",
        "occupation_details2": "Espionne pour l'arumi",
        "cursus1": "Sciences Humaines",
        "cursus1_annee": "4e",
        "cursus2": "",
        "cursus2_annee": "",
        "option1": "Magie Élémentaire (Eau)",
        "option2": "Magie Élémentaire (Air)",
        "cosmoball": "Yes",
        "cosmo_equipe": "Crimson Dragons",
        "cosmo_poste": "Skyrunner",
        "cosmo_cap": "No",
        "dustquash": "No",
        "logement": "Tenchijima",
        "logement_details": "Uminomiya",
        "logement_type": "Maison",
        "coloc": "Village océanique, avec <a href=\"/u47\">@Kurri Shilo</a>",
        "fiche": "https://isekai-monogatari.forumactif.com/t113-anla",
        "jdb": "https://isekai-monogatari.forumactif.com/t341-anla",
        "image": "https://i.imgur.com/s4oalOs.png",
        "credits": "prima luce",
        "intouche": "No",
        "faceclaim": "Devita",
        "pseudo": "prima luce"
    },

    {
      "nom": "Murakami Leon",
      "prenom": "Leon",
      "surnom": "Doomsday",
      "ndf": "Murakami",
      "type": "Inventé.e",
      "profilID": "92",
      "dob": "06/06/1996",
      "parti1": "Rōnin",
      "parti2": "",
      "mangetsuki_details": "",
      "ronin_details": "Manipulation de la masse osseuse et transfusion régénératrice.",
      "animal": "",
      "maison": "Hiisa",
      "promo": "2014",
      "ecole": "Non scolarisée",
      "otherEcole": "",
      "occupation1": "Arts et Médias",
      "occupation_lieu1": "",
      "occupation_details1": "Rappeuse",
      "occupation2": "Illégalité",
      "occupation_lieu2": "",
      "occupation_details2": "street racer, délinquante",
      "cosmoball": "No",
      "dustquash": "No",
      "logement": "Eiyamachi",
      "logement_details": "Kagemura",
      "logement_type": "Loft",
      "coloc": "Avec <a href=\"/u266\">@Kant Kannagi</a> et leurs colocataires",
      "fiche": "https://isekai-monogatari.forumactif.com/t259-leon",
      "jdb": "https://isekai-monogatari.forumactif.com/",
      "image": "https://i.imgur.com/UlUaBEK.png",
      "credits": "prima luce",
      "intouche": "No",
      "ryu": "No",
      "faceclaim": "Chichi",
      "pseudo": "prima luce"
    },

    {
      "nom": "Ryuzashi Remi",
      "prenom": "Remi",
      "surnom": "",
      "ndf": "Ryuzashi",
      "type": "Inventé.e",
      "profilID": "81",
      "dob": "18/04/1998",
      "parti1": "Sōgaka",
      "parti2": "Ryūketsuki",
      "mangetsuki_details": "",
      "ronin_details": "",
      "animal": "",
      "maison": "Raiyo",
      "promo": "2015",
      "ecole": "Eiyamachi",
      "otherEcole": "",
      "occupation1": "Étudiant.e",
      "occupation_lieu1": "",
      "occupation_details1": "",
      "occupation2": "Illégalité",
      "occupation_lieu2": "Temple d'Izanami",
      "occupation_details2": "Gérante du Fightclub, Yakuza",
      "cursus1": "Brigades Spéciales",
      "cursus1_annee": "7e",
      "cursus2": "",
      "cursus2_annee": "",
      "option1": "Mindweaving",
      "option2": "",
      "cosmoball": "No",
      "dustquash": "Yes",
      "logement": "Eiyamachi",
      "logement_details": "Komeikyū",
      "logement_type": "Loft",
      "fiche": "https://isekai-monogatari.forumactif.com/t212-remi",
      "jdb": "https://isekai-monogatari.forumactif.com/t695-remi",
      "image": "https://i.imgur.com/aT0COed.png",
      "credits": "prima luce",
      "intouche": "No",
      "ryu": "No",
      "faceclaim": "Andy Blossom",
      "pseudo": "prima luce"
    },

    {
        "nom": "Tiffany Yeun",
        "prenom": "Tiffany",
        "surnom": "Tiff",
        "ndf": "Yeun",
        "type": "Inventé.e",
        "maison": "Suisei",
        "dob": "23/04/1991",
        "promo": "2007",
        "ecole": "Salem",
        "occupation1": "Santé",
        "occupation_lieu1": "Kaisei Pharmaceuticals",
        "occupation_details1": "Assistante de laboratoire",
        "occupation2": "",
        "occupation_details2": "",
        "occupation_lieu2": "",
        "cursus1": "",
        "cursus1_annee": "",
        "cursus2": "",
        "cursus2_annee": "",
        "logement": "Tenchijima",
        "logement_details": "Uminomiya",
        "logement_type": "Maison",
        "coloc": "Village forestier, avec <a href=\"/u163\">@Shinohara Kazuha</a>",
        "profilID": 226,
        "parti1": "Ryūketsuki",
        "parti2": "",
        "mangetsuki_details": "",
        "ronin_details": "",
        "animal": "",
        "cosmoball": "No",
        "dustquash": "No",
        "ryu": "Yes",
        "intouche": "Yes",
        "fiche": "https://isekai-monogatari.forumactif.com/t1869-tiffany-she-s-str",
        "jdb": "https://isekai-monogatari.forumactif.com/t1879-tiffany-journal-de-bord",
        "image": "https://i.imgur.com/BYxQ6ql.png",
        "credits": "melody",
        "faceclaim": "Han Sohee",
        "pseudo": "melody"
    },

    {
        "nom": "Yokoi Himari",
        "prenom": "Himari",
        "surnom": "Hima",
        "ndf": "Yokoi",
        "type": "Inventé.e",
        "maison": "Dojin",
        "dob": "07/07/1998",
        "promo": "2016",
        "ecole": "Wakoku",
        "occupation1": "Éducation",
        "occupation_lieu1": "Tokidai",
        "occupation_details1": "Secrétaire",
        "occupation2": "Éducation",
        "occupation_lieu2": "Wada Ongakuya",
        "occupation_details2": "Professeur de piano",
        "logement": "Shinmeidai",
        "logement_details": "Campus de Tokidai",
        "logement_type": "Appartement",
        "profilID": 3,
        "parti1": "",
        "parti2": "",
        "mangetsuki_details": "",
        "ronin_details": "",
        "animal": "",
        "cosmoball": "No",
        "dustquash": "No",
        "ryu": "No",
        "intouche": "Yes",
        "fiche": "https://isekai-monogatari.forumactif.com/t29-himari-there-s-brav",
        "jdb": "https://isekai-monogatari.forumactif.com/t53-himari-journal-de-bord",
        "image": "https://i.imgur.com/Hi9VIu3.png",
        "credits": "melody",
        "faceclaim": "Saitō Asuka",
        "pseudo": "melody"
    }, 

    {
      "nom": "Mun Milo",
      "prenom": "Milo",
      "surnom": "",
      "ndf": "Mun",
      "type": "Inventé.e",
      "profilID": "48",
      "dob": "03/12/1999",
      "parti1": "",
      "parti2": "",
      "mangetsuki_details": "",
      "ronin_details": "",
      "animal": "",
      "maison": "Fugi",
      "promo": "2018",
      "ecole": "Chuo-Kōei",
      "occupation1": "Étudiant.e",
      "occupation_details1": "",
      "occupation_lieu1": "",
      "occupation2": "",
      "occupation_details2": "",
      "occupation_lieu2": "",
      "cursus1": "MACA",
      "cursus1_annee": "5e",
      "cursus2": "",
      "cursus2_annee": "",
      "cosmoball": "No",
      "dustquash": "No",
      "logement": "Shinmeidai",
      "logement_details": "Shirozawa",
      "logement_type": "Dortoir",
      "coloc": "Avec <a href=\"/u72\">@Minami Usagi</a>",
      "fiche": "https://isekai-monogatari.forumactif.com/t1292-scattered-across-my-family-line-milo",
      "jdb": "https://isekai-monogatari.forumactif.com/t1563-farewell-neverland-milo",
      "image": "https://zupimages.net/up/23/39/dpo2.jpg",
      "credits": "jool",
      "intouche": "No",
      "ryu": "No",
      "faceclaim": "Lee Minho",
      "pseudo": "mohnsun"
    },

    {
      "nom": "Shinohara Kazuha",
      "prenom": "Kazuha",
      "surnom": "",
      "ndf": "Shinohara",
      "type": "Inventé.e",
      "profilID": "163",
      "dob": "04/08/1998",
      "ryu": "Yes",
      "parti1": "Ryūketsuki",
      "parti2": "",
      "mangetsuki_details": "",
      "ronin_details": "",
      "animal": "",
      "maison": "Raiyo",
      "promo": "2016",
      "ecole": "Wakoku",
      "occupation1": "Étudiant.e",
      "occupation_lieu1": "",
      "occupation_details1": "",
      "occupation2": "Arts et Médias",
      "occupation_lieu2": "",
      "occupation_details2": "Auteur",
      "cursus1": "SNEP",
      "cursus1_annee": "6e",
      "cursus2": "EFFM",
      "cursus2_annee": "7e",
      "option1": "Magie Élémentaire (Air)",
      "option2": "Magie Élémentaire (Eau)",
      "cosmoball": "No",
      "dustquash": "No",
      "logement": "Tenchijima",
      "logement_details": "Uminomiya",
      "logement_type": "Maison",
      "coloc": "Village forestier, avec <a href=\"/u226\">@Tiffany Yeun</a>",
      "fiche": "https://isekai-monogatari.forumactif.com/t788-i-m-alive-kazuha",
      "jdb": "https://isekai-monogatari.forumactif.com/t831-childhood-s-memory-kazuha",
      "image": "https://zupimages.net/up/23/36/v34d.png",
      "credits": "mohnsun",
      "intouche": "No",
      "faceclaim": "Yamazaki Kento",
      "pseudo": "mohnsun"
    },

    {
      "nom": "Robin Fairchild",
      "prenom": "Robin",
      "surnom": "",
      "ndf": "Fairchild",
      "type": "Pré-lien",
      "plURL": "https://isekai-monogatari.forumactif.com/t941-pleurer-une-illusion-f-m",
      "profilID": "224",
      "dob": "08/10/1997",
      "parti1": "Reiketsuki",
      "parti2": "",
      "mangetsuki_details": "",
      "ronin_details": "",
      "animal": "",
      "maison": "Suisei",
      "promo": "2015",
      "ecole": "Tintagel",
      "occupation1": "Autres",
      "occupation_lieu1": "",
      "occupation_details1": "Alchimiste",
      "occupation2": "Illégalité",
      "occupation_lieu2": "",
      "occupation_details2": "Producteur et trafiquant de drogues",
      "cosmoball": "No",
      "dustquash": "No",
      "logement": "Eiyamachi",
      "logement_details": "Komeikyū",
      "logement_type": "Appartement",
      "fiche": "https://isekai-monogatari.forumactif.com/t1810-what-could-have-been-robin",
      "jdb": "https://isekai-monogatari.forumactif.com/t1902-ocean-eyes-robin",
      "image": "https://zupimages.net/up/23/36/4jtt.png",
      "credits": "mohnsun",
      "intouche": "No",
      "ryu": "No",
      "faceclaim": "Jack Wolfe",
      "pseudo": "mohnsun"
    },

    {
      "nom": "Kell Brekker",
      "profilID": "238",
      "type": "Inventé.e",
      "plURL": "",
      "prenom": "Kell",
      "surnom": "",
      "ndf": "Brekker",
      "dob": "11/05/1999",
      "parti1": "Henjū",
      "parti2": "",
      "ronin_details": "",
      "animal": "Lynx",
      "mangetsuki_details": "",
      "maison": "Fugi",
      "promo": "2017",
      "ecole": "Shinmeidai",
      "occupation1": "Étudiant.e",
      "occupation_lieu1": "Kaisei Pharmaceuticals",
      "occupation_details1": "",
      "occupation2": "",
      "occupation_lieu2": "",
      "occupation_details2": "",
      "dustquash": "No",
      "cursus1": "Histoire",
      "cursus1_annee": "6e",
      "cursus2": "",
      "cursus2_annee": "",
      "option1": "",
      "option2": "",
      "cosmoball": "No",
      "cosmo_equipe": "",
      "cosmo_poste": "",
      "logement": "Wakoku",
      "logement_details": "Nekonomichi",
      "logement_type": "Studio",
      "coloc": "",
      "pseudo": "Aleks",
      "faceclaim": "Kim Youngkyun (Hwiyoung)",
      "image": "https://images2.imgbox.com/77/d1/zhO6OskP_o.gif",
      "credits": " larmestendres",
      "fiche": "https://isekai-monogatari.forumactif.com/t2070-let-me-down-easy-kell",
      "jdb": "https://isekai-monogatari.forumactif.com/t2234-i-m-the-problem-it-s-me-kell",
      "intouche": "No",
      "ryu": "No",
      "cosmo_cap": "No"
    },

    {
      "nom": "Jordan Marsh",
      "profilID": "217",
      "type": "Pré-lien",
      "plURL": "https://isekai-monogatari.forumactif.com/t1493-m-the-devil-s-son",
      "prenom": "Jordan",
      "surnom": "",
      "ndf": "Marsh",
      "dob": "27/01/1998",
      "parti1": "",
      "parti2": "",
      "ronin_details": "",
      "animal": "",
      "mangetsuki_details": "",
      "maison": "Fugi",
      "promo": "2016",
      "ecole": "Shinmeidai",
      "occupation1": "Étudiant.e",
      "occupation_lieu1": "",
      "occupation_details1": "",
      "occupation2": "",
      "occupation_lieu2": "",
      "occupation_details2": "",
      "dustquash": "No",
      "cursus1": "APSC",
      "cursus1_annee": "6e",
      "cursus2": "",
      "cursus2_annee": "",
      "option1": "",
      "option2": "",
      "cosmoball": "Yes",
      "cosmo_equipe": "Crimson Dragons",
      "cosmo_poste": "Skyrunner",
      "logement": "Eiyamachi",
      "logement_details": "Komeikyū",
      "logement_type": "Appartement",
      "coloc": "",
      "pseudo": "venividivici",
      "faceclaim": "Tom Holland",
      "image": "https://64.media.tumblr.com/dc542ee699e2efbc1cd12379a3ef9886/8f1936feda97c16e-0c/s500x750/f5f47a7a24efd184718ccf9e9cbf1ef48dafb567.jpg",
      "credits": "frenchandfurious",
      "fiche": "https://isekai-monogatari.forumactif.com/t1650-jordan-pizza-song",
      "jdb": "https://isekai-monogatari.forumactif.com/t1745-jordan-in-the-three-color-s-desert",
      "intouche": "No",
      "ryu": "No",
      "cosmo_cap": "No"
    },

    {
      "nom": "Blue Lily Hills",
      "profilID": "240",
      "type": "Inventé.e",
      "plURL": "",
      "prenom": "Blue Lily",
      "surnom": "",
      "ndf": "Hills",
      "dob": "15/02/2004",
      "parti1": "Rōnin",
      "parti2": "Sōgaka",
      "ronin_details": "Toucher rassurant et fluorescence",
      "animal": "",
      "mangetsuki_details": "",
      "maison": "Dojin",
      "promo": "2022",
      "ecole": "Wakoku",
      "occupation1": "Étudiant.e",
      "occupation_lieu1": "",
      "occupation_details1": "",
      "occupation2": "Autres",
      "occupation_lieu2": "",
      "occupation_details2": "Tutrice en mathématiques",
      "dustquash": "No",
      "cursus1": "Sciences de l'Univers",
      "cursus1_annee": "1e",
      "cursus2": "",
      "cursus2_annee": "",
      "option1": "",
      "option2": "",
      "cosmoball": "No",
      "cosmo_equipe": "",
      "cosmo_poste": "",
      "logement": "Shinmeidai",
      "logement_details": "Kimokusei-dōri",
      "logement_type": "Appartement",
      "coloc": "Avec <a href=\"/u185\">@Xià Nanami</a>",
      "pseudo": "Laura",
      "faceclaim": "Gracie Abrams",
      "image": "https://64.media.tumblr.com/f00bb5553c8b4eb46631dd2bd8291c15/2ab1a537280838d7-ae/s500x750/a8569db6f001386de192e153113aef2702104dd5.pnj",
      "credits": "labonairs",
      "fiche": "https://isekai-monogatari.forumactif.com/t2260-a-light-that-never-goes-out-blue-lily-lily-blue",
      "jdb": "https://isekai-monogatari.forumactif.com/t2367-last-words-of-a-shooting-star-blue",
      "intouche": "No",
      "ryu": "No",
      "cosmo_cap": "No"
    },

    {
      "nom": "Neela Barker",
      "profilID": "205",
      "type": "Inventé.e",
      "plURL": "",
      "prenom": "Neela",
      "surnom": "Neel(s)",
      "ndf": "Barker",
      "dob": "30/10/1995",
      "parti1": "Mangetsuki",
      "parti2": "",
      "ronin_details": "",
      "animal": "",
      "mangetsuki_details": "Solitaire",
      "maison": "Hiisa",
      "promo": "2013",
      "ecole": "Salem",
      "occupation1": "Commerce",
      "occupation_lieu1": "The Magic Wand",
      "occupation_details1": "Vendeuse ",
      "occupation2": "",
      "occupation_lieu2": "",
      "occupation_details2": "",
      "dustquash": "No",
      "cursus1": "",
      "cursus1_annee": "",
      "cursus2": "",
      "cursus2_annee": "",
      "option1": "",
      "option2": "",
      "cosmoball": "No",
      "cosmo_equipe": "",
      "cosmo_poste": "",
      "logement": "Eiyamachi",
      "logement_details": "Komeikyū",
      "logement_type": "Appartement",
      "coloc": "Avec <a href=\"/u137\">@Romeo Maitland</a>",
      "pseudo": "Laura",
      "faceclaim": "Amita Suman",
      "image": "https://images-ext-2.discordapp.net/external/v38YXOs2kRNqvGEMnR3wh5RGGHulPi99tcSUxojF8Yk/https/64.media.tumblr.com/d74f50c59c38e50726645fc94c3def9f/3650ccccdbe981e9-63/s500x750/e7b5bc5e0f849db6879eabaf67d7254c1081ef9b.pnj",
      "credits": "ethereal",
      "fiche": "https://isekai-monogatari.forumactif.com/t1484-bad-moon-rising-neela",
      "jdb": "https://isekai-monogatari.forumactif.com/t1681-fire-walk-with-me-neela",
      "intouche": "No",
      "ryu": "No",
      "cosmo_cap": "No"
    },

    {
      "nom": "Angus Edwards",
      "profilID": "239",
      "type": "Inventé.e",
      "plURL": "",
      "prenom": "Angus",
      "surnom": "",
      "ndf": "Edwards",
      "dob": "26/06/1977",
      "parti1": "Témoin",
      "parti2": "",
      "ronin_details": "",
      "animal": "",
      "mangetsuki_details": "",
      "maison": "Raiyo",
      "promo": "",
      "ecole": "",
      "occupation1": "Hôtellerie",
      "occupation_lieu1": "Sailor's Saloon",
      "occupation_details1": "Barman et serveur",
      "occupation2": "",
      "occupation_lieu2": "",
      "occupation_details2": "",
      "dustquash": "No",
      "cursus1": "",
      "cursus1_annee": "",
      "cursus2": "",
      "cursus2_annee": "",
      "option1": "",
      "option2": "",
      "cosmoball": "No",
      "cosmo_equipe": "",
      "cosmo_poste": "",
      "logement": "Eiyamachi",
      "logement_details": "Komeikyū",
      "logement_type": "Appartement",
      "coloc": "",
      "pseudo": "chioexe",
      "faceclaim": "Oscar Isaac",
      "image": "https://64.media.tumblr.com/ad6bfb765c1295fd2d15e967a7d561ee/62dc5710b4713d71-71/s500x750/a1caabd21df7f51f048d56c1503514bd46535aca.pnj",
      "credits": "mad'eyes",
      "fiche": "https://isekai-monogatari.forumactif.com/t2114-a-gentle-heart-dances-with-joy-angus",
      "jdb": "https://isekai-monogatari.forumactif.com/t2116-heartbeats-louder-than-thoughts-angus",
      "intouche": "No",
      "ryu": "No",
      "cosmo_cap": "No"
    },

    {
      "nom": "Pandore Águilar",
      "profilID": "65",
      "type": "Inventé.e",
      "plURL": "",
      "prenom": "Pandore",
      "surnom": "",
      "ndf": "Águilar",
      "dob": "15/11/1996",
      "parti1": "Rōnin",
      "parti2": "",
      "ronin_details": "Capacité d’entraîner et de bloquer autrui dans son imagination par projection astrale",
      "animal": "",
      "mangetsuki_details": "",
      "maison": "Hiisa",
      "promo": "2014",
      "ecole": "Chuo-Kōei",
      "occupation1": "Justice",
      "occupation_lieu1": "Tribunal de Makōsa",
      "occupation_details1": "Substitute du procureur",
      "occupation2": "Santé",
      "occupation_lieu2": "Kaisei Pharmaceuticals",
      "occupation_details2": "Visage (pantin) de Kaisei Pharmaceuticals",
      "dustquash": "No",
      "cursus1": "",
      "cursus1_annee": "",
      "cursus2": "",
      "cursus2_annee": "",
      "option1": "",
      "option2": "",
      "cosmoball": "No",
      "cosmo_equipe": "",
      "cosmo_poste": "",
      "logement": "Shinmeidai",
      "logement_details": "Kinmokusei-dōri",
      "logement_type": "Appartement",
      "coloc": "",
      "pseudo": "jabberwocky",
      "faceclaim": "Tashi Rodriguez",
      "image": "https://images2.imgbox.com/51/e4/xq5byb7U_o.jpg",
      "credits": "villetchuckie",
      "fiche": "https://isekai-monogatari.forumactif.com/t162-de-l-autre-cote-du-miroir-pandore",
      "jdb": "https://isekai-monogatari.forumactif.com/t336-catch-my-breath-pandore",
      "intouche": "No",
      "ryu": "No",
      "cosmo_cap": "No"
    },
    {
      "nom": "Gaia Belacqua",
      "profilID": "102",
      "type": "Inventé.e",
      "plURL": "",
      "prenom": "Gaia",
      "surnom": "",
      "ndf": "Belacqua",
      "dob": "21/04/2001",
      "parti1": "Reiketsuki",
      "parti2": "",
      "ronin_details": "",
      "animal": "",
      "mangetsuki_details": "",
      "maison": "Suisei",
      "promo": "2019",
      "ecole": "Shinmeidai",
      "occupation1": "Étudiant.e",
      "occupation_lieu1": "",
      "occupation_details1": "",
      "occupation2": "",
      "occupation_lieu2": "",
      "occupation_details2": "",
      "dustquash": "No",
      "cursus1": "Technomagie",
      "cursus1_annee": "5ème Année",
      "cursus2": "Danse",
      "cursus2_annee": "5ème Année",
      "option1": "Magie Élémentaire (Eau)",
      "option2": "",
      "cosmoball": "No",
      "cosmo_equipe": "",
      "cosmo_poste": "",
      "logement": "Shinmeidai",
      "logement_details": "Kinmokusei-dōri",
      "logement_type": "Appartement",
      "coloc": "Avec <a href=\"/u97\">@Calista Belacqua</a>",
      "pseudo": "jabberwocky",
      "faceclaim": "Natalia Dyer",
      "image": "https://images2.imgbox.com/c9/02/DMqQRtjP_o.png",
      "credits": "merigoldstuff",
      "fiche": "https://isekai-monogatari.forumactif.com/t340-boulevard-of-broken-dreams-gaia",
      "jdb": "https://isekai-monogatari.forumactif.com/t382-catabase-gaia",
      "intouche": "No",
      "ryu": "No",
      "cosmo_cap": "No"
    },
    {
      "nom": "Seo Inhyuk",
      "profilID": "108",
      "type": "Inventé.e",
      "plURL": "",
      "prenom": "Inhyuk",
      "surnom": "",
      "ndf": "Seo",
      "dob": "12/01/1995",
      "parti1": "Mangetsuki",
      "parti2": "",
      "ronin_details": "",
      "animal": "",
      "mangetsuki_details": "Zurō",
      "maison": "Hiisa",
      "promo": "2013",
      "ecole": "Chuo-Kōei",
      "occupation1": "Justice",
      "occupation_lieu1": "Seo Consulting Firm",
      "occupation_details1": "PDG du cabinet de conseil et consultations juridiques",
      "occupation2": "Illégalité",
      "occupation_lieu2": "Kamigami",
      "occupation_details2": "Gérant de l'usine de prêt sur gages de souhaits",
      "dustquash": "No",
      "cursus1": "",
      "cursus1_annee": "",
      "cursus2": "",
      "cursus2_annee": "",
      "option1": "",
      "option2": "",
      "cosmoball": "No",
      "cosmo_equipe": "",
      "cosmo_poste": "",
      "logement": "Chuo-Kōei",
      "logement_details": "Mirai-chō",
      "logement_type": "Penthouse",
      "coloc": "",
      "pseudo": "jabberwocky",
      "faceclaim": "Seo Inguk",
      "image": "https://64.media.tumblr.com/0901564f9cb0c20ba77a2a4309b75ce3/c6d42fbdf239c9a3-d1/s500x750/c5dc37a40ed0c00526bed69cc3404c0dd6a88323.png",
      "credits": ".UNRAVEL",
      "fiche": "https://isekai-monogatari.forumactif.com/t507-le-roi-des-loups-inhyuk",
      "jdb": "https://isekai-monogatari.forumactif.com/t550-eyes-on-the-price-inhyuk",
      "intouche": "No",
      "ryu": "No",
      "cosmo_cap": "No"
    },
    {
      "nom": "Kim Saebyeog",
      "profilID": "132",
      "type": "Inventé.e",
      "plURL": "",
      "prenom": "Saebyeog",
      "surnom": "",
      "ndf": "Kim",
      "dob": "27/02/1998",
      "parti1": "Rōnin",
      "parti2": "",
      "ronin_details": "Peau transparente qui révèle les organes et une météo intérieure changeant en fonction de ses émotions ; destin lié à une âme-sœur dont il augmente l'espérance de vie et les capacités magiques en réduisant les siennes",
      "animal": "",
      "mangetsuki_details": "",
      "maison": "Fugi",
      "promo": "2017",
      "ecole": "Wakoku",
      "occupation1": "Étudiant.e",
      "occupation_lieu1": "",
      "occupation_details1": "",
      "occupation2": "Commerce",
      "occupation_lieu2": "Librairie Yū",
      "occupation_details2": "Libraire en alternance",
      "dustquash": "No",
      "cursus1": "Langues",
      "cursus1_annee": "6ème Année",
      "cursus2": "Arts Visuels",
      "cursus2_annee": "6ème Année",
      "option1": "",
      "option2": "",
      "cosmoball": "No",
      "cosmo_equipe": "",
      "cosmo_poste": "",
      "logement": "Wakoku",
      "logement_details": "Nekonomichi",
      "logement_type": "Appartement",
      "coloc": "",
      "pseudo": "jabberwocky",
      "faceclaim": "Ji Changmin",
      "image": "https://64.media.tumblr.com/7a2763c33b670dfbd1011f1fb71691fb/25e47da7218d23c5-4b/s500x750/149fc5b6efc7c8140fa12a094d3ec9103ed8d51c.pnj",
      "credits": "calypsie",
      "fiche": "https://isekai-monogatari.forumactif.com/t544-see-good-in-all-things-saebyeog",
      "jdb": "https://isekai-monogatari.forumactif.com/t608-be-a-rainbow-in-someone-else-s-cloud-saebyeog",
      "intouche": "No",
      "ryu": "No",
      "cosmo_cap": "No"
    },
    {
      "nom": "Kaneko Kuro",
      "profilID": "158",
      "type": "Inventé.e",
      "plURL": "",
      "prenom": "Daikoku",
      "surnom": "Kuro",
      "ndf": "Kaneko",
      "dob": "22/12/1995",
      "parti1": "Sōgaka",
      "parti2": "",
      "ronin_details": "",
      "animal": "",
      "mangetsuki_details": "",
      "maison": "Fugi",
      "promo": "2013",
      "ecole": "Wakoku",
      "occupation1": "Fonction Publique",
      "occupation_lieu1": "Brigade de Police de Makōsa",
      "occupation_details1": "Brigadier spécial",
      "occupation2": "",
      "occupation_lieu2": "",
      "occupation_details2": "",
      "dustquash": "No",
      "cursus1": "",
      "cursus1_annee": "",
      "cursus2": "",
      "cursus2_annee": "",
      "option1": "",
      "option2": "",
      "cosmoball": "No",
      "cosmo_equipe": "",
      "cosmo_poste": "",
      "logement": "Chuo-Kōei",
      "logement_details": "Seikikō",
      "logement_type": "Appartement",
      "coloc": "",
      "pseudo": "jabberwocky",
      "faceclaim": "Nakamoto Yuta",
      "image": "https://images2.imgbox.com/70/7a/g1yXyY8E_o.png",
      "credits": "moonaetics",
      "fiche": "https://isekai-monogatari.forumactif.com/t783-mother-i-ll-make-you-proud-kuro",
      "jdb": "https://isekai-monogatari.forumactif.com/t859-friends-with-ghosts-kuro",
      "intouche": "No",
      "ryu": "No",
      "cosmo_cap": "No"
    },
    {
      "nom": "Hoshino Tsuru",
      "profilID": "218",
      "type": "Inventé.e",
      "plURL": "",
      "prenom": "Tsuru",
      "surnom": "Lou",
      "ndf": "Hoshino",
      "dob": "21/03/2001",
      "ryu": "Yes",
      "parti1": "",
      "parti2": "",
      "ronin_details": "",
      "animal": "",
      "mangetsuki_details": "",
      "maison": "Raiyo",
      "promo": "2023",
      "ecole": "Scolarisé à domicile",
      "occupation1": "Étudiant.e",
      "occupation_lieu1": "",
      "occupation_details1": "",
      "occupation2": "",
      "occupation_lieu2": "",
      "occupation_details2": "",
      "dustquash": "No",
      "cursus1": "Cycle obligatoire",
      "cursus1_annee": "",
      "cursus2": "",
      "cursus2_annee": "",
      "option1": "Magie Élémentaire (Eau)",
      "option2": "",
      "cosmoball": "No",
      "cosmo_equipe": "",
      "cosmo_poste": "",
      "logement": "Tenchijima",
      "logement_details": "Uminomiya",
      "logement_type": "Appartement",
      "coloc": "Village océanique, chez <a href=\"/u96\">@Amokna Nyl</a>",
      "pseudo": "jabberwocky",
      "faceclaim": "Kim Jungwoo",
      "image": "https://images2.imgbox.com/84/36/n04NSzDC_o.png",
      "credits": "wh",
      "fiche": "https://isekai-monogatari.forumactif.com/t1684-tout-en-haut-du-mat-tsuru",
      "jdb": "https://isekai-monogatari.forumactif.com/t1718-hey-wake-up-i-m-taking-you-on-an-adventure-tsuru",
      "intouche": "No",
      "cosmo_cap": "No"
    },
    {
      "nom": "Evangeline Spencer",
      "profilID": "29",
      "type": "Inventé.e",
      "plURL": "",
      "prenom": "Evangeline",
      "surnom": "Evie",
      "ndf": "Spencer",
      "dob": "31/12/1999",
      "parti1": "",
      "parti2": "",
      "ronin_details": "",
      "animal": "",
      "mangetsuki_details": "",
      "maison": "Hiisa",
      "promo": "2017",
      "ecole": "Tintagel",
      "occupation1": "Étudiant.e",
      "occupation_lieu1": "",
      "occupation_details1": "",
      "occupation2": "Autres",
      "occupation_lieu2": "",
      "occupation_details2": "Technomage stagiaire chez Spencer Inc.",
      "dustquash": "No",
      "cursus1": "Technomagie",
      "cursus1_annee": "6e",
      "cursus2": "APSC",
      "cursus2_annee": "6e",
      "option1": "Magie Élémentaire (Feu)",
      "option2": "Mindweaving",
      "cosmoball": "Yes",
      "cosmo_equipe": "Silver Hydra",
      "cosmo_poste": "Skyrunner",
      "cosmo_cap": "Yes",
      "logement": "Chuo-Kōei",
      "logement_details": "Kabi-dōri",
      "logement_type": "Penthouse",
      "coloc": "",
      "pseudo": "invy",
      "faceclaim": "Lili Reinhart",
      "image": "https://64.media.tumblr.com/27c0835ab223197d148f7100cb664385/15afc60a15d3514d-2f/s400x600/5b2ff1e8885276a383014aa30766e6367312b6c3.pnj",
      "credits": "detjuliuspepperwood",
      "fiche": "https://isekai-monogatari.forumactif.com/t191-evie-cause-tonight-i-d-be-the-happiest-girl",
      "jdb": "https://isekai-monogatari.forumactif.com/t1158-evie-i-can-buy-myself-flowers",
      "intouche": "No",
      "ryu": "No"
    },

    {
      "nom": "Ji Mini",
      "profilID": "9",
      "type": "Inventé.e",
      "plURL": "",
      "prenom": "Mini",
      "surnom": "",
      "ndf": "Ji",
      "dob": "27/02/1998",
      "parti1": "",
      "parti2": "",
      "ronin_details": "",
      "animal": "",
      "mangetsuki_details": "",
      "maison": "Dojin",
      "promo": "2017",
      "ecole": "Wakoku",
      "occupation1": "Étudiant.e",
      "occupation_lieu1": "",
      "occupation_details1": "",
      "occupation2": "",
      "occupation_lieu2": "",
      "occupation_details2": "",
      "dustquash": "No",
      "cursus1": "SNEP",
      "cursus1_annee": "7e",
      "cursus2": "",
      "cursus2_annee": "",
      "option1": "",
      "option2": "",
      "cosmoball": "No",
      "cosmo_equipe": "",
      "cosmo_poste": "",
      "logement": "Chuo-Kōei",
      "logement_details": "Mirai-chō",
      "logement_type": "Appartement",
      "coloc": "",
      "pseudo": "Patrocle",
      "faceclaim": "Choi Chanhee",
      "image": "https://images2.imgbox.com/db/2d/oFuh4pWK_o.png",
      "credits": " moonaetics",
      "fiche": "https://isekai-monogatari.forumactif.com/t95-mini",
      "jdb": "https://isekai-monogatari.forumactif.com/t305-moon-mini",
      "intouche": "No",
      "ryu": "No",
      "cosmo_cap": "No"
    }, 

    {
      "nom": "No Hauru",
      "profilID": "53",
      "type": "Inventé.e",
      "plURL": "",
      "prenom": "Hauru",
      "surnom": "",
      "ndf": "No",
      "dob": "01/01/1998",
      "parti1": "",
      "parti2": "",
      "ronin_details": "",
      "animal": "",
      "mangetsuki_details": "",
      "maison": "Hiisa",
      "promo": "2017",
      "ecole": "Wakoku",
      "occupation1": "Étudiant.e",
      "occupation_lieu1": "",
      "occupation_details1": "",
      "occupation2": "Hôtellerie",
      "occupation_lieu2": "Munchie's",
      "occupation_details2": "Employé.e",
      "dustquash": "No",
      "cursus1": "Histoire",
      "cursus1_annee": "7e",
      "cursus2": "",
      "cursus2_annee": "",
      "option1": "",
      "option2": "",
      "cosmoball": "No",
      "cosmo_equipe": "",
      "cosmo_poste": "",
      "logement": "Shinmeidai",
      "logement_details": "Campus de Tokidai",
      "logement_type": "Appartement",
      "coloc": "Avec <a href=\"/u173\">@Minami Noriko</a>",
      "pseudo": "Patrocle",
      "faceclaim": "Kim Sunwoo",
      "image": "https://images2.imgbox.com/4d/c9/r2XAFat2_o.png",
      "credits": "Skate Vibe",
      "fiche": "https://isekai-monogatari.forumactif.com/t138-naufrage-etoile-hauru",
      "jdb": "https://isekai-monogatari.forumactif.com/t1918-i-try-to-tell-myself-it-ll-be-all-right-hauru",
      "intouche": "No",
      "ryu": "No",
      "cosmo_cap": "No"
    }, 

    {
      "nom": "Nakagawa Akihito",
      "profilID": "61",
      "type": "Inventé.e",
      "plURL": "",
      "prenom": "Akihito",
      "surnom": "",
      "ndf": "Nakagawa",
      "dob": "15/05/1995",
      "ryu": "Yes",
      "parti1": "",
      "parti2": "",
      "ronin_details": "",
      "animal": "",
      "mangetsuki_details": "",
      "maison": "Raiyo",
      "promo": "2013",
      "ecole": "Grenadines",
      "occupation1": "Arts et Médias",
      "occupation_lieu1": "",
      "occupation_details1": "Chanteur et compositeur",
      "occupation2": "Arts et Médias",
      "occupation_lieu2": "",
      "occupation_details2": "Influenceur",
      "dustquash": "No",
      "cursus1": "",
      "cursus1_annee": "",
      "cursus2": "",
      "cursus2_annee": "",
      "option1": "",
      "option2": "",
      "cosmoball": "No",
      "cosmo_equipe": "",
      "cosmo_poste": "",
      "logement": "Tenchijima",
      "logement_details": "Uminomiya",
      "logement_type": "Dortoir",
      "coloc": "Village Océanique",
      "pseudo": "Patrocle",
      "faceclaim": "Conan Gray",
      "image": "https://images2.imgbox.com/5e/c9/F1SvJZc4_o.png",
      "credits": "moonaetics",
      "fiche": "https://isekai-monogatari.forumactif.com/t2158-what-was-i-made-for-akihito",
      "jdb": "https://isekai-monogatari.forumactif.com",
      "intouche": "No",
      "cosmo_cap": "No"
    },

    {
      "nom": "Kurenai Sia",
      "profilID": "69",
      "type": "Inventé.e",
      "plURL": "",
      "prenom": "Sia",
      "surnom": "",
      "ndf": "Kurenai",
      "dob": "05/11/1994",
      "parti1": "",
      "parti2": "",
      "ronin_details": "",
      "animal": "",
      "mangetsuki_details": "",
      "maison": "Fugi",
      "promo": "2012",
      "ecole": "Chuo-Kōei",
      "occupation1": "Commerce",
      "occupation_lieu1": "Lylarian",
      "occupation_details1": "Fleuriste",
      "occupation2": "",
      "occupation_lieu2": "",
      "occupation_details2": "",
      "dustquash": "No",
      "cursus1": "",
      "cursus1_annee": "",
      "cursus2": "",
      "cursus2_annee": "",
      "option1": "",
      "option2": "",
      "cosmoball": "No",
      "cosmo_equipe": "",
      "cosmo_poste": "",
      "logement": "Chuo-Kōei",
      "logement_details": "Mirai-chō",
      "logement_type": "Penthouse",
      "coloc": "Avec <a href=\"/u14\">@Guo Ailin</a>",
      "pseudo": "Patrocle",
      "faceclaim": "Lee Jieun",
      "image": "https://i.imgur.com/uaEYcdp.png",
      "credits": "pastbreathing",
      "fiche": "https://isekai-monogatari.forumactif.com/t171-aphrodite-sia",
      "jdb": "https://isekai-monogatari.forumactif.com/t2019-everytime-you-kissed-me-sia",
      "intouche": "No",
      "ryu": "No",
      "cosmo_cap": "No"
    },

    {
      "nom": "Esraa Nyok",
      "profilID": "80",
      "type": "Scénario",
      "plURL": "https://isekai-monogatari.forumactif.com/t2041-f-reservee-deep-blue-but-you-painted-me-golden",
      "prenom": "Esraa",
      "surnom": "",
      "ndf": "Nyok",
      "dob": "01/09/1994",
      "parti1": "Henjin",
      "parti2": "",
      "ronin_details": "",
      "animal": "",
      "mangetsuki_details": "",
      "maison": "Dojin",
      "promo": "2012",
      "ecole": "Eiyamachi",
      "occupation1": "Hôtellerie",
      "occupation_lieu1": "Dragon's Den",
      "occupation_details1": "Barmaid",
      "occupation2": "",
      "occupation_lieu2": "",
      "occupation_details2": "",
      "dustquash": "No",
      "cursus1": "",
      "cursus1_annee": "",
      "cursus2": "",
      "cursus2_annee": "",
      "option1": "",
      "option2": "",
      "cosmoball": "No",
      "cosmo_equipe": "",
      "cosmo_poste": "",
      "logement": "Eiyamachi",
      "logement_details": "Komeikyū",
      "logement_type": "Appartement",
      "coloc": "Avec <a href=\"/u93\">@Kayn Ashkan</a> et [i]Sawatari Hajime[/i] (PNJ)",
      "pseudo": "Patrocle",
      "faceclaim": "Adut Akech",
      "image": "https://i.imgur.com/bEXMRUs.png",
      "credits": " Patrocle",
      "fiche": "https://isekai-monogatari.forumactif.com/t2133-take-me-back-in-time-esraa",
      "jdb": "https://isekai-monogatari.forumactif.com",
      "intouche": "No",
      "ryu": "No",
      "cosmo_cap": "No"
    },

    {
      "nom": "Awae Niran",
      "profilID": "142",
      "type": "Pré-lien",
      "plURL": "https://isekai-monogatari.forumactif.com/t383-i-needed-to-hate-you-to-love-me-m",
      "prenom": "Niran",
      "surnom": "",
      "ndf": "Awae",
      "dob": "01/08/1999",
      "parti1": "Reiketsuki",
      "parti2": "",
      "ronin_details": "",
      "animal": "",
      "mangetsuki_details": "",
      "maison": "Suisei",
      "promo": "2017",
      "ecole": "Shinmeidai",
      "occupation1": "Étudiant.e",
      "occupation_lieu1": "",
      "occupation_details1": "",
      "occupation2": "Santé",
      "occupation_lieu2": "CHUM",
      "occupation_details2": "Interne en pédiatrie",
      "dustquash": "No",
      "cursus1": "Médicomagie",
      "cursus1_annee": "6e",
      "cursus2": "",
      "cursus2_annee": "",
      "option1": "",
      "option2": "",
      "cosmoball": "No",
      "cosmo_equipe": "",
      "cosmo_poste": "",
      "logement": "Chuo-Kōei",
      "logement_details": "Ryūbashi-hiroba",
      "logement_type": "Appartement",
      "coloc": "",
      "pseudo": "Patrocle",
      "faceclaim": "Jeff Satur",
      "image": "https://i.imgur.com/sUTPmnA.png",
      "credits": "Patrocle",
      "fiche": "https://isekai-monogatari.forumactif.com/t791-niran",
      "jdb": "https://isekai-monogatari.forumactif.com",
      "intouche": "No",
      "ryu": "No",
      "cosmo_cap": "No"
    },

    {
      "nom": "Liú Qing",
      "profilID": "196",
      "type": "Inventé.e",
      "plURL": "",
      "prenom": "Qing",
      "surnom": "",
      "ndf": "Liú",
      "dob": "14/09/1999",
      "parti1": "Mangetsuki",
      "parti2": "",
      "ronin_details": "",
      "animal": "",
      "mangetsuki_details": "Shinrō",
      "maison": "Suisei",
      "promo": "2017",
      "ecole": "Shinmeidai",
      "occupation1": "Étudiant.e",
      "occupation_lieu1": "",
      "occupation_details1": "",
      "occupation2": "",
      "occupation_lieu2": "",
      "occupation_details2": "",
      "dustquash": "No",
      "cursus1": "Économie",
      "cursus1_annee": "6e",
      "cursus2": "",
      "cursus2_annee": "",
      "option1": "",
      "option2": "",
      "cosmoball": "No",
      "cosmo_equipe": "",
      "cosmo_poste": "",
      "logement": "Chuo-Kōei",
      "logement_details": "Seikikō",
      "logement_type": "Maison",
      "coloc": "Avec <a href=\"/u241\">@Liú Huan</a>",
      "pseudo": "Patrocle",
      "faceclaim": "Zhou Jieqiong",
      "image": "https://images2.imgbox.com/5d/04/XlTUXwxj_o.png",
      "credits": "Moonaetics",
      "fiche": "https://isekai-monogatari.forumactif.com/t1273-o-terror-in-resonance-qing",
      "jdb": "https://isekai-monogatari.forumactif.com",
      "intouche": "No",
      "ryu": "No",
      "cosmo_cap": "No"
    },

    {
      "nom": "Xià Nanami",
      "profilID": "185",
      "type": "Inventé.e",
      "plURL": "",
      "prenom": "Nanami",
      "surnom": "",
      "ndf": "Xià",
      "dob": "25/12/2000",
      "parti1": "",
      "parti2": "",
      "ronin_details": "",
      "animal": "",
      "mangetsuki_details": "",
      "maison": "Fugi",
      "promo": "2018",
      "ecole": "Shinmeidai",
      "occupation1": "Étudiant.e",
      "occupation_lieu1": "",
      "occupation_details1": "",
      "occupation2": "",
      "occupation_lieu2": "",
      "occupation_details2": "",
      "dustquash": "No",
      "cursus1": "MAE",
      "cursus1_annee": "5e",
      "cursus2": "",
      "cursus2_annee": "",
      "option1": "",
      "option2": "",
      "cosmoball": "No",
      "cosmo_equipe": "",
      "cosmo_poste": "",
      "logement": "Shinmeidai",
      "logement_details": "Kimokusei-dōri",
      "logement_type": "Appartement",
      "coloc": "Avec <a href=\"/u240\">@Blue Lily Hills</a>",
      "pseudo": "Patrocle",
      "faceclaim": "Kim Minjung",
      "image": "https://images2.imgbox.com/b5/25/GuseExo0_o.png",
      "credits": "Moonaetics",
      "fiche": "https://isekai-monogatari.forumactif.com/t1742-the-meaning-of-us-finding-each-other-nanami",
      "jdb": "https://isekai-monogatari.forumactif.com",
      "intouche": "No",
      "ryu": "No",
      "cosmo_cap": "No"
    },

    {
      "nom": "June Hadley",
      "profilID": "229",
      "type": "Scénario",
      "plURL": "https://isekai-monogatari.forumactif.com/t1905-f-prise-on-and-on-and-on-june-hadley",
      "prenom": "Hadley",
      "surnom": "",
      "ndf": "June",
      "dob": "26/09/1995",
      "parti1": "Yumegaka",
      "parti2": "",
      "ronin_details": "",
      "animal": "",
      "mangetsuki_details": "",
      "maison": "Raiyo",
      "promo": "2013",
      "ecole": "Tintagel",
      "occupation1": "Justice",
      "occupation_lieu1": "Ministère de Makōsa",
      "occupation_details1": "Employée",
      "occupation2": "",
      "occupation_lieu2": "",
      "occupation_details2": "",
      "dustquash": "No",
      "cursus1": "",
      "cursus1_annee": "",
      "cursus2": "",
      "cursus2_annee": "",
      "option1": "",
      "option2": "",
      "cosmoball": "No",
      "cosmo_equipe": "",
      "cosmo_poste": "",
      "logement": "Chuo-Kōei",
      "logement_details": "Seikikō",
      "logement_type": "Maison",
      "coloc": "Avec <a href=\"/u230\">@Oliver Hadley</a>",
      "pseudo": "Patrocle",
      "faceclaim": "Florence Pugh",
      "image": "https://i.imgur.com/9rUUutV.png",
      "credits": "SKATE VIBE",
      "fiche": "https://isekai-monogatari.forumactif.com/t1962-comptine-d-un-autre-ete-june",
      "jdb": "https://isekai-monogatari.forumactif.com",
      "intouche": "No",
      "ryu": "No",
      "cosmo_cap": "No"
    },
    
    {
      "nom": "Mazra Heller-White",
      "profilID": "16",
      "type": "Inventé.e",
      "plURL": "",
      "prenom": "Mazra",
      "surnom": "",
      "ndf": "Heller-White",
      "dob": "20/12/1998",
      "parti1": "",
      "parti2": "",
      "ronin_details": "",
      "animal": "",
      "mangetsuki_details": "",
      "maison": "Hiisa",
      "promo": "2016",
      "ecole": "Salem",
      "occupation1": "Étudiant.e",
      "occupation_lieu1": "",
      "occupation_details1": "",
      "occupation2": "",
      "occupation_lieu2": "",
      "occupation_details2": "",
      "dustquash": "Yes",
      "cursus1": "Brigades Spéciales",
      "cursus1_annee": "5e",
      "cursus2": "",
      "cursus2_annee": "",
      "option1": "Mindweaving",
      "option2": "",
      "cosmoball": "No",
      "cosmo_equipe": "",
      "cosmo_poste": "",
      "logement": "Chuo-Kōei",
      "logement_details": "Mirai-chō",
      "logement_type": "Penthouse",
      "coloc": "Avec <a href=\"/u52\">@Erin Heller-Aldridge</a>",
      "pseudo": "cstm",
      "faceclaim": "Madelyn Cline",
      "image": "https://64.media.tumblr.com/3bccd370b72062ff81738f26922e8140/6b008359c80eb1f7-95/s500x750/157ddfc648856ad0fa8074c4505adf6eabe17906.jpg",
      "credits": "ultraviolences",
      "fiche": "https://isekai-monogatari.forumactif.com/t92-you-like-your-girls-insane-mazra",
      "jdb": "https://isekai-monogatari.forumactif.com/t206-the-fight-club-is-her-temple",
      "intouche": "No",
      "ryu": "No",
      "cosmo_cap": "No"
    },

    {
      "nom": "Romeo Maitland",
      "profilID": "137",
      "type": "Inventé.e",
      "plURL": "",
      "prenom": "Romeo",
      "surnom": "Crash",
      "ndf": "Maitland",
      "dob": "01/08/2001",
      "parti1": "Henjin",
      "parti2": "",
      "ronin_details": "",
      "animal": "",
      "mangetsuki_details": "",
      "maison": "Raiyo",
      "promo": "2019",
      "ecole": "Eiyamachi",
      "occupation1": "Étudiant.e",
      "occupation_lieu1": "",
      "occupation_details1": "",
      "occupation2": "Illégalité",
      "occupation_lieu2": "",
      "occupation_details2": "Coureur (Chromatic Drift League)",
      "dustquash": "No",
      "cursus1": "Technomagie",
      "cursus1_annee": "5e",
      "cursus2": "",
      "cursus2_annee": "",
      "option1": "",
      "option2": "",
      "cosmoball": "No",
      "cosmo_equipe": "",
      "cosmo_poste": "",
      "logement": "Eiyamachi",
      "logement_details": "Komeikyū",
      "logement_type": "Appartement",
      "coloc": "Avec <a href=\"/u205\">@Neela Barker</a>",
      "pseudo": "cstm",
      "faceclaim": "Louis Partridge",
      "image": "https://images2.imgbox.com/45/ed/rf3p1ehI_o.png",
      "credits": "skate vibe",
      "fiche": "https://isekai-monogatari.forumactif.com/t1466-romeo-still-don-t-know-my-name",
      "jdb": "https://isekai-monogatari.forumactif.com/t2370-crime-of-the-century-romeo",
      "intouche": "No",
      "ryu": "No",
      "cosmo_cap": "No"
    },

    {
      "nom": "Kobori Taizo",
      "profilID": "71",
      "type": "Inventé.e",
      "plURL": "",
      "prenom": "Taizekko",
      "surnom": "Taizo",
      "ndf": "Kobori",
      "dob": "05/05/1989",
      "ryu": "Yes",
      "parti1": "Sōgaka",
      "parti2": "",
      "ronin_details": "",
      "animal": "",
      "mangetsuki_details": "",
      "maison": "Raiyo",
      "promo": "2007",
      "ecole": "Wakoku",
      "occupation1": "Commerce",
      "occupation_lieu1": "Mori'Kobori",
      "occupation_details1": "Herboriste et chimiste",
      "occupation2": "Illégalité",
      "occupation_lieu2": "Arumiopokimi",
      "occupation_details2": "Fabricant et trafiquant de drogues",
      "dustquash": "No",
      "cursus1": "",
      "cursus1_annee": "",
      "cursus2": "",
      "cursus2_annee": "",
      "option1": "",
      "option2": "",
      "cosmoball": "No",
      "cosmo_equipe": "",
      "cosmo_poste": "",
      "logement": "Tenchijima",
      "logement_details": "Uminomiya",
      "logement_type": "Maison",
      "coloc": "Avec <i>Kobori Kizuko</i> (père, PNJ)",
      "pseudo": "OKAYori",
      "faceclaim": "Tsuneta Daiki",
      "image": "https://i.imgur.com/xxjgKTi.jpg",
      "credits": "OKAYori",
      "fiche": "https://isekai-monogatari.forumactif.com/t167-taizo-tu-veux-d-la-t-as-plus-de-ouais-vas-y-passe-pecho",
      "jdb": "https://isekai-monogatari.forumactif.com/t223-taizo-my-mojo-so-dope",
      "intouche": "No",
      "cosmo_cap": "No"
    },
    {
      "nom": "Sawano Akira",
      "profilID": "8",
      "type": "Inventé.e",
      "plURL": "",
      "prenom": "Akira",
      "surnom": "",
      "ndf": "Sawano",
      "dob": "15/11/1995",
      "parti1": "Rōnin",
      "parti2": "",
      "ronin_details": "Incarnation de la colère (démon oni)",
      "animal": "",
      "mangetsuki_details": "",
      "maison": "Hiisa",
      "promo": "2014",
      "ecole": "Eiyamachi",
      "occupation1": "Santé",
      "occupation_lieu1": "Caserne des Mages du Feu",
      "occupation_details1": "Mage du feu",
      "occupation2": "Illégalité",
      "occupation_lieu2": "Temple d'Izanami",
      "occupation_details2": "Combattant",
      "dustquash": "No",
      "cursus1": "",
      "cursus1_annee": "",
      "cursus2": "",
      "cursus2_annee": "",
      "option1": "",
      "option2": "",
      "cosmoball": "No",
      "cosmo_equipe": "",
      "cosmo_poste": "",
      "logement": "Shinmeidai",
      "logement_details": "Kimokusei-dōri",
      "logement_type": "Appartement",
      "coloc": "Avec <a href=\"/u60\">@Andrea Davis</a> et <a href=\"/u4\">@Keeng Saem</a>",
      "pseudo": "OKAYori",
      "faceclaim": "Kwon Minsik (Sik-K)",
      "image": "https://i.imgur.com/Asr4wry.jpg",
      "credits": "OKAYori",
      "fiche": "https://isekai-monogatari.forumactif.com/t122-akira-i-found-peace-in-violence",
      "jdb": "https://isekai-monogatari.forumactif.com/t157-akira-warning-easily-provoked-heavily-armed",
      "intouche": "No",
      "ryu": "No",
      "cosmo_cap": "No"
    },

    {
      "nom": "Guo Ailin",
      "profilID": "14",
      "type": "Inventé.e",
      "plURL": "",
      "prenom": "Ailin",
      "surnom": "",
      "ndf": "Guo",
      "dob": "12/02/1997",
      "parti1": "",
      "parti2": "",
      "ronin_details": "",
      "animal": "",
      "mangetsuki_details": "",
      "maison": "Hiisa",
      "promo": "2015",
      "ecole": "Wakoku",
      "occupation1": "Commerce",
      "occupation_lieu1": "Ranbiki-bu",
      "occupation_details1": "Employé",
      "occupation2": "",
      "occupation_lieu2": "",
      "occupation_details2": "",
      "dustquash": "No",
      "cursus1": "",
      "cursus1_annee": "",
      "cursus2": "",
      "cursus2_annee": "",
      "option1": "",
      "option2": "",
      "cosmoball": "No",
      "cosmo_equipe": "",
      "cosmo_poste": "",
      "logement": "Chuo-Kōei",
      "logement_details": "Mirai-chō",
      "logement_type": "Penthouse",
      "coloc": "Avec <a href=\"/u69\">Kurenai Sia</a>",
      "pseudo": "Hanatsuki",
      "faceclaim": "Xu Minghao",
      "image": "https://images2.imgbox.com/90/ee/mUYTaTMt_o.png",
      "credits": "Moonaetics",
      "fiche": "https://isekai-monogatari.forumactif.com/t97-cigarettes-and-candles-ailin",
      "jdb": "https://isekai-monogatari.forumactif.com/t97-cigarettes-and-candles-ailin",
      "intouche": "No",
      "ryu": "No",
      "cosmo_cap": "No"
    },

    {
      "nom": "Niccolò Ranieri",
      "profilID": "51",
      "type": "Inventé.e",
      "plURL": "",
      "prenom": "Niccolò",
      "surnom": "Nicco",
      "ndf": "Ranieri",
      "dob": "25/03/1997",
      "parti1": "",
      "parti2": "",
      "ronin_details": "",
      "animal": "",
      "mangetsuki_details": "",
      "maison": "Suisei",
      "promo": "2015",
      "ecole": "Dimitrescu",
      "occupation1": "Étudiant.e",
      "occupation_lieu1": "",
      "occupation_details1": "",
      "occupation2": "Illégalité",
      "occupation_lieu2": "",
      "occupation_details2": "Mafieux",
      "dustquash": "No",
      "cursus1": "Économie",
      "cursus1_annee": "8e",
      "cursus2": "",
      "cursus2_annee": "",
      "option1": "Magie Élémentaire (Eau)",
      "option2": "",
      "cosmoball": "Yes",
      "cosmo_equipe": "Great White Chimeras",
      "cosmo_poste": "Skyrunner",
      "logement": "Eiyamachi",
      "logement_details": "Genkō-yokocho",
      "logement_type": "Loft",
      "coloc": "Avec <a href=\"/u23\">@Marlon Rookwood</a>",
      "pseudo": "cstm",
      "faceclaim": "Charles Leclerc",
      "image": "https://images2.imgbox.com/d6/89/1oGiNcTy_o.png",
      "credits": "castamere",
      "fiche": "https://isekai-monogatari.forumactif.com/t130-in-memory-of-when-i-cared-nicco",
      "jdb": "https://isekai-monogatari.forumactif.com/t479-kill-the-boy-and-let-the-man-be-born-nicco",
      "intouche": "No",
      "ryu": "No",
      "cosmo_cap": "No"
    },

    {
      "nom": "Andrea Davis",
      "profilID": "60",
      "type": "Inventé.e",
      "plURL": "",
      "prenom": "Andrea ",
      "surnom": "",
      "ndf": "Davis",
      "dob": "29/12/1997",
      "parti1": "Mangetsuki",
      "parti2": "",
      "ronin_details": "",
      "animal": "",
      "mangetsuki_details": "Shinrō",
      "maison": "Hiisa",
      "promo": "2015",
      "ecole": "Shinmeidai",
      "occupation1": "Étudiant.e",
      "occupation_lieu1": "",
      "occupation_details1": "",
      "occupation2": "Sports",
      "occupation_lieu2": "Tensai Stadium",
      "occupation_details2": "Joueur professionnel de cosmoball",
      "dustquash": "No",
      "cursus1": "Médicomagie",
      "cursus1_annee": "6e",
      "cursus2": "",
      "cursus2_annee": "",
      "option1": "",
      "option2": "",
      "cosmoball": "Yes",
      "cosmo_equipe": "Silver Hydra",
      "cosmo_poste": "Stargazer",
      "logement": "Shinmeidai",
      "logement_details": "Kimokusei-dōri",
      "logement_type": "Appartement",
      "coloc": "Avec <a href=\"/u8\">@Sawano Akira</a> et <a href=\"/u4\">@Keeng Saem</a>",
      "pseudo": "charme.different",
      "faceclaim": "Timothée Chalamet",
      "image": "https://images2.imgbox.com/09/9b/FCXXUut0_o.png",
      "credits": "Patrocle",
      "fiche": "https://isekai-monogatari.forumactif.com/t160-man-on-the-moon-andrea",
      "jdb": "https://isekai-monogatari.forumactif.com/t2266-dyodeff-a-goresgyn-andrea",
      "intouche": "No",
      "ryu": "No",
      "cosmo_cap": "No"
    },

    {
      "nom": "Liú Huan",
      "profilID": "241",
      "type": "Scénario",
      "plURL": "https://isekai-monogatari.forumactif.com/t1913-f-reservee-sisters-are-different-flowers-from-the-same-garden",
      "prenom": "Huan",
      "surnom": "",
      "ndf": "Liú",
      "dob": "12/05/2002",
      "parti1": "Yumegaka",
      "parti2": "",
      "ronin_details": "",
      "animal": "",
      "mangetsuki_details": "",
      "maison": "Dojin",
      "promo": "2020",
      "ecole": "Chuo-Kōei",
      "occupation1": "Étudiant.e",
      "occupation_lieu1": "",
      "occupation_details1": "",
      "occupation2": "Arts et Médias",
      "occupation_lieu2": "",
      "occupation_details2": "Créatrice",
      "dustquash": "No",
      "cursus1": "Mode",
      "cursus1_annee": "3e",
      "cursus2": "",
      "cursus2_annee": "",
      "option1": "",
      "option2": "",
      "cosmoball": "No",
      "cosmo_equipe": "",
      "cosmo_poste": "",
      "logement": "Chuo-Kōei",
      "logement_details": "Seikikō",
      "logement_type": "Maison",
      "coloc": "Avec <a href=\"/u196\">@Liú Qing</a>",
      "pseudo": "sam / playmobil",
      "faceclaim": "Shen Xiaoting",
      "image": "https://images2.imgbox.com/45/24/g3RrioeN_o.png",
      "credits": "moonlight",
      "fiche": "https://isekai-monogatari.forumactif.com/t2117-lucid-huan",
      "jdb": "https://isekai-monogatari.forumactif.com/t2243-night-flower-huan",
      "intouche": "No",
      "ryu": "No",
      "cosmo_cap": "No"
    },

    {
      "nom": "Fuyutsuki Satoru",
      "profilID": "248",
      "type": "Inventé.e",
      "plURL": "",
      "prenom": "Satoru",
      "surnom": "",
      "ndf": "Fuyutsuki",
      "dob": "12/11/1997",
      "parti1": "",
      "parti2": "",
      "ronin_details": "",
      "animal": "",
      "mangetsuki_details": "",
      "maison": "Raiyo",
      "promo": "2015",
      "ecole": "Shinmeidai",
      "occupation1": "Éducation",
      "occupation_lieu1": "Tokidai",
      "occupation_details1": "Assistant professeur",
      "occupation2": "Autres",
      "occupation_lieu2": "",
      "occupation_details2": "Technicien aquariologiste",
      "dustquash": "Yes",
      "cursus1": "",
      "cursus1_annee": "",
      "cursus2": "",
      "cursus2_annee": "",
      "option1": "",
      "option2": "",
      "cosmoball": "No",
      "cosmo_equipe": "",
      "cosmo_poste": "",
      "logement": "Wakoku",
      "logement_details": "Yanagizaka",
      "logement_type": "Maison",
      "coloc": "Avec <a href=\"/u252\">@Sugimoto Ruri</a>",
      "pseudo": "sam / playmobil",
      "faceclaim": "Kevin (TBZ)",
      "image": "https://images2.imgbox.com/4e/09/tJs7AC1X_o.png",
      "credits": "voidwitch",
      "fiche": "https://isekai-monogatari.forumactif.com/t2227-all-the-rage-satoru",
      "jdb": "https://isekai-monogatari.forumactif.com/t2289-neige-sur-le-sable",
      "intouche": "No",
      "ryu": "No",
      "cosmo_cap": "No"
    },

    {
      "nom": "Louise Greenwood",
      "profilID": "42",
      "type": "Inventé.e",
      "plURL": "",
      "prenom": "Louise",
      "surnom": "",
      "ndf": "Greenwood",
      "dob": "08/09/2000",
      "parti1": "",
      "parti2": "",
      "ronin_details": "",
      "animal": "",
      "mangetsuki_details": "",
      "maison": "Raiyo",
      "promo": "2018",
      "ecole": "Tintagel",
      "occupation1": "Étudiant.e",
      "occupation_lieu1": "",
      "occupation_details1": "",
      "occupation2": "",
      "occupation_lieu2": "",
      "occupation_details2": "",
      "dustquash": "Yes",
      "cursus1": "EFFM",
      "cursus1_annee": "6e",
      "cursus2": "",
      "cursus2_annee": "",
      "option1": "",
      "option2": "",
      "cosmoball": "Yes",
      "cosmo_equipe": "Silver Hydra",
      "cosmo_poste": "Skyrunner",
      "logement": "Shinmeidai",
      "logement_details": "Sōritsu Plaza",
      "logement_type": "Maison",
      "coloc": "",
      "pseudo": "moldy",
      "faceclaim": "Billie Eilish",
      "image": "https://i.imgur.com/rEH0B6Q.png",
      "credits": "villetchuckie",
      "fiche": "https://isekai-monogatari.forumactif.com/t127-chaos",
      "jdb": "https://isekai-monogatari.forumactif.com/t359-louise-walking-on-sunshine",
      "intouche": "No",
      "ryu": "No",
      "cosmo_cap": "No"
    },

    {
      "nom": "Yi Anzu",
      "profilID": "243",
      "type": "Inventé.e",
      "plURL": "",
      "prenom": "Anzu",
      "surnom": "",
      "ndf": "Yi",
      "dob": "15/04/1999",
      "parti1": "",
      "parti2": "",
      "ronin_details": "",
      "animal": "",
      "mangetsuki_details": "",
      "maison": "Raiyo",
      "promo": "2017",
      "ecole": "",
      "occupation1": "Étudiant.e",
      "occupation_lieu1": "",
      "occupation_details1": "",
      "occupation2": "Hôtellerie",
      "occupation_lieu2": "Jacquois le Bourgeois",
      "occupation_details2": "Barmaid",
      "dustquash": "No",
      "cursus1": "MAE",
      "cursus1_annee": "4e",
      "cursus2": "",
      "cursus2_annee": "",
      "option1": "Magie Élémentaire (Eau)",
      "option2": "Magie Élémentaire (Foudre)",
      "cosmoball": "No",
      "cosmo_equipe": "",
      "cosmo_poste": "",
      "logement": "Chuo-Kōei",
      "logement_details": "Seikikō",
      "logement_type": "Maison",
      "coloc": "",
      "pseudo": "judas",
      "faceclaim": "Karina (Yu Jimin)",
      "image": "https://64.media.tumblr.com/75554fc132bcfab246ea3ade1f4b1f1d/f522dfc110fbc388-5d/s500x750/f9b71506157b89c58c0eb9b6575c34534c3697ac.pnj",
      "credits": "childish",
      "fiche": "https://isekai-monogatari.forumactif.com/t2129-drink-me-anzu",
      "jdb": "https://isekai-monogatari.forumactif.com/t2217-asshle-comedy-club-anzu",
      "intouche": "No",
      "ryu": "No",
      "cosmo_cap": "No"
    },

    {
      "nom": "Sugimoto Ruri",
      "profilID": "252",
      "type": "Inventé.e",
      "plURL": "",
      "prenom": "Ruri",
      "surnom": "",
      "ndf": "Sugimoto",
      "dob": "29/03/1997",
      "parti1": "Mangetsuki",
      "parti2": "",
      "ronin_details": "",
      "animal": "",
      "mangetsuki_details": "Shoshinrō",
      "maison": "Fugi",
      "promo": "2015",
      "ecole": "Shinmeidai",
      "occupation1": "Étudiant.e",
      "occupation_lieu1": "",
      "occupation_details1": "",
      "occupation2": "Fonction Publique",
      "occupation_lieu2": "Ministère de Makōsa",
      "occupation_details2": "Alternante",
      "dustquash": "No",
      "cursus1": "Droit",
      "cursus1_annee": "8e",
      "cursus2": "Langues",
      "cursus2_annee": "",
      "option1": "",
      "option2": "",
      "cosmoball": "No",
      "cosmo_equipe": "",
      "cosmo_poste": "",
      "logement": "Wakoku",
      "logement_details": "Yanagizaka",
      "logement_type": "Maison",
      "coloc": "Avec <a href=\"/u248\">@Fuyutsuki Satoru</a>",
      "pseudo": "judas",
      "faceclaim": "Park Sooyoung (Joy)",
      "image": "https://64.media.tumblr.com/4950d8bea138170bf2bb7be2b4ce8a9b/7d1f63c9072b61e3-e9/s500x750/f6240348e377301bfd3bd5840a64df52c695d995.pnj",
      "credits": "little liars",
      "fiche": "https://isekai-monogatari.forumactif.com/t2251-anti-karma-ruri",
      "jdb": "https://isekai-monogatari.forumactif.com/t2378-grey-violets-ruri",
      "intouche": "No",
      "ryu": "No",
      "cosmo_cap": "No"
    },

    {
      "nom": "Oscar Rojas",
      "profilID": "77",
      "type": "Inventé.e",
      "plURL": "",
      "prenom": "Oscar",
      "surnom": "",
      "ndf": "Rojas",
      "dob": "13/04/1975",
      "parti1": "",
      "parti2": "",
      "ronin_details": "",
      "animal": "",
      "mangetsuki_details": "",
      "maison": "Suisei",
      "promo": "1993",
      "ecole": "Shinmeidai",
      "occupation1": "Éducation",
      "occupation_lieu1": "Tokimitsu Jujutsu Daigaku",
      "occupation_details1": "Maître de maison, Professeur (Flux de Poussière)",
      "occupation2": "",
      "occupation_lieu2": "",
      "occupation_details2": "",
      "dustquash": "No",
      "cursus1": "",
      "cursus1_annee": "",
      "cursus2": "",
      "cursus2_annee": "",
      "option1": "",
      "option2": "",
      "cosmoball": "No",
      "cosmo_equipe": "",
      "cosmo_poste": "",
      "logement": "Wakoku",
      "logement_details": "Yanagizaka",
      "logement_type": "Maison",
      "coloc": "",
      "pseudo": "Patrocle",
      "faceclaim": "Pedro Pascal",
      "image": "https://64.media.tumblr.com/1d018f4a0e992a711a8ccefb1f489091/2eadf8958c99e0b3-4f/s500x750/93e082a16bbbb9f6897bbb81fb14aa3774cc0fa6.jpg",
      "credits": "andthesunrisesagain",
      "fiche": "https://isekai-monogatari.forumactif.com/t2285-midnight-city-oscar",
      "jdb": "https://isekai-monogatari.forumactif.com",
      "intouche": "No",
      "ryu": "No",
      "cosmo_cap": "No"
    },

    {
      "nom": "Kugisaki Yumi",
      "profilID": "122",
      "type": "Inventé.e",
      "plURL": "",
      "prenom": "Yumi",
      "surnom": "",
      "ndf": "Kugisaki",
      "dob": "06/01/1997",
      "parti1": "Ryūketsuki",
      "parti2": "Yumegaka",
      "ronin_details": "",
      "animal": "",
      "mangetsuki_details": "",
      "maison": "Dojin",
      "promo": "2015",
      "ecole": "Wakoku",
      "occupation1": "Étudiant.e",
      "occupation_lieu1": "",
      "occupation_details1": "",
      "occupation2": "Arts et Médias",
      "occupation_lieu2": "Bibliothèque Sérendipité",
      "occupation_details2": "Bibliothécaire",
      "dustquash": "No",
      "cursus1": "Brigades Spéciales",
      "cursus1_annee": "8e",
      "cursus2": "",
      "cursus2_annee": "",
      "option1": "Magie Élémentaire (Foudre)",
      "option2": "Mindweaving",
      "cosmoball": "Yes",
      "cosmo_equipe": "Silver Hydra",
      "cosmo_poste": "Skyrunner",
      "logement": "Eiyamachi",
      "logement_details": "Komeikyū",
      "logement_type": "Appartement",
      "coloc": "",
      "pseudo": "Lightwood",
      "faceclaim": "Kim Bora (Sua)",
      "image": "https://64.media.tumblr.com/52405aa55f81339c847b96807018aad7/dda937daffabc048-8d/s500x750/50e514cae08333d512596e12b332f743f66d60af.png",
      "credits": "Moonaetics",
      "fiche": "https://isekai-monogatari.forumactif.com/t1940-un-monde-sans-danger-yumi",
      "jdb": "https://isekai-monogatari.forumactif.com/t2401-dream-monster-yumi",
      "intouche": "No",
      "ryu": "No",
      "cosmo_cap": "No"
    },

    {
      "nom": "Marlon Rookwood",
      "profilID": "23",
      "type": "Inventé.e",
      "plURL": "",
      "prenom": "Marlon",
      "surnom": "",
      "ndf": "Rookwood",
      "dob": "08/04/1997",
      "parti1": "",
      "parti2": "",
      "ronin_details": "",
      "animal": "",
      "mangetsuki_details": "",
      "maison": "Hiisa",
      "promo": "2014",
      "ecole": "Nostradamus",
      "occupation1": "Étudiant.e",
      "occupation_lieu1": "",
      "occupation_details1": "",
      "occupation2": "",
      "occupation_lieu2": "",
      "occupation_details2": "",
      "dustquash": "Yes",
      "cursus1": "Brigades Spéciales",
      "cursus1_annee": "8e",
      "cursus2": "",
      "cursus2_annee": "",
      "option1": "",
      "option2": "",
      "cosmoball": "Yes",
      "cosmo_equipe": "Crimson Dragons",
      "cosmo_poste": "Starkeeper",
      "logement": "Eiyamachi",
      "logement_details": "Genkō-yokocho",
      "logement_type": "Loft",
      "coloc": "Avec <a href=\"/u51\">@Niccolò Ranieri</a>",
      "pseudo": "sighhh",
      "faceclaim": "Jacob Elordi",
      "image": "https://zupimages.net/up/23/09/57pb.jpg",
      "credits": "vellichor",
      "fiche": "https://isekai-monogatari.forumactif.com/t98-__blood-orange-marlon",
      "jdb": "https://isekai-monogatari.forumactif.com/t485-larme-fatale-marlon",
      "intouche": "No",
      "ryu": "No",
      "cosmo_cap": "No"
    },

    {
      "nom": "Erin Heller-Aldridge",
      "profilID": "52",
      "type": "Inventé.e",
      "plURL": "",
      "prenom": "Erin",
      "surnom": "",
      "ndf": "Heller-Aldridge",
      "dob": "17/11/1998",
      "parti1": "Sōgaka",
      "parti2": "",
      "ronin_details": "",
      "animal": "",
      "mangetsuki_details": "",
      "maison": "Fugi",
      "promo": "2016",
      "ecole": "Salem",
      "occupation1": "Étudiant.e",
      "occupation_lieu1": "",
      "occupation_details1": "",
      "occupation2": "",
      "occupation_lieu2": "",
      "occupation_details2": "",
      "dustquash": "No",
      "cursus1": "Droit",
      "cursus1_annee": "8e",
      "cursus2": "",
      "cursus2_annee": "",
      "option1": "",
      "option2": "",
      "cosmoball": "No",
      "cosmo_equipe": "",
      "cosmo_poste": "",
      "logement": "Chuo-Kōei",
      "logement_details": "Mirai-chō",
      "logement_type": "Penthouse",
      "coloc": "Avec <a href=\"/u16\">@Mazra Heller-White</a>",
      "pseudo": "sighhh",
      "faceclaim": "Jessica Alexander",
      "image": "https://www.zupimages.net/up/23/41/t50i.jpg",
      "credits": "labxnairs",
      "fiche": "https://isekai-monogatari.forumactif.com/t174-give-me-a-bitter-glory-erin",
      "jdb": "https://isekai-monogatari.forumactif.com/t491-bad-decisions-make-good-stories-erin",
      "intouche": "No",
      "ryu": "No",
      "cosmo_cap": "No"
    },

    {
      "nom": "Bak Hyejin",
      "profilID": "257",
      "type": "Inventé.e",
      "plURL": "",
      "prenom": "Hyejin",
      "surnom": "",
      "ndf": "Bak",
      "dob": "05/01/2001",
      "parti1": "Gengaka",
      "parti2": "",
      "ronin_details": "",
      "animal": "",
      "mangetsuki_details": "",
      "maison": "Fugi",
      "promo": "2019",
      "ecole": "Chuo-Kōei",
      "occupation1": "Étudiant.e",
      "occupation_lieu1": "",
      "occupation_details1": "",
      "occupation2": "",
      "occupation_lieu2": "",
      "occupation_details2": "",
      "dustquash": "No",
      "cursus1": "Brigades Spéciales",
      "cursus1_annee": "5e",
      "cursus2": "",
      "cursus2_annee": "",
      "option1": "",
      "option2": "",
      "cosmoball": "Yes",
      "cosmo_equipe": "Crimson Dragons",
      "cosmo_poste": "Stargazer",
      "logement": "Chuo-Kōei",
      "logement_details": "Mirai-chō",
      "logement_type": "Penthouse",
      "coloc": "",
      "pseudo": "sam / playmobil",
      "faceclaim": "Giselle (Aespa)",
      "image": "https://64.media.tumblr.com/642a9860c6b30f4ad201b0d4e48bdf1c/1e608141b7177d08-07/s500x750/081c56d7a9765380bac83d61ec3666f2a9f3f494.pnj",
      "credits": "aedolce",
      "fiche": "https://isekai-monogatari.forumactif.com/t2422-fraise-framboise-myrtille#72692",
      "jdb": "https://isekai-monogatari.forumactif.com/t2429-sand-dream#72716",
      "intouche": "No",
      "ryu": "No",
      "cosmo_cap": "No"
    },

    {
      "nom": "Naveen Razdan",
      "profilID": "209",
      "type": "Inventé.e",
      "plURL": "",
      "prenom": "Naveen",
      "surnom": "",
      "ndf": "Razdan",
      "dob": "09/02/1995",
      "parti1": "Rōnin",
      "parti2": "",
      "ronin_details": "Régénération améliorée et instinct de protection exacerbé",
      "animal": "",
      "mangetsuki_details": "",
      "maison": "Suisei",
      "promo": "2010",
      "ecole": "Salem",
      "occupation1": "Divertissement",
      "occupation_lieu1": "Label Ophiuchus",
      "occupation_details1": "PDG, producteur-réalisateur",
      "occupation2": "Éducation",
      "occupation_lieu2": "Tokidai",
      "occupation_details2": "Intervenant en Composition",
      "dustquash": "No",
      "cursus1": "",
      "cursus1_annee": "",
      "cursus2": "",
      "cursus2_annee": "",
      "option1": "",
      "option2": "",
      "cosmoball": "No",
      "cosmo_equipe": "",
      "cosmo_poste": "",
      "logement": "Chuo-Kōei",
      "logement_details": "Seikikō",
      "logement_type": "Penthouse",
      "coloc": "",
      "pseudo": "invy",
      "faceclaim": "Avan Jogia",
      "image": "https://64.media.tumblr.com/143874862ba94d42020ab35dde69b9a7/1e4593b31ac0387f-7e/s500x750/c4e7aa29b8aa4bfc07d225bec473ecb71ace9097.jpg",
      "credits": "lechat-rpg",
      "fiche": "https://isekai-monogatari.forumactif.com/t1495-feel-the-void-naveen",
      "jdb": "https://isekai-monogatari.forumactif.com/t2430-naveen-u-say-sorry-just-for-show",
      "intouche": "No",
      "ryu": "No",
      "cosmo_cap": "No"
    },

    {
      "nom": "Lim Saeri",
      "profilID": "111",
      "type": "Inventé.e",
      "plURL": "",
      "prenom": "Saeri",
      "surnom": "",
      "ndf": "Lim",
      "dob": "01/08/1998",
      "parti1": "Sōgaka",
      "parti2": "",
      "ronin_details": "",
      "animal": "",
      "mangetsuki_details": "",
      "maison": "Hiisa",
      "promo": "2016",
      "ecole": "Chuo-Kōei",
      "occupation1": "Justice",
      "occupation_lieu1": "Brigade de Police de Makōsa",
      "occupation_details1": "Sentinelle",
      "occupation2": "",
      "occupation_lieu2": "",
      "occupation_details2": "",
      "dustquash": "No",
      "cursus1": "",
      "cursus1_annee": "",
      "cursus2": "",
      "cursus2_annee": "",
      "option1": "",
      "option2": "",
      "cosmoball": "No",
      "cosmo_equipe": "",
      "cosmo_poste": "",
      "logement": "Chuo-Kōei",
      "logement_details": "Kabi-dōri",
      "logement_type": "Appartement",
      "coloc": "Avec <a href=\"/u262\">@Bak Ijin</a>",
      "pseudo": "mayoli",
      "faceclaim": "Park Jihyo",
      "image": "https://images2.imgbox.com/14/79/OG7LOycD_o.png",
      "credits": "Patrocle",
      "fiche": "https://isekai-monogatari.forumactif.com/t458-everest-saeri",
      "jdb": "https://isekai-monogatari.forumactif.com/t541-sad-echo-saeri",
      "intouche": "No",
      "ryu": "No",
      "cosmo_cap": "No"
    },

    {
      "nom": "Oliver Hadley",
      "profilID": "230",
      "type": "Scénario",
      "plURL": "https://isekai-monogatari.forumactif.com/t1906-m-pris-a-shot-in-the-heart-oliver-hadley",
      "prenom": "Oliver",
      "surnom": "",
      "ndf": "Hadley",
      "dob": "01/08/1998",
      "parti1": "",
      "parti2": "",
      "ronin_details": "",
      "animal": "",
      "mangetsuki_details": "",
      "maison": "Raiyo",
      "promo": "2013",
      "ecole": "Tintagel",
      "occupation1": "Santé",
      "occupation_lieu1": "CHUM",
      "occupation_details1": "Urgentiste",
      "occupation2": "",
      "occupation_lieu2": "",
      "occupation_details2": "",
      "dustquash": "No",
      "cursus1": "",
      "cursus1_annee": "",
      "cursus2": "",
      "cursus2_annee": "",
      "option1": "",
      "option2": "",
      "cosmoball": "No",
      "cosmo_equipe": "",
      "cosmo_poste": "",
      "logement": "Chuo-Kōei",
      "logement_details": "Seikikō",
      "logement_type": "Maison",
      "coloc": "Avec <a href=\"/u229\">@June Hadley</a>",
      "pseudo": "mayoli",
      "faceclaim": "Kit Young",
      "image": "https://64.media.tumblr.com/b4c59a534e101fbf72a62d51a3fc6933/cbf1499138fa8812-c0/s500x750/d69b58bbfacf97601e8dc2bca2b4b3357145ec53.jpg",
      "credits": "space corgi",
      "fiche": "https://isekai-monogatarihttps://isekai-monogatari.forumactif.com/t1965-as-it-was-o-hadley.forumactif.com/t458-everest-saeri",
      "jdb": "https://isekai-monogatari.forumactif.com/",
      "intouche": "No",
      "ryu": "No",
      "cosmo_cap": "No"
    },

    {
      "nom": "Yun Seok",
      "profilID": "250",
      "type": "Scénario",
      "plURL": "https://isekai-monogatari.forumactif.com/t2126-m-reserve-les-regrets",
      "prenom": "Seok",
      "surnom": "",
      "ndf": "Yun",
      "dob": "13/12/1993",
      "parti1": "Gengaka",
      "parti2": "",
      "ronin_details": "",
      "animal": "",
      "mangetsuki_details": "",
      "maison": "Fugi",
      "promo": "2012",
      "ecole": "",
      "occupation1": "Santé",
      "occupation_lieu1": "Kaisei Pharmaceuticals",
      "occupation_details1": "Agent de sécurité",
      "occupation2": "",
      "occupation_lieu2": "",
      "occupation_details2": "",
      "dustquash": "No",
      "cursus1": "",
      "cursus1_annee": "",
      "cursus2": "",
      "cursus2_annee": "",
      "option1": "",
      "option2": "",
      "cosmoball": "No",
      "cosmo_equipe": "",
      "cosmo_poste": "",
      "logement": "Wakoku",
      "logement_details": "Nekonomichi",
      "logement_type": "Appartement",
      "coloc": "",
      "pseudo": "mayoli",
      "faceclaim": "Woo Dohwan",
      "image": "https://images2.imgbox.com/92/71/w6Sg3gfl_o.png",
      "credits": "Patrocle",
      "fiche": "https://isekai-monogatari.forumactif.com/t2233-honor-in-revenge-seok",
      "jdb": "https://isekai-monogatari.forumactif.com/",
      "intouche": "No",
      "ryu": "No",
      "cosmo_cap": "No"
    },

    {
      "nom": "Bak Ijin",
      "profilID": "262",
      "type": "Inventé.e",
      "plURL": "",
      "prenom": "Ijin",
      "surnom": "",
      "ndf": "Bak",
      "dob": "11/01/1999",
      "parti1": "",
      "parti2": "",
      "ronin_details": "",
      "animal": "",
      "mangetsuki_details": "",
      "maison": "Suisei",
      "promo": "2017",
      "ecole": "Shinmeidai",
      "occupation1": "Étudiant.e",
      "occupation_lieu1": "",
      "occupation_details1": "",
      "occupation2": "Commerce",
      "occupation_lieu2": "Hikari no Mikata",
      "occupation_details2": "Vendeur",
      "dustquash": "No",
      "cursus1": "MACA",
      "cursus1_annee": "6e",
      "cursus2": "",
      "cursus2_annee": "",
      "option1": "",
      "option2": "",
      "cosmoball": "No",
      "cosmo_equipe": "",
      "cosmo_poste": "",
      "logement": "Chuo-Kōei",
      "logement_details": "Ryūbashi-hiroba",
      "logement_type": "Appartement",
      "coloc": "Avec <a href=\"/u111\">@Lim Saeri</a>",
      "pseudo": "Patrocle",
      "faceclaim": "Choi Soobin",
      "image": "https://images2.imgbox.com/84/6f/X5WLZc5p_o.png",
      "credits": "Moonaetics",
      "fiche": "https://isekai-monogatari.forumactif.com/t2421-films-are-silent-but-memories-are-not-ijin",
      "jdb": "https://isekai-monogatari.forumactif.com",
      "intouche": "No",
      "ryu": "No",
      "cosmo_cap": "No"
    },

    {
      "nom": "Eira Davis",
      "profilID": "",
      "type": "Inventé.e",
      "plURL": "",
      "prenom": "Eira",
      "surnom": "",
      "ndf": "Davis",
      "dob": "23710/1996",
      "parti1": "Sōgaka",
      "parti2": "",
      "ronin_details": "",
      "animal": "",
      "mangetsuki_details": "",
      "maison": "Hiisa",
      "promo": "2011",
      "ecole": "Tintagel",
      "occupation1": "Étudiant.e",
      "occupation_lieu1": "",
      "occupation_details1": "",
      "occupation2": "",
      "occupation_lieu2": "",
      "occupation_details2": "",
      "dustquash": "No",
      "cursus1": "Droit",
      "cursus1_annee": "6e",
      "cursus2": "Architecture Magique",
      "cursus2_annee": "6e",
      "option1": "",
      "option2": "",
      "cosmoball": "No",
      "cosmo_equipe": "",
      "cosmo_poste": "",
      "logement": "Shinmeidai",
      "logement_details": "Kimokusei-dōri",
      "logement_type": "Appartement",
      "coloc": "",
      "pseudo": "moldy",
      "faceclaim": "alice pagani",
      "image": "https://i.imgur.com/yMR3YTA.jpg",
      "credits": "mercure retrograde",
      "fiche": "https://isekai-monogatari.forumactif.com/t453-sister-of-the-big-bad-wolf-eira",
      "jdb": "https://isekai-monogatari.forumactif.com/t562-working-girl-eira#7347",
      "intouche": "No",
      "ryu": "No",
      "cosmo_cap": "No"
    },

    {
      "nom": "Go Dahm",
      "profilID": "112",
      "type": "Inventé.e",
      "plURL": "",
      "prenom": "Dahm",
      "surnom": "",
      "ndf": "Go",
      "dob": "28/10/1997",
      "parti1": "Ryūketsuki",
      "parti2": "",
      "ronin_details": "",
      "animal": "",
      "mangetsuki_details": "",
      "maison": "Raiyo",
      "promo": "2015",
      "ecole": "Chuo-Kōei",
      "occupation1": "Justice",
      "occupation_lieu1": "Brigade de Police de Makōsa",
      "occupation_details1": "Membre des Bataillons d'Exploration",
      "occupation2": "Étudiant.e",
      "occupation_lieu2": "",
      "occupation_details2": "",
      "dustquash": "No",
      "cursus1": "Bataillon d'Exploration",
      "cursus1_annee": "8e",
      "cursus2": "",
      "cursus2_annee": "",
      "option1": "",
      "option2": "",
      "cosmoball": "No",
      "cosmo_equipe": "",
      "cosmo_poste": "",
      "logement": "Chuo-Kōei",
      "logement_details": "Kabi-dōri",
      "logement_type": "Loft",
      "coloc": "",
      "pseudo": "bonk",
      "faceclaim": "Song Kang",
      "image": "https://images2.imgbox.com/e5/ef/hcRlNiEu_o.png",
      "credits": "pastel breathing",
      "fiche": "https://isekai-monogatari.forumactif.com/t460-platinum-delights-dahm",
      "jdb": "https://isekai-monogatari.forumactif.com/t2440-drowning-dahm",
      "intouche": "No",
      "ryu": "No",
      "cosmo_cap": "No"
    },

    {
      "nom": "Calista Belacqua",
      "profilID": "97",
      "type": "Scénario",
      "plURL": "",
      "prenom": "Calista",
      "surnom": "",
      "ndf": "Belacqua",
      "dob": "19/06/1969",
      "parti1": "",
      "parti2": "",
      "ronin_details": "",
      "animal": "",
      "mangetsuki_details": "",
      "maison": "Suisei",
      "promo": "1987",
      "ecole": "Tintagel",
      "occupation1": "Santé",
      "occupation_lieu1": "CHUM",
      "occupation_details1": "Guérisseuse en cheffe aux Urgences",
      "occupation2": "Éducation",
      "occupation_lieu2": "Tokimitsu Jujutsu Daigaku",
      "occupation_details2": "Intervenante en Médicomagie",
      "dustquash": "No",
      "cursus1": "",
      "cursus1_annee": "",
      "cursus2": "",
      "cursus2_annee": "",
      "option1": "",
      "option2": "",
      "cosmoball": "No",
      "cosmo_equipe": "",
      "cosmo_poste": "",
      "logement": "Shinmeidai",
      "logement_details": "Kimokusei-dōri",
      "logement_type": "Appartement",
      "coloc": "Avec <a href=\"/u102\">@Gaia Belacqua</a>",
      "pseudo": "sighhh.",
      "faceclaim": "Gillian Anderson",
      "image": "https://www.zupimages.net/up/23/44/f3oe.jpg",
      "credits": "chubbydumplingproject",
      "fiche": "https://isekai-monogatari.forumactif.com/t2427-chapter-27-the-fall-calista#72695",
      "jdb": "https://isekai-monogatari.forumactif.com/t2474-oblivion-calista#73452",
      "intouche": "No",
      "ryu": "No",
      "cosmo_cap": "No"
    },

    {
      "nom": "Alessio Mastriani",
      "profilID": "43",
      "type": "Inventé.e",
      "plURL": "",
      "prenom": "Alessio",
      "surnom": "",
      "ndf": "Mastriani",
      "dob": "06/11/1993",
      "parti1": "Reiketsuki",
      "parti2": "",
      "ronin_details": "",
      "animal": "",
      "mangetsuki_details": "",
      "maison": "Raiyo",
      "promo": "2010",
      "ecole": "Shinmeidai",
      "occupation1": "Fonction Publique",
      "occupation_lieu1": "Brigade de Police de Makōsa",
      "occupation_details1": "Brigadier spécial",
      "occupation2": "Éducation",
      "occupation_lieu2": "Tokimitsu Jujutsu Daigaku",
      "occupation_details2": "Intervenant en Survie en Milieu Hostile",
      "dustquash": "Yes",
      "cursus1": "",
      "cursus1_annee": "",
      "cursus2": "",
      "cursus2_annee": "",
      "option1": "",
      "option2": "",
      "cosmoball": "No",
      "cosmo_equipe": "",
      "cosmo_poste": "",
      "logement": "Shinmeidai",
      "logement_details": "Kimokusei-dōri",
      "logement_type": "Appartement",
      "coloc": "",
      "pseudo": "sighhh.",
      "faceclaim": "Matthew Daddario",
      "image": "https://images2.imgbox.com/3e/e5/nto4oJtU_o.png",
      "credits": "prettygirl.",
      "fiche": "https://isekai-monogatari.forumactif.com/t2481-never-to-heaven-alessio#73648",
      "jdb": "https://isekai-monogatari.forumactif.com/t2488-blood-moon-alessio#74126",
      "intouche": "No",
      "ryu": "No",
      "cosmo_cap": "No"
    },

    {
      "nom": "Malvina Mulroney",
      "profilID": "91",
      "type": "Inventé.e",
      "plURL": "",
      "prenom": "Malvina",
      "surnom": "Mal",
      "ndf": "Mulroney",
      "dob": "21/08/1997",
      "parti1": "Jūjin",
      "parti2": "",
      "ronin_details": "",
      "animal": "Chien de chasse",
      "mangetsuki_details": "",
      "maison": "Hiisa",
      "promo": "2016",
      "ecole": "Salem",
      "occupation1": "Étudiant.e",
      "occupation_lieu1": "",
      "occupation_details1": "",
      "occupation2": "Autres",
      "occupation_lieu2": "",
      "occupation_details2": "Chasseuse de vampires",
      "dustquash": "No",
      "cursus1": "APSC",
      "cursus1_annee": "4e",
      "cursus2": "",
      "cursus2_annee": "",
      "option1": "",
      "option2": "",
      "cosmoball": "Yes",
      "cosmo_equipe": "Gleam Demons",
      "cosmo_poste": "Starkeeper",
      "logement": "Chuo-Kōei",
      "logement_details": "Seikikō",
      "logement_type": "Loft",
      "coloc": "",
      "pseudo": "cstm",
      "faceclaim": "Charleen Weiss",
      "image": "https://i.imgur.com/vtYLsS6.png",
      "credits": "all souls",
      "fiche": "https://isekai-monogatari.forumactif.com/t2480p11-lethal-justice-malvina",
      "jdb": "https://isekai-monogatari.forumactif.com/t2486-blue-veins-mal",
      "intouche": "No",
      "ryu": "No",
      "cosmo_cap": "No"
    },

    {
        "nom": "Viggo Backström",
        "profilID": "264",
        "type": "Inventé.e",
        "plURL": "",
        "prenom": "Viggo",
        "surnom": "",
        "ndf": "Backström",
        "dob": "28/01/1996",
        "parti1": "",
        "parti2": "",
        "ronin_details": "",
        "animal": "",
        "mangetsuki_details": "",
        "maison": "Hiisa",
        "promo": "2014",
        "ecole": "Borealis",
        "occupation1": "Étudiant.e",
        "occupation_lieu1": "",
        "occupation_details1": "",
        "occupation2": "",
        "occupation_lieu2": "",
        "occupation_details2": "",
        "dustquash": "No",
        "cursus1": "Brigades Spéciales",
        "cursus1_annee": "4e",
        "cursus2": "",
        "cursus2_annee": "",
        "option1": "Magie Élémentaire (Eau)",
        "option2": "Magie Élémentaire (Air)",
        "cosmoball": "Yes",
        "cosmo_equipe": "Great White Chimera",
        "cosmo_poste": "Skyrunner",
        "logement": "Chuo-Kōei",
        "logement_details": "Shinrakuen",
        "logement_type": "Penthouse",
        "coloc": "Son père",
        "pseudo": "Mononoke-San",
        "faceclaim": "Bill Skarsgård",
        "image": "https://i28.servimg.com/u/f28/20/53/58/78/vigoo10.jpg",
        "credits": "FREEDOM FRIES",
        "fiche": "https://isekai-monogatari.forumactif.com/t2498-no-mourners-no-funerals-viggo",
        "jdb": "https://isekai-monogatari.forumactif.com/t2508-sparkling-o-viggo#75052",
        "intouche": "No",
        "ryu": "No",
        "cosmo_cap": "No"
    },

    {
      "nom": "Amalia Meister",
      "profilID": "72",
      "type": "Inventé.e",
      "plURL": "",
      "prenom": "Amalia",
      "surnom": "",
      "ndf": "Meister",
      "dob": "15/09/1998",
      "parti1": "Sōgaka",
      "parti2": "",
      "ronin_details": "",
      "animal": "",
      "mangetsuki_details": "",
      "maison": "Hiisa",
      "promo": "2016",
      "ecole": "Shinmeidai",
      "occupation1": "Étudiant.e",
      "occupation_lieu1": "",
      "occupation_details1": "",
      "occupation2": "Illégalité",
      "occupation_lieu2": "",
      "occupation_details2": "Sogaka pour Shisha no kioku",
      "dustquash": "No",
      "cursus1": "Sciences de l'Univers",
      "cursus1_annee": "7e",
      "cursus2": "",
      "cursus2_annee": "",
      "option1": "",
      "option2": "",
      "cosmoball": "No",
      "cosmo_equipe": "",
      "cosmo_poste": "",
      "logement": "Shinmeidai",
      "logement_details": "Campus de Tokidai",
      "logement_type": "Appartement",
      "coloc": "Avec <a href=\"/u48\">@Mun Milo</a>",
      "pseudo": "Patrocle",
      "faceclaim": "Hunter Schafer",
      "image": "https://64.media.tumblr.com/b90e559c501ec1827ba7905ef029c08b/92b79a874898e568-d7/s500x750/93b75bca83617baf70a13cc8423c7a1689b853c0.png",
      "credits": "Balaclava",
      "fiche": "https://isekai-monogatari.forumactif.com/t2506-comin-like-a-storm-into-your-life-amalia",
      "jdb": "https://isekai-monogatari.forumactif.com",
      "intouche": "No",
      "ryu": "No",
      "cosmo_cap": "No"
    },

    {
      "nom": "Kant Kannagi",
      "profilID": "266",
      "type": "Inventé.e",
      "plURL": "",
      "prenom": "Yayoi",
      "surnom": "Kant",
      "ndf": "Kannagi",
      "dob": "18/02/2001",
      "parti1": "Rōnin",
      "parti2": "Tabigaka",
      "ronin_details": "Ouïe ultrasonique : peut entendre tous types de sons même faibles, ondes électromagnétiques et courant électrique.",
      "animal": "",
      "mangetsuki_details": "",
      "maison": "Raiyo",
      "promo": "2017",
      "ecole": "Eiyamachi",
      "occupation1": "Illégalité",
      "occupation_lieu1": "",
      "occupation_details1": "Hackeuse cybermagique",
      "occupation2": "Commerce",
      "occupation_lieu2": "",
      "occupation_details2": "Employée de conbini",
      "dustquash": "No",
      "cursus1": "",
      "cursus1_annee": "",
      "cursus2": "",
      "cursus2_annee": "",
      "option1": "",
      "option2": "",
      "cosmoball": "No",
      "cosmo_equipe": "",
      "cosmo_poste": "",
      "logement": "Eiyamachi",
      "logement_details": "Kagemura",
      "logement_type": "Loft",
      "coloc": "Avec <a href=\"/u92\">@Murakami Leon</a> et leurs colocataires",
      "pseudo": "melody",
      "faceclaim": "Fukutomi Tsuki (Billlie)",
      "image": "https://i.imgur.com/3BA1JVI.png",
      "credits": "melody",
      "fiche": "https://isekai-monogatari.forumactif.com/t2525-kant-god-is-dead",
      "jdb": "https://isekai-monogatari.forumactif.com/t2542-kant-journal-de-bord",
      "intouche": "No",
      "ryu": "No",
      "cosmo_cap": "No"
    },

    {
      "nom": "Mejika Akito",
      "profilID": "267",
      "type": "Inventé.e",
      "plURL": "",
      "prenom": "Akito",
      "surnom": "Aki",
      "ndf": "Mejika",
      "dob": "11/11/1998",
      "parti1": "Sōgaka",
      "parti2": "",
      "ronin_details": "",
      "animal": "",
      "mangetsuki_details": "",
      "maison": "Fugi",
      "promo": "2016",
      "ecole": "Shinmeidai",
      "occupation1": "Étudiant.e",
      "occupation_lieu1": "",
      "occupation_details1": "",
      "occupation2": "",
      "occupation_lieu2": "",
      "occupation_details2": "",
      "dustquash": "No",
      "cursus1": "MAE",
      "cursus1_annee": "7e",
      "cursus2": "",
      "cursus2_annee": "",
      "option1": "",
      "option2": "",
      "cosmoball": "No",
      "cosmo_equipe": "",
      "cosmo_poste": "",
      "logement": "Wakoku",
      "logement_details": "Kabi-dōri",
      "logement_type": "Manoir",
      "coloc": "",
      "pseudo": "Asriël",
      "faceclaim": "Hirai Momo",
      "image": "https://64.media.tumblr.com/b3889d6420584cffe6ab0d0cbca2cc26/92ce76f5c2d112d1-e2/s500x750/8822b93f131ce5f5771fd43bdf3eda16974f14e7.pnj",
      "credits": "ourmidnightgold",
      "fiche": "https://isekai-monogatari.forumactif.com/t2537-the-girl-who-fell-from-the-sky-akito",
      "jdb": "https://isekai-monogatari.forumactif.com/t2545-akito#76914",
      "intouche": "No",
      "ryu": "No",
      "cosmo_cap": "No"
    }

]
