<svg width="249" height="90" viewBox="0 0 249 90" fill="none" xmlns="http://www.w3.org/2000/svg">
<path opacity="0.2" d="M206.267 -4.59704e-06C211.677 -4.00392e-06 215.994 5.06138 215.281 10.9614C214.688 15.8452 210.566 19.3773 205.943 19.3773L99.5681 19.3773C95.6678 19.3773 92.1658 22.4063 91.786 26.5501C91.3506 31.2958 94.8618 35.3113 99.2346 35.3113L168.412 35.3113C173.082 35.3113 177.269 38.8632 177.834 43.7963C178.501 49.6667 174.193 54.6887 168.811 54.6887L137.765 54.6887C133.865 54.6887 130.363 57.7176 129.983 61.8614C129.548 66.6071 133.059 70.6227 137.432 70.6227L238.785 70.6227C243.408 70.6227 247.531 74.1548 248.124 79.0386C248.837 84.9386 244.52 90 239.109 90L83.2905 90C78.6675 90 74.5449 86.4679 73.9519 81.5841C73.2386 75.6742 77.5651 70.6227 82.9662 70.6227L103.83 70.6227C107.73 70.6227 111.232 67.5937 111.612 63.4499C112.047 58.7042 108.536 54.6886 104.163 54.6886L9.41576 54.6886C4.7928 54.6886 0.670138 51.1565 0.0772125 46.2727C-0.636151 40.3628 3.69034 35.3113 9.09151 35.3113L66.1698 35.3113C70.1813 35.3113 73.4424 31.8483 73.4424 27.5663L73.4424 27.1223C73.4424 22.8502 70.1906 19.3773 66.1698 19.3773L47.0757 19.3773C42.4528 19.3773 38.3301 15.8452 37.7372 10.9614C37.0238 5.0515 41.3503 -2.2676e-05 46.7515 -2.20839e-05L206.267 -4.59704e-06Z" fill="url(#paint0_linear_2465_242)"/>
<defs>
<linearGradient id="paint0_linear_2465_242" x1="124.1" y1="90" x2="124.1" y2="-1.36045e-05" gradientUnits="userSpaceOnUse">
<stop stop-color="#7086D9"/>
<stop offset="1" stop-color="#E5BDC1"/>
</linearGradient>
</defs>
</svg>
