<svg width="259" height="150" viewBox="0 0 259 150" fill="none" xmlns="http://www.w3.org/2000/svg">
<path fill-rule="evenodd" clip-rule="evenodd" d="M214.803 63.0589C214.945 63.154 215.026 63.2882 215.045 63.4614H215.591C215.586 63.2602 215.527 63.0821 215.415 62.9271C215.303 62.771 215.149 62.6484 214.954 62.5594C214.759 62.4703 214.535 62.4258 214.281 62.4258C214.03 62.4258 213.804 62.4709 213.604 62.5612C213.404 62.6502 213.245 62.7753 213.128 62.9363C213.01 63.0973 212.952 63.2858 212.952 63.5017C212.952 63.7627 213.039 63.9725 213.214 64.1311C213.389 64.2897 213.628 64.4099 213.928 64.4916L214.371 64.6124C214.505 64.6477 214.626 64.6886 214.732 64.735C214.839 64.7813 214.924 64.8399 214.987 64.9106C215.05 64.9814 215.082 65.0722 215.082 65.1832C215.082 65.3052 215.046 65.412 214.974 65.5035C214.902 65.5937 214.803 65.6645 214.677 65.7157C214.552 65.7657 214.41 65.7907 214.25 65.7907C214.105 65.7907 213.971 65.7694 213.849 65.7267C213.728 65.6828 213.629 65.6163 213.551 65.5272C213.474 65.437 213.43 65.3241 213.419 65.1887H212.851C212.863 65.4144 212.927 65.6096 213.043 65.7743C213.159 65.9377 213.32 66.064 213.525 66.153C213.73 66.2421 213.973 66.2866 214.254 66.2866C214.547 66.2866 214.797 66.239 215.003 66.1439C215.211 66.0487 215.369 65.9188 215.477 65.7541C215.587 65.5895 215.642 65.401 215.642 65.1887C215.642 65.0204 215.609 64.8758 215.541 64.7551C215.476 64.6343 215.389 64.5331 215.281 64.4513C215.174 64.3696 215.057 64.3037 214.932 64.2537C214.806 64.2037 214.683 64.1641 214.563 64.1348L214.197 64.0396C214.124 64.0213 214.048 63.9982 213.968 63.9701C213.889 63.9408 213.814 63.9048 213.745 63.8622C213.676 63.8182 213.621 63.764 213.578 63.6993C213.537 63.6346 213.516 63.5578 213.516 63.4688C213.516 63.3626 213.546 63.2681 213.607 63.1851C213.67 63.101 213.757 63.0351 213.869 62.9875C213.982 62.9387 214.115 62.9143 214.269 62.9143C214.483 62.9143 214.662 62.9625 214.803 63.0589ZM211.144 66.2244V62.477H210.578V66.2244H211.144ZM217.35 66.2244V62.477H219.702V62.9637H217.916V64.1055H219.579V64.5904H217.916V65.7377H219.724V66.2244H217.35ZM221.489 62.477V66.2244H222.055V65.0588L222.498 64.5501L223.711 66.2244H224.392L222.874 64.1641L224.386 62.477H223.674L222.101 64.2665H222.055V62.477H221.489ZM226.262 66.2244H225.662L227.011 62.477H227.665L229.015 66.2244H228.414L228.071 65.2327H226.606L226.262 66.2244ZM227.354 63.1577L227.907 64.7569H226.771L227.324 63.1577H227.354ZM231.154 66.2244V62.477H230.588V66.2244H231.154ZM210.578 70.206H211.265L212.459 73.119H212.503L213.697 70.206H214.384V73.9533H213.845V71.2416H213.81L212.704 73.9478H212.257L211.151 71.2398H211.116V73.9533H210.578V70.206ZM219.276 73.1116C219.423 72.8238 219.496 72.4798 219.496 72.0796C219.496 71.6795 219.423 71.3362 219.276 71.0495C219.13 70.7616 218.929 70.5408 218.674 70.3871C218.42 70.2322 218.131 70.1547 217.807 70.1547C217.483 70.1547 217.193 70.2322 216.938 70.3871C216.684 70.5408 216.483 70.7616 216.337 71.0495C216.19 71.3362 216.117 71.6795 216.117 72.0796C216.117 72.4785 216.19 72.8219 216.337 73.1098C216.483 73.3977 216.684 73.6191 216.938 73.774C217.193 73.9277 217.483 74.0046 217.807 74.0046C218.131 74.0046 218.42 73.9277 218.674 73.774C218.929 73.6191 219.13 73.3983 219.276 73.1116ZM218.787 71.3093C218.886 71.5179 218.936 71.7747 218.936 72.0796C218.936 72.3846 218.886 72.642 218.787 72.8518C218.69 73.0604 218.555 73.219 218.384 73.3276C218.215 73.4349 218.022 73.4886 217.807 73.4886C217.591 73.4886 217.398 73.4349 217.229 73.3276C217.059 73.219 216.925 73.0604 216.826 72.8518C216.728 72.642 216.679 72.3846 216.679 72.0796C216.679 71.7747 216.728 71.5179 216.826 71.3093C216.925 71.0995 217.059 70.9409 217.229 70.8336C217.398 70.725 217.591 70.6707 217.807 70.6707C218.022 70.6707 218.215 70.725 218.384 70.8336C218.555 70.9409 218.69 71.0995 218.787 71.3093ZM224.261 73.9533H223.74L221.834 71.205H221.799V73.9533H221.233V70.206H221.757L223.665 72.9579H223.7V70.206H224.261V73.9533ZM229.156 73.1116C229.303 72.8238 229.376 72.4798 229.376 72.0796C229.376 71.6795 229.303 71.3362 229.156 71.0495C229.01 70.7616 228.809 70.5408 228.554 70.3871C228.3 70.2322 228.011 70.1547 227.687 70.1547C227.362 70.1547 227.072 70.2322 226.817 70.3871C226.563 70.5408 226.363 70.7616 226.217 71.0495C226.07 71.3362 225.997 71.6795 225.997 72.0796C225.997 72.4785 226.07 72.8219 226.217 73.1098C226.363 73.3977 226.563 73.6191 226.817 73.774C227.072 73.9277 227.362 74.0046 227.687 74.0046C228.011 74.0046 228.3 73.9277 228.554 73.774C228.809 73.6191 229.01 73.3983 229.156 73.1116ZM228.667 71.3093C228.766 71.5179 228.815 71.7747 228.815 72.0796C228.815 72.3846 228.766 72.642 228.667 72.8518C228.569 73.0604 228.435 73.219 228.264 73.3276C228.094 73.4349 227.902 73.4886 227.687 73.4886C227.471 73.4886 227.278 73.4349 227.109 73.3276C226.939 73.219 226.804 73.0604 226.706 72.8518C226.608 72.642 226.559 72.3846 226.559 72.0796C226.559 71.7747 226.608 71.5179 226.706 71.3093C226.804 71.0995 226.939 70.9409 227.109 70.8336C227.278 70.725 227.471 70.6707 227.687 70.6707C227.902 70.6707 228.094 70.725 228.264 70.8336C228.435 70.9409 228.569 71.0995 228.667 71.3093ZM233.651 71.3898C233.616 71.2788 233.568 71.1794 233.509 71.0916C233.45 71.0025 233.38 70.9269 233.298 70.8647C233.216 70.8012 233.123 70.7531 233.018 70.7201C232.914 70.6872 232.8 70.6707 232.675 70.6707C232.464 70.6707 232.273 70.725 232.104 70.8336C231.934 70.9421 231.8 71.1013 231.701 71.3111C231.603 71.5197 231.554 71.7753 231.554 72.0778C231.554 72.3816 231.604 72.6383 231.703 72.8482C231.802 73.058 231.937 73.2172 232.109 73.3257C232.281 73.4343 232.477 73.4886 232.697 73.4886C232.901 73.4886 233.079 73.4471 233.23 73.3641C233.383 73.2812 233.501 73.1641 233.584 73.0128C233.664 72.8672 233.706 72.697 233.71 72.5023H232.783V72.0357H234.258V72.4621C234.258 72.7768 234.19 73.05 234.056 73.2818C233.923 73.5124 233.739 73.6905 233.503 73.8161C233.269 73.9417 233 74.0046 232.697 74.0046C232.358 74.0046 232.06 73.9265 231.803 73.7704C231.548 73.6142 231.349 73.3928 231.206 73.1062C231.063 72.8183 230.992 72.4767 230.992 72.0815C230.992 71.7826 231.034 71.5142 231.117 71.2764C231.2 71.0385 231.316 70.8366 231.466 70.6707C231.618 70.5036 231.795 70.3761 231.999 70.2883C232.205 70.1993 232.429 70.1547 232.672 70.1547C232.874 70.1547 233.063 70.1846 233.237 70.2444C233.413 70.3042 233.57 70.3889 233.706 70.4987C233.844 70.6085 233.958 70.739 234.049 70.8903C234.139 71.0403 234.2 71.2068 234.232 71.3898H233.651ZM235.608 73.9533H236.209L236.552 72.9616H238.018L238.361 73.9533H238.961L237.611 70.206H236.958L235.608 73.9533ZM237.853 72.4859L237.3 70.8866H237.271L236.717 72.4859H237.853ZM239.906 70.6927V70.206H242.809V70.6927H241.639V73.9533H241.075V70.6927H239.906ZM243.755 73.9533H244.356L244.699 72.9616H246.165L246.508 73.9533H247.108L245.759 70.206H245.105L243.755 73.9533ZM246 72.4859L245.447 70.8866H245.418L244.864 72.4859H246ZM248.682 70.206H250.019C250.309 70.206 250.55 70.256 250.742 70.356C250.935 70.456 251.079 70.5945 251.174 70.7714C251.269 70.947 251.317 71.1501 251.317 71.3807C251.317 71.61 251.269 71.8119 251.172 71.9863C251.077 72.1595 250.933 72.2943 250.74 72.3907C250.705 72.4084 250.668 72.4244 250.63 72.4388L251.46 73.9533H250.815L250.053 72.535C250.041 72.5352 250.029 72.5353 250.017 72.5353H249.248V73.9533H248.682V70.206ZM249.965 72.0485H249.248V70.6909H249.958C250.145 70.6909 250.296 70.7189 250.41 70.775C250.526 70.8299 250.611 70.9092 250.665 71.0129C250.72 71.1166 250.747 71.2392 250.747 71.3807C250.747 71.521 250.721 71.6411 250.667 71.7411C250.613 71.8412 250.528 71.9174 250.412 71.9699C250.298 72.0223 250.149 72.0485 249.965 72.0485ZM253.037 73.9533H253.603V70.206H253.037V73.9533Z" fill="white"/>
<path fill-rule="evenodd" clip-rule="evenodd" d="M215.449 115.035C214.345 115.035 213.449 115.931 213.449 117.035V124.082C213.449 125.187 214.345 126.082 215.449 126.082H219.481C220.586 126.082 221.481 125.187 221.481 124.082V117.035C221.481 115.931 220.586 115.035 219.481 115.035H215.449ZM247.062 99.2827C247.062 98.1781 246.167 97.2827 245.062 97.2827H241.93C240.955 97.2827 240.121 97.9868 239.958 98.9488L238.765 105.996C238.559 107.217 239.499 108.33 240.737 108.33H245.062C246.167 108.33 247.062 107.434 247.062 106.33V99.2827ZM247.703 128.116C248.807 128.116 249.703 127.221 249.703 126.116V118.025C249.703 116.92 248.807 116.025 247.703 116.025H236.959C235.855 116.025 234.959 116.92 234.959 118.025V126.116C234.959 127.221 235.855 128.116 236.959 128.116H247.703ZM224.837 116.794V128.527C224.837 129.453 224.086 130.205 223.159 130.205H223.048C222.182 130.205 221.481 129.503 221.481 128.638C221.481 127.773 220.78 127.072 219.915 127.072H215.045C213.319 127.072 212.587 129.059 212.519 131.852C212.513 132.095 212.317 132.293 212.074 132.293C211.831 132.293 211.636 132.096 211.616 131.853C211.455 129.927 210.25 128.256 208.469 128.032C208.243 128.003 208.058 127.822 208.058 127.594C208.058 127.366 208.243 127.185 208.47 127.164C209.731 127.049 210.093 126.386 210.093 125.588V115.052C210.093 113.593 211.787 112.789 212.917 113.711C213.226 113.963 213.612 114.101 214.01 114.101H219.886C221.675 114.101 222.466 112.536 222.57 110.639C222.583 110.396 222.778 110.199 223.021 110.199C223.265 110.199 223.459 110.396 223.488 110.637C223.683 112.301 224.954 114.135 226.873 114.354C227.084 114.378 227.258 114.548 227.258 114.76C227.258 114.973 227.085 115.143 226.873 115.16C225.53 115.266 224.837 115.938 224.837 116.794ZM253.301 104.091C253.331 103.821 253.551 103.603 253.823 103.603C254.099 103.603 254.32 103.829 254.356 104.104C254.664 106.464 257.095 107.96 258.511 108.27C258.778 108.328 259 108.551 259 108.825C259 109.098 258.778 109.319 258.505 109.319H228.357C228.084 109.319 227.863 109.098 227.863 108.825C227.863 108.551 228.084 108.33 228.357 108.33H233.206C234.186 108.33 235.021 107.621 235.18 106.654L236.338 99.607C236.538 98.3893 235.598 97.2827 234.364 97.2827H230.778C230.505 97.2827 230.283 97.0612 230.283 96.788C230.283 96.5148 230.505 96.2934 230.778 96.2934H235.196C236.172 96.2934 237.004 95.5902 237.168 94.629L237.863 90.5497C238.07 89.3285 237.13 88.214 235.891 88.214H229.017C228.744 88.214 228.523 87.9926 228.523 87.7194C228.523 87.4462 228.744 87.2247 229.017 87.2247H246.512C248.593 87.2247 250.379 85.7989 250.567 82.9937C250.585 82.7208 250.805 82.498 251.078 82.498C251.352 82.498 251.571 82.7216 251.592 82.9942C251.825 85.9449 254.139 87.1336 256.415 87.2669C256.657 87.2811 256.854 87.4765 256.854 87.7194C256.854 87.9622 256.657 88.1576 256.415 88.1724C254.106 88.3126 251.836 89.5702 251.594 92.3351C251.571 92.6075 251.352 92.8308 251.078 92.8308C250.805 92.8308 250.585 92.6083 250.565 92.3356C250.368 89.68 248.587 88.214 246.512 88.214H243.426C242.446 88.214 241.61 88.9242 241.452 89.8915L240.785 93.9708C240.586 95.188 241.526 96.2934 242.759 96.2934H245.467C247.239 96.2934 248.125 94.711 248.256 92.8311C248.274 92.5583 248.494 92.3361 248.768 92.3361C249.041 92.3361 249.26 92.5584 249.295 92.8296C249.507 94.4774 250.739 96.3681 252.593 96.6438C252.848 96.6818 253.059 96.8872 253.059 97.1453C253.059 97.4033 252.848 97.6088 252.592 97.641C251.418 97.7888 250.638 98.4935 250.638 99.3712V104.991C250.638 106.435 252.118 107.223 252.764 105.932C253.035 105.39 253.227 104.771 253.301 104.091ZM231.328 127.511V116.189C231.328 114.586 233.162 113.675 234.44 114.642C234.777 114.897 235.188 115.035 235.611 115.035H248.107C249.922 115.035 250.859 113.467 251.003 111.683C251.025 111.41 251.245 111.188 251.518 111.188C251.792 111.188 252.011 111.41 252.049 111.681C252.271 113.246 253.5 115.112 255.343 115.386C255.599 115.424 255.809 115.629 255.809 115.887C255.809 116.145 255.599 116.351 255.343 116.383C254.168 116.531 253.389 117.235 253.389 118.113V130.01C253.389 131.028 252.564 131.853 251.546 131.853H251.077C250.318 131.853 249.703 131.238 249.703 130.479C249.703 129.721 249.088 129.105 248.329 129.105H236.5C234.704 129.105 233.961 131.257 233.869 133.419C233.858 133.678 233.65 133.887 233.391 133.887C233.133 133.887 232.927 133.677 232.891 133.421C232.672 131.846 231.377 130.216 229.484 130.007C229.258 129.982 229.073 129.8 229.073 129.572C229.073 129.345 229.258 129.163 229.485 129.145C230.868 129.037 231.328 128.366 231.328 127.511Z" fill="url(#paint0_linear_2529_83)"/>
<path fill-rule="evenodd" clip-rule="evenodd" d="M221.487 84.3568C221.532 84.089 221.751 83.873 222.023 83.873C222.301 83.873 222.523 84.1021 222.598 84.3698C222.973 85.6942 224.727 86.9978 226.052 87.2797C226.32 87.3365 226.542 87.5571 226.542 87.8303C226.542 88.1034 226.321 88.3249 226.048 88.3249H209.873C209.6 88.3249 209.378 88.1034 209.378 87.8303C209.378 87.5571 209.6 87.3356 209.873 87.3356H218.62C220.156 87.3356 221.245 85.8216 221.487 84.3568ZM224.39 90.3035C224.667 90.3035 224.888 90.5311 224.95 90.8014C225.303 92.3236 227.175 93.6787 228.474 93.9791C228.74 94.0406 228.963 94.2624 228.963 94.5355C228.963 94.8087 228.741 95.0302 228.468 95.0302H208.223C207.949 95.0302 207.728 94.8087 207.728 94.5355C207.728 94.2624 207.949 94.0409 208.223 94.0409H220.601C222.108 94.0409 223.57 92.4823 223.854 90.7886C223.899 90.5206 224.118 90.3035 224.39 90.3035ZM222.023 97.2287C222.301 97.2287 222.523 97.4576 222.598 97.7251C222.972 99.0496 224.727 100.353 226.052 100.635C226.32 100.692 226.542 100.913 226.542 101.186C226.542 101.459 226.321 101.681 226.048 101.681H209.873C209.6 101.681 209.378 101.459 209.378 101.186C209.378 100.913 209.6 100.691 209.873 100.691H218.62C220.16 100.691 221.251 99.2134 221.489 97.7129C221.532 97.4448 221.752 97.2287 222.023 97.2287ZM226.542 107.836C226.542 108.109 226.321 108.331 226.048 108.331H209.873C209.6 108.331 209.378 108.109 209.378 107.836C209.378 107.563 209.6 107.342 209.873 107.342H218.62C220.16 107.342 221.251 105.864 221.489 104.363C221.532 104.095 221.752 103.879 222.023 103.879C222.301 103.879 222.523 104.108 222.598 104.375C222.972 105.7 224.727 107.004 226.052 107.286C226.32 107.342 226.542 107.563 226.542 107.836Z" fill="url(#paint1_linear_2529_83)"/>
<path fill-rule="evenodd" clip-rule="evenodd" d="M164.989 39.6343C163.884 39.6343 162.989 40.5298 162.989 41.6343V45.1091C162.989 46.2137 163.884 47.1091 164.989 47.1091H174.632C175.736 47.1091 176.632 46.2137 176.632 45.1091V42.8221C176.632 41.1183 175.477 39.6343 173.386 39.6343H164.989ZM189.32 38.5901C190.425 38.5901 191.32 37.6946 191.32 36.5901V32.7855C191.32 31.681 190.425 30.7855 189.32 30.7855H179.787C178.682 30.7855 177.787 31.681 177.787 32.7855V35.5122C177.787 37.326 178.942 38.5901 181.088 38.5901H189.32ZM173.386 38.5901C175.311 38.5901 176.632 37.4359 176.632 35.5122V32.7855C176.632 31.681 175.736 30.7855 174.632 30.7855H164.989C163.884 30.7855 162.989 31.681 162.989 32.7855V36.5901C162.989 37.6946 163.884 38.5901 164.989 38.5901H173.386ZM177.787 42.8221V45.1091C177.787 46.2137 178.682 47.1091 179.787 47.1091H189.32C190.425 47.1091 191.32 46.2137 191.32 45.1091V41.6343C191.32 40.5298 190.425 39.6343 189.32 39.6343H181.088C179.107 39.6343 177.787 40.8984 177.787 42.8221ZM151.577 63.7141C151.371 63.7739 151.152 63.6697 151.068 63.4723C150.97 63.2433 151.084 62.9804 151.318 62.8946C156.79 60.8894 164.451 55.6005 167.979 50.659C168.801 49.5084 167.889 48.0984 166.475 48.0984H164.309C162.725 48.0984 161.9 50.8003 161.791 52.7705C161.777 53.0131 161.581 53.2098 161.338 53.2098C161.095 53.2098 160.901 53.0119 160.863 52.7719C160.621 51.2429 159.178 49.5544 157.458 49.2886C157.203 49.2492 156.992 49.0434 156.992 48.7854C156.992 48.5274 157.203 48.3228 157.458 48.2846C158.552 48.1211 159.193 47.383 159.193 46.5595V31.0739C159.193 29.4467 161.041 28.5083 162.354 29.4683C162.695 29.7171 163.106 29.8512 163.528 29.8512H189.945C191.571 29.8512 192.399 28.2101 192.516 26.4438C192.532 26.2012 192.728 26.0039 192.971 26.0039C193.214 26.0039 193.409 26.2016 193.447 26.4416C193.691 27.9571 195.118 29.8239 196.825 30.1358C197.093 30.1849 197.317 30.4024 197.317 30.6756C197.317 30.9488 197.094 31.1654 196.824 31.2058C195.782 31.3613 195.116 32.0138 195.116 32.8741V49.1684C195.116 50.2166 194.266 51.0663 193.218 51.0663H192.804C191.985 51.0663 191.32 50.4019 191.32 49.5824C191.32 48.7628 190.656 48.0984 189.836 48.0984H187.189C185.5 48.0984 184.675 49.9776 185.986 51.0424C190.122 54.4024 196.432 57.5987 202.844 58.4414C203.049 58.4683 203.203 58.6418 203.203 58.8483C203.203 59.0732 203.02 59.2538 202.796 59.2696C201.683 59.3482 200.891 59.7501 200.341 60.3105C199.519 61.1475 198.389 61.9238 197.305 61.4745C191.86 59.2163 185.94 54.6998 182.562 49.1361C182.179 48.5066 181.509 48.0984 180.772 48.0984H175.618C174.946 48.0984 174.323 48.4392 173.931 48.9859C172.761 50.6215 171.355 52.2199 169.713 53.7382C169.144 54.2648 168.858 55.0859 169.253 55.7528C169.901 56.8449 170.956 57.4686 172.341 57.5862C172.614 57.6094 172.836 57.8282 172.836 58.1014C172.836 58.3746 172.612 58.5891 172.344 58.6409C171.603 58.7837 171.186 59.248 171.186 59.7502V61.6189C171.186 68.3514 167.159 73.7431 156.667 77.5819C156.445 77.6628 156.195 77.5687 156.084 77.3607C155.952 77.1129 156.065 76.8037 156.323 76.6914C165.326 72.7643 167.61 66.2545 167.61 61.1242V59.7099C167.61 58.0276 165.629 57.0613 164.219 57.9793C160.577 60.3513 156.304 62.3439 151.577 63.7141ZM181.141 73.252C180.87 73.2124 180.648 72.9943 180.648 72.7211C180.648 72.4479 180.871 72.2335 181.14 72.185C181.974 72.0346 182.408 71.487 182.408 70.7425V53.8877C182.408 53.6347 182.613 53.4296 182.866 53.4296C183.105 53.4296 183.301 53.6137 183.337 53.8495C183.675 56.0888 185.19 57.3943 187.223 57.5829C187.51 57.6096 187.744 57.8405 187.744 58.1288C187.744 58.4172 187.508 58.6436 187.225 58.6966C186.408 58.849 185.984 59.3628 185.984 59.9151V77.0673C185.984 77.3382 185.764 77.5577 185.494 77.5577C185.241 77.5577 185.033 77.3653 184.983 77.118C184.597 75.2111 182.957 73.5181 181.141 73.252Z" fill="url(#paint2_linear_2529_83)"/>
<path d="M106.924 71.1817C106.924 71.7973 106.393 72.3313 105.437 72.4673C105.166 72.5058 104.943 72.7222 104.943 72.9954C104.943 73.2686 105.165 73.4875 105.437 73.5146C107.475 73.718 109.189 75.1647 109.6 77.1195C109.658 77.3958 109.89 77.6122 110.173 77.6122C110.475 77.6122 110.719 77.3673 110.719 77.0653V75.1603C110.719 74.0558 111.615 73.1603 112.719 73.1603H147.194C147.467 73.1603 147.688 72.9389 147.688 72.6657C147.688 72.3925 147.467 72.1724 147.196 72.1355C145.341 71.8826 142.573 70.2982 142.224 67.9427C142.183 67.6696 141.963 67.4443 141.687 67.4443C141.415 67.4443 141.195 67.6631 141.165 67.9338C140.881 70.5138 138.79 72.171 137.236 72.171H112.719C111.615 72.171 110.719 71.2756 110.719 70.171V47.3499V42.3605V33.0935C110.719 32.4838 111.24 31.9942 112.179 31.8636C112.465 31.8239 112.7 31.5956 112.7 31.3072C112.7 31.0188 112.466 30.7874 112.178 30.7665C109.936 30.6039 108.394 29.3789 107.985 27.345C107.933 27.0839 107.712 26.8828 107.446 26.8828C107.158 26.8828 106.924 27.1168 106.924 27.4054V42.3605V47.3499V71.1817Z" fill="url(#paint3_linear_2529_83)"/>
<path d="M126.528 44.2645H131.66H139.346H139.766C141.839 44.2645 143.619 45.7273 143.819 48.3312C143.84 48.6039 144.059 48.8263 144.332 48.8263C144.606 48.8263 144.825 48.6031 144.851 48.3309C145.112 45.6052 147.537 44.3533 149.999 44.2213C150.242 44.2083 150.439 44.0127 150.439 43.7699C150.439 43.5271 150.242 43.3314 149.999 43.3193C147.528 43.1962 145.095 42.0148 144.848 39.0995C144.825 38.827 144.606 38.6035 144.332 38.6035C144.059 38.6035 143.839 38.8262 143.82 39.099C143.63 41.8523 141.845 43.2752 139.766 43.2752H139.346H131.66H126.528H118.787H112.719H104.924H56.6063C56.3332 43.2752 56.1117 43.4967 56.1117 43.7699C56.1117 44.0431 56.3332 44.2645 56.6063 44.2645H104.924H112.719H118.787H126.528Z" fill="url(#paint4_linear_2529_83)"/>
<path d="M120.787 60.5191V47.3498V42.3605V26.6655C120.787 26.3605 121.034 26.1133 121.339 26.1133C121.62 26.1133 121.853 26.3254 121.91 26.6004C122.315 28.5586 123.755 29.7242 125.876 29.8861C126.164 29.9081 126.398 30.1394 126.398 30.4278C126.398 30.7161 126.163 30.9438 125.878 30.9875C125 31.1221 124.528 31.6012 124.528 32.159V42.3605L124.528 47.3496V58.5739C124.528 59.6785 125.423 60.5739 126.528 60.5739H131.66C132.764 60.5739 133.66 59.6785 133.66 58.5739V47.3496L133.66 42.3605V27.4609C133.66 27.1719 133.894 26.9377 134.183 26.9377C134.449 26.9377 134.67 27.1384 134.722 27.3992C135.121 29.3728 136.563 30.5479 138.694 30.7106C138.982 30.7325 139.216 30.9638 139.216 31.2522C139.216 31.5405 138.981 31.7682 138.696 31.8119C137.818 31.9465 137.346 32.4257 137.346 32.9835V42.3605V47.3498V64.1723C137.346 65.1902 136.521 66.0153 135.503 66.0153C134.485 66.0153 133.66 65.1902 133.66 64.1723V63.5634C133.66 62.4588 132.764 61.5634 131.66 61.5634H126.013C124.35 61.5634 123.518 64.7 123.39 66.6207C123.372 66.8936 123.151 67.1145 122.877 67.1145C122.604 67.1145 122.384 66.8917 122.336 66.6226C122.089 65.2441 120.884 63.5002 119.326 63.2017C119.072 63.1531 118.861 62.9481 118.861 62.6901C118.861 62.4321 119.072 62.2287 119.327 62.1848C120.288 62.0188 120.787 61.3313 120.787 60.5191Z" fill="url(#paint5_linear_2529_83)"/>
<path d="M197 92.5059C195.267 105.898 187.715 122.509 173.126 131.058C172.936 131.169 172.692 131.126 172.551 130.957C172.384 130.758 172.419 130.46 172.625 130.301C183.1 122.263 191.127 106.588 193.147 92.5059H197Z" fill="url(#paint6_linear_2529_83)"/>
<path d="M190.124 92.5039C188.017 102.513 180.429 115.325 169.726 122.077C169.534 122.199 169.279 122.151 169.143 121.969C169.001 121.78 169.033 121.513 169.214 121.362C176.921 114.919 184.374 102.495 186.352 92.5039H190.124Z" fill="url(#paint7_linear_2529_83)"/>
<path d="M181.957 92.0605H196.065C197.55 92.0605 198.511 90.6791 198.637 88.6259C198.653 88.3681 198.86 88.1582 199.118 88.1582C199.377 88.1582 199.583 88.3685 199.613 88.625C199.832 90.4937 201.339 91.9171 202.835 92.1812C203.104 92.2287 203.327 92.4468 203.327 92.72C203.327 92.9932 203.104 93.2099 202.834 93.2525C201.826 93.4116 201.126 94.0553 201.126 94.8635V126.782C201.126 127.721 200.464 128.519 199.598 128.882C197.507 129.76 195.514 131.408 194.791 133.031C194.684 133.273 194.455 133.446 194.191 133.446C193.958 133.446 193.749 133.311 193.634 133.108C192.151 130.486 188.19 128.665 185.393 128.665C183.213 128.665 181.734 129.831 181.343 131.562C181.285 131.818 181.068 132.017 180.805 132.017C180.515 132.017 180.281 131.777 180.302 131.488C180.597 127.462 183.056 125.037 186.273 125.037C189.708 125.037 192.172 126.832 193.827 128.037C194.663 128.646 195.292 129.104 195.735 129.104C196.945 129.104 197.496 127.071 197.496 124.323V93.9811C197.496 93.4667 197.079 93.0498 196.564 93.0498H179V92.0605H181.957Z" fill="url(#paint8_linear_2529_83)"/>
<path d="M180.06 94.2064C178.135 98.1777 175.375 102.862 171.274 107.095C171.112 107.261 170.846 107.262 170.682 107.099C170.536 106.953 170.518 106.724 170.637 106.557C175.939 99.114 179.386 88.3653 179.555 82.5507C179.562 82.3077 179.758 82.1133 180.001 82.1133C180.244 82.1133 180.439 82.3109 180.46 82.553C180.64 84.6401 182.116 86.0494 184.513 86.2183C184.785 86.2375 185.008 86.4569 185.008 86.73C185.008 87.0032 184.785 87.2199 184.514 87.2531C183.509 87.376 182.78 87.9131 182.257 89.1483C182.017 89.7887 181.718 90.4872 181.403 91.2229L181.403 91.2238L180.06 94.2064Z" fill="white"/>
<path fill-rule="evenodd" clip-rule="evenodd" d="M74.4785 43.2624C73.3739 43.2624 72.4785 42.3669 72.4785 41.2624V40.899C72.4785 38.9754 74.1839 37.7113 76.1644 37.7113H84.3968C85.5013 37.7113 86.3968 38.6067 86.3968 39.7113V41.2624C86.3968 42.3669 85.5013 43.2624 84.3968 43.2624H74.4785ZM59.79 43.2624C58.6855 43.2624 57.79 42.3669 57.79 41.2624V39.7113C57.79 38.6067 58.6855 37.7113 59.79 37.7113H67.5823C69.7829 37.7113 71.3782 39.1952 71.3782 40.899V41.2624C71.3782 42.3669 70.4828 43.2624 69.3782 43.2624H59.79ZM69.3782 31.0609C70.4828 31.0609 71.3782 31.9564 71.3782 33.0609V33.6441C71.3782 35.5678 69.6178 36.667 67.5823 36.667H59.79C58.6855 36.667 57.79 35.7716 57.79 34.667V33.0609C57.79 31.9564 58.6855 31.0609 59.79 31.0609H69.3782ZM84.3968 31.0609C85.5013 31.0609 86.3968 31.9564 86.3968 33.0609V34.667C86.3968 35.7716 85.5013 36.667 84.3968 36.667H76.1644C73.9638 36.667 72.4785 35.4579 72.4785 33.6441V33.0609C72.4785 31.9564 73.3739 31.0609 74.4785 31.0609H84.3968ZM88.2122 46.9997C89.2148 46.9997 90.0276 46.187 90.0276 45.1843V32.7098C90.0276 31.8512 90.7245 31.1782 92.1183 31.0748C92.3302 31.059 92.5032 30.8887 92.5032 30.6762C92.5032 30.4637 92.3301 30.2937 92.1189 30.2709C90.1633 30.0607 88.7698 28.2757 88.5255 26.7447C88.4848 26.4896 88.2779 26.2793 88.0197 26.2793C87.7614 26.2793 87.554 26.489 87.5347 26.7465C87.4069 28.4553 86.5664 30.0716 84.8014 30.0716H58.3269C57.9074 30.0716 57.4997 29.9331 57.1671 29.6775C55.9154 28.7155 54.1042 29.6079 54.1042 31.1865V42.328C54.1042 43.1344 53.6878 43.8022 52.2613 43.9075C52.0342 43.9242 51.8486 44.1065 51.8486 44.3341C51.8486 44.5618 52.0338 44.7441 52.2603 44.7665C54.1564 44.9537 55.4923 46.4183 55.72 47.9628C55.7577 48.2183 55.9639 48.4287 56.2222 48.4287C56.4804 48.4287 56.6884 48.219 56.7 47.961C56.7936 45.88 57.537 44.3066 59.3304 44.3066H85.0502C85.7939 44.3066 86.3968 44.9095 86.3968 45.6532C86.3968 46.3969 86.9996 46.9997 87.7433 46.9997H88.2122Z" fill="url(#paint9_linear_2529_83)"/>
<path fill-rule="evenodd" clip-rule="evenodd" d="M84.9665 63.7631C84.9665 66.676 83.8662 69.534 80.6204 69.534H68.5176C66.1287 69.534 65.1628 67.8636 64.8475 65.2944C64.7115 64.1865 65.6355 63.2684 66.7518 63.2684H84.4718C84.745 63.2684 84.9665 63.4899 84.9665 63.7631ZM66.3171 55.925C66.3171 54.8204 67.2125 53.925 68.3171 53.925H75.7598C76.8643 53.925 77.7598 54.8204 77.7598 55.925V60.2791C77.7598 61.3837 76.8643 62.2791 75.7598 62.2791H68.3171C67.2125 62.2791 66.3171 61.3837 66.3171 60.2791V55.925ZM97.2344 62.7463C97.2344 62.4883 97.024 62.2812 96.7667 62.2621C94.198 62.0713 92.7783 60.3059 92.5819 58.2668C92.5556 57.9946 92.3366 57.7723 92.0631 57.7723C91.7897 57.7723 91.5698 57.9942 91.5489 58.2668C91.3986 60.2241 90.3637 62.2791 88.4873 62.2791H83.4456C82.3411 62.2791 81.4456 61.3837 81.4456 60.2791V55.925C81.4456 54.8204 82.3411 53.925 83.4456 53.925H94.9243C95.1975 53.925 95.4189 53.7035 95.4189 53.4303C95.4189 53.1572 95.1967 52.9369 94.9268 52.8949C93.3023 52.6421 90.9528 51.2335 90.618 49.1968C90.5737 48.927 90.3561 48.7037 90.0827 48.7037C89.8092 48.7037 89.5902 48.9262 89.5637 49.1983C89.3482 51.4081 87.7111 52.9357 86.1217 52.9357H82.9296C82.11 52.9357 81.4456 52.2713 81.4456 51.4517C81.4456 50.8362 81.9765 50.3022 82.9326 50.1661C83.2031 50.1276 83.4261 49.9112 83.4261 49.638C83.4261 49.3648 83.2044 49.1452 82.9317 49.1291C80.6916 48.9972 79.2248 47.9466 78.8227 45.9774C78.7695 45.7167 78.549 45.5159 78.283 45.5159C77.994 45.5159 77.7598 45.7501 77.7598 46.0391V50.9357C77.7598 52.0403 76.8643 52.9357 75.7598 52.9357H67.801C66.9815 52.9357 66.3171 52.2713 66.3171 51.4517C66.3171 50.8362 66.8479 50.3022 67.8041 50.1661C68.0745 50.1276 68.2975 49.9112 68.2975 49.638C68.2975 49.3648 68.0758 49.1453 67.8032 49.1285C65.5815 48.9915 64.1633 47.91 63.7993 45.9556C63.7475 45.6778 63.5151 45.4609 63.2326 45.4609C62.9308 45.4609 62.6862 45.7055 62.6862 46.0073V50.9357C62.6862 52.0403 61.7908 52.9357 60.6862 52.9357H50.3629C50.0897 52.9357 49.8682 53.1572 49.8682 53.4303C49.8682 53.7035 50.0897 53.925 50.3629 53.925H60.6862C61.7908 53.925 62.6862 54.8204 62.6862 55.925V60.2791C62.6862 61.3837 61.7908 62.2791 60.6862 62.2791H48.2724C47.9992 62.2791 47.7777 62.5006 47.7777 62.7738C47.7777 63.047 47.9992 63.2684 48.2724 63.2684H61.4547C62.6421 63.2684 63.57 64.3156 63.0814 65.3979C61.4409 69.0314 56.4633 73.039 46.6913 77.1994C46.6556 77.2145 46.6407 77.2584 46.6611 77.2914C46.682 77.3253 46.6668 77.3699 46.6294 77.3839C31.7462 82.9569 16.5942 89.0818 6.81538 101.084C-2.88066 113.317 -1.06695 129.075 5.02746 142.506C6.983 146.62 10.4428 150.768 15.394 148.226C17.6375 147.092 19.4727 145.216 21.1188 143.412C24.5636 139.366 27.7194 135.08 30.8722 130.798C36.1608 123.614 41.441 116.443 48.0622 110.436C53.7268 105.197 60.4444 100.86 68.0603 99.22C75.3796 97.7902 83.9109 98.5158 90.491 102.161C93.1471 103.656 95.4421 105.738 97.3719 108.147C98.9237 110.038 100.237 112.128 101.553 114.223C103.634 117.535 105.723 120.859 108.774 123.429C113.837 127.774 121.019 128.199 127.32 127.263C136.446 125.832 145.155 122.686 153.629 119.043C154.162 118.814 154.771 119.111 154.822 119.689C154.836 119.844 154.846 120.005 154.852 120.174C154.862 120.432 155.07 120.641 155.328 120.641C155.586 120.641 155.79 120.43 155.839 120.176C155.961 119.536 156.349 118.974 157.061 118.663C157.759 118.37 158.448 118.068 159.128 117.761C160.472 117.154 162.012 118.12 162.012 119.594V124.883C162.012 126.695 159.604 127.69 157.896 127.086C157.367 126.899 156.861 126.797 156.401 126.797C154.664 126.797 153.078 128.256 152.944 131.512C152.934 131.76 153.137 131.963 153.385 131.963C153.626 131.963 153.819 131.772 153.866 131.537C154.055 130.588 154.736 130.04 155.796 130.04C157.134 130.04 159.194 131.29 160.175 132.981C160.298 133.194 160.518 133.337 160.764 133.337C161.047 133.337 161.292 133.148 161.397 132.885C161.86 131.734 162.766 130.816 163.842 130.253C164.702 129.802 165.423 129.002 165.423 128.032V115.857C165.423 115.115 165.835 114.435 166.488 114.083C169.017 112.719 171.5 111.273 174.166 109.712C174.379 109.587 174.448 109.311 174.319 109.1C174.202 108.911 173.964 108.838 173.761 108.929C172.1 109.675 170.156 110.488 168.092 111.287C166.799 111.788 165.423 110.823 165.423 109.437V99.8121C165.423 99.0526 166.039 98.4368 166.798 98.4368C168.686 98.4368 169.497 100.274 169.637 101.845C169.661 102.117 169.881 102.339 170.154 102.339C170.428 102.339 170.646 102.117 170.68 101.845C170.879 100.258 172.014 98.6586 173.759 98.414C174.014 98.3782 174.225 98.1727 174.225 97.9147C174.225 97.6567 174.015 97.4508 173.758 97.4201C171.983 97.2071 170.839 95.7739 170.671 93.8752C170.647 93.6028 170.428 93.3804 170.154 93.3804C169.881 93.3804 169.661 93.6023 169.642 93.8751C169.513 95.692 168.664 97.4475 166.798 97.4475C166.039 97.4475 165.423 96.8317 165.423 96.0722V88.7086C165.423 88.1576 165.807 87.7984 166.607 87.6951C166.893 87.6582 167.128 87.4306 167.128 87.1422C167.128 86.8539 166.894 86.6233 166.606 86.5963C164.762 86.4229 163.479 85.3002 163.073 83.1227C163.024 82.8618 162.803 82.6629 162.537 82.6629C162.247 82.6629 162.012 82.8981 162.012 83.1882V95.4773C162.012 96.5654 161.13 97.4475 160.042 97.4475H157.623C157.455 97.4475 157.338 97.2827 157.392 97.1244C158.371 94.2758 159.032 92.3532 159.971 91.8579C160.226 91.7233 160.472 91.4977 160.472 91.2094C160.472 90.921 160.237 90.6902 159.95 90.6656C157.774 90.4794 156.731 89.1051 156.731 87.1148C156.731 87.0237 156.657 86.9499 156.566 86.9499H156.236C155.962 86.9499 155.741 87.1709 155.737 87.4443C155.663 92.2885 154.51 100.467 151.423 108.891C151.346 109.101 151.442 109.337 151.645 109.431C151.846 109.523 152.085 109.448 152.194 109.255C154.165 105.794 155.499 102.534 156.48 99.7895C156.768 98.9828 157.527 98.4368 158.384 98.4368H160.012C161.117 98.4368 162.012 99.3322 162.012 100.437V111.968C162.012 112.844 161.442 113.621 160.602 113.869C157.349 114.83 154.373 115.525 152.329 115.627C152.056 115.64 151.835 115.861 151.835 116.134C151.835 116.408 152.057 116.625 152.329 116.652C152.797 116.697 153.194 116.813 153.525 117.005C154.34 117.48 153.851 118.587 152.973 118.932C144.622 122.218 136.081 125.064 127.186 126.22C121.131 126.967 114.43 126.555 109.685 122.355C107.373 120.359 105.615 117.769 103.956 115.107C99.6713 107.864 95.382 101.38 86.9237 98.5545C63.5389 91.066 47.1768 105.76 33.862 123.163C31.9412 125.655 30.093 128.196 28.2507 130.729C26.3664 133.32 24.4885 135.902 22.5457 138.414C22.3043 138.709 22.0479 139.027 21.7781 139.363C19.4099 142.306 16.0035 146.539 12.6046 146.925C8.76466 147.098 6.41067 140.971 5.1591 137.714C5.11072 137.588 5.06398 137.466 5.01886 137.349C0.635017 125.55 -0.039752 112.406 8.00589 101.99C17.1072 90.3361 32.3182 83.8362 46.9797 77.8899C47.0029 77.8805 47.0294 77.8893 47.0425 77.9105C47.0544 77.9299 47.0779 77.9389 47.0998 77.933C53.6367 76.1465 58.1657 74.1801 61.5419 72.7143C64.6017 71.3858 66.7148 70.4684 68.5176 70.4684H80.6204C83.7442 70.4684 84.8479 74.111 84.9573 77.0639C84.9674 77.3371 85.1881 77.5584 85.4616 77.5584C85.735 77.5584 85.9556 77.3371 85.9687 77.0639C86.1039 74.2384 87.3853 70.8755 89.8915 70.5025C90.1467 70.4645 90.3577 70.2592 90.3577 70.0012C90.3577 69.7432 90.1469 69.5369 89.8902 69.5111C87.0956 69.2302 85.9567 66.4224 85.9567 63.7631C85.9567 63.4899 86.1782 63.2684 86.4514 63.2684H88.4873C90.3438 63.2684 91.3765 65.4172 91.5438 67.1713C91.5698 67.4435 91.7897 67.6653 92.0631 67.6653C92.3366 67.6653 92.5556 67.4431 92.5878 67.1716C92.8022 65.3665 94.1831 63.4402 96.7667 63.232C97.0239 63.2113 97.2344 63.0043 97.2344 62.7463Z" fill="url(#paint10_linear_2529_83)"/>
<path id="etoile1" fill-rule="evenodd" clip-rule="evenodd" d="M128.318 98.548C128.318 98.3328 128.143 98.1599 127.929 98.1376C126.36 97.974 124.501 96.8465 124.274 94.954C124.249 94.7401 124.077 94.5645 123.861 94.5645C123.646 94.5645 123.473 94.7404 123.453 94.9548C123.247 97.1021 121.337 98.0884 119.397 98.1924C119.206 98.2026 119.05 98.3567 119.05 98.548C119.05 98.7393 119.206 98.8934 119.397 98.903C121.344 98.9999 123.261 99.9307 123.455 102.227C123.473 102.442 123.646 102.618 123.861 102.618C124.077 102.618 124.249 102.442 124.272 102.228C124.488 100.227 126.355 99.1175 127.929 98.9578C128.143 98.9361 128.318 98.7632 128.318 98.548ZM74.818 110.881C75.089 110.881 75.3056 111.102 75.3368 111.371C75.6174 113.795 77.9539 115.24 79.9282 115.452C80.202 115.482 80.4255 115.703 80.4255 115.978C80.4255 116.254 80.2021 116.475 79.9282 116.504C77.9472 116.711 75.6016 118.133 75.334 120.696C75.3058 120.965 75.089 121.186 74.818 121.186C74.5469 121.186 74.3297 120.965 74.3076 120.695C74.0673 117.753 71.658 116.559 69.2082 116.433C68.9637 116.42 68.7651 116.223 68.7651 115.978C68.7651 115.734 68.9637 115.536 69.2081 115.523C71.6492 115.388 74.0502 114.123 74.305 111.372C74.33 111.102 74.5469 110.881 74.818 110.881Z" fill="white"/>
<path id="etoile2" d="M27.7103 42.6535C29.9492 43.6221 32.369 42.3211 33.5403 40.7177C33.7028 40.4953 34.006 40.4124 34.2445 40.5501C34.483 40.6878 34.5628 40.9918 34.4507 41.2433C33.64 43.0627 33.6985 45.805 35.7841 47.3181C36.0035 47.4773 36.0866 47.7756 35.951 48.0103C35.8155 48.245 35.515 48.3224 35.27 48.2065C32.6021 46.9437 30.3637 48.4334 29.0295 50.4918C28.8964 50.6972 28.6263 50.7706 28.4143 50.6482C28.2023 50.5258 28.1309 50.2553 28.2414 50.0368C29.3447 47.8551 29.45 45.1435 27.1953 43.5476C26.9741 43.391 26.8909 43.0924 27.0264 42.8577C27.162 42.623 27.4616 42.5459 27.7103 42.6535Z" fill="white"/>
<path id="etoile3" d="M43.9813 15.4868C43.7301 17.0974 44.9774 18.4444 46.211 18.9332C46.382 19.001 46.4865 19.1832 46.4375 19.3606C46.3884 19.538 46.2051 19.6405 46.0236 19.6102C44.7108 19.3909 42.9468 19.8886 42.3178 21.4913C42.2517 21.6599 42.0726 21.7636 41.8981 21.7153C41.7235 21.667 41.6231 21.4856 41.657 21.3077C42.0265 19.3703 40.6876 18.1722 39.1324 17.6544C38.9772 17.6027 38.8845 17.4403 38.9281 17.2827C38.9717 17.125 39.1347 17.0335 39.2945 17.0683C40.8908 17.4161 42.6623 17.0296 43.3166 15.3036C43.3808 15.1342 43.56 15.0303 43.7345 15.0786C43.9091 15.1269 44.0092 15.3078 43.9813 15.4868Z" fill="white"/>
<path id="etoile4" fill-rule="evenodd" clip-rule="evenodd" d="M19.833 74C11.3312 66.214 6 55.0224 6 42.5857C6 19.066 25.0663 0 48.5857 0C61.0226 0 72.2142 5.33102 80 13.8331C72.4239 6.8951 62.33 2.66161 51.2473 2.66161C27.7279 2.66161 8.66161 21.7276 8.66161 45.2473C8.66161 56.3298 12.8951 66.4239 19.833 74Z" fill="white"/>
<defs>
<linearGradient id="paint0_linear_2529_83" x1="208" y1="82.0039" x2="259" y2="132.504" gradientUnits="userSpaceOnUse">
<stop stop-color="white"/>
<stop offset="1" stop-color="#FFDBDB"/>
</linearGradient>
<linearGradient id="paint1_linear_2529_83" x1="207.5" y1="94.0039" x2="229" y2="94.0039" gradientUnits="userSpaceOnUse">
<stop stop-color="white"/>
<stop offset="0.337209" stop-color="#ABB9EC"/>
<stop offset="0.767442" stop-color="#E8BEC0"/>
<stop offset="1" stop-color="white"/>
</linearGradient>
<linearGradient id="paint2_linear_2529_83" x1="203" y1="26.0039" x2="151" y2="78.0039" gradientUnits="userSpaceOnUse">
<stop stop-color="#FFDBDB"/>
<stop offset="0.457933" stop-color="white"/>
<stop offset="1" stop-color="#D0DAFF"/>
</linearGradient>
<linearGradient id="paint3_linear_2529_83" x1="126.316" y1="26.8828" x2="126.316" y2="77.6122" gradientUnits="userSpaceOnUse">
<stop stop-color="white"/>
<stop offset="0.492734" stop-color="white"/>
<stop offset="1" stop-color="#CFD9FF"/>
</linearGradient>
<linearGradient id="paint4_linear_2529_83" x1="56" y1="43.918" x2="150.5" y2="43.918" gradientUnits="userSpaceOnUse">
<stop offset="0.367725" stop-color="#FFE4E4"/>
<stop offset="0.55754" stop-color="#7086D9"/>
<stop offset="1" stop-color="#E5BDC1"/>
</linearGradient>
<linearGradient id="paint5_linear_2529_83" x1="123" y1="26.0039" x2="123" y2="67.5039" gradientUnits="userSpaceOnUse">
<stop stop-color="white"/>
<stop stop-color="white"/>
<stop offset="1" stop-color="#FFD9D9"/>
</linearGradient>
<linearGradient id="paint6_linear_2529_83" x1="197" y1="93.0039" x2="172.5" y2="131.004" gradientUnits="userSpaceOnUse">
<stop stop-color="white"/>
<stop offset="0.479852" stop-color="#C0CCF9"/>
<stop offset="1" stop-color="#E5BDC1"/>
</linearGradient>
<linearGradient id="paint7_linear_2529_83" x1="190" y1="93.0039" x2="169.5" y2="122.004" gradientUnits="userSpaceOnUse">
<stop stop-color="white"/>
<stop offset="0.478147" stop-color="#C6D0FA"/>
<stop offset="1" stop-color="#E5BDC1"/>
</linearGradient>
<linearGradient id="paint8_linear_2529_83" x1="179.5" y1="89.0039" x2="201" y2="133.004" gradientUnits="userSpaceOnUse">
<stop stop-color="white"/>
<stop offset="0.596763" stop-color="#E8BEC0"/>
<stop offset="1" stop-color="#D9E1FF"/>
</linearGradient>
<linearGradient id="paint9_linear_2529_83" x1="72.1759" y1="26.2793" x2="72.1759" y2="49.1982" gradientUnits="userSpaceOnUse">
<stop stop-color="white"/>
<stop offset="1" stop-color="#FFDADA"/>
</linearGradient>
<linearGradient id="paint10_linear_2529_83" x1="5.87248e-06" y1="45.0039" x2="174" y2="149.004" gradientUnits="userSpaceOnUse">
<stop stop-color="#7086D9"/>
<stop offset="0.156344" stop-color="#9C9BD0"/>
<stop offset="0.437847" stop-color="white"/>
<stop offset="0.643483" stop-color="#BCAAC9"/>
<stop offset="1" stop-color="#E5BDC1"/>
</linearGradient>
</defs>
</svg>
