<svg width="191" height="80" viewBox="0 0 191 80" fill="none" xmlns="http://www.w3.org/2000/svg">
<path d="M88.3247 34.0996H98.3528V36.8805H92.0494V38.4816H97.4427V41.1446H92.0494V42.9142H98.4708V45.6951H88.3247V34.0996Z" fill="#D9D9D9"/>
<path d="M77.0837 34.0996H80.8085V42.7288H86.7579V45.6951H77.0837V34.0996Z" fill="#D9D9D9"/>
<path d="M71.426 34.0996C72.1451 34.0996 72.7856 34.2681 73.3474 34.6052C73.9092 34.9311 74.3474 35.3861 74.662 35.9704C74.9766 36.5434 75.1339 37.1895 75.1339 37.9086V38.1277C75.1339 38.8468 74.9766 39.4985 74.662 40.0828C74.3474 40.667 73.9092 41.1277 73.3474 41.4648C72.7856 41.7906 72.1451 41.9535 71.426 41.9535H68.6451V45.6951H64.9204V34.0996H71.426ZM68.6451 39.2401H70.1788C70.5721 39.2401 70.8642 39.1389 71.0552 38.9367C71.2575 38.7344 71.3586 38.4592 71.3586 38.1108V37.976C71.3586 37.6165 71.2575 37.3412 71.0552 37.1502C70.8642 36.9479 70.5721 36.8468 70.1788 36.8468H68.6451V39.2401Z" fill="#D9D9D9"/>
<path d="M62.8084 37.6558C62.8084 38.3637 62.6173 39.0041 62.2353 39.5771C61.8533 40.1502 61.2971 40.5715 60.5668 40.8412L63.1454 45.6951H58.9657L56.9095 41.4648H55.5275V45.6951H51.8027V34.0996H58.8982C59.7297 34.0996 60.4376 34.2625 61.0218 34.5884C61.6173 34.903 62.0612 35.3356 62.3533 35.8861C62.6567 36.4255 62.8084 37.0153 62.8084 37.6558ZM59.0162 37.8075C59.0162 37.5041 58.9151 37.2513 58.7128 37.049C58.5106 36.8468 58.2634 36.7457 57.9713 36.7457H55.5275V38.8861H57.9713C58.2634 38.8861 58.5106 38.785 58.7128 38.5828C58.9151 38.3693 59.0162 38.1108 59.0162 37.8075Z" fill="#D9D9D9"/>
<path d="M49.3081 41.0266C49.3081 42.6108 48.8081 43.8187 47.8081 44.6502C46.8081 45.4816 45.3868 45.8974 43.5441 45.8974C41.7014 45.8974 40.2744 45.4816 39.2632 44.6502C38.2632 43.8187 37.7632 42.6108 37.7632 41.0266V34.0996H41.4879V40.976C41.4879 41.6277 41.6621 42.1502 42.0104 42.5434C42.3587 42.9255 42.8643 43.1165 43.5272 43.1165C44.1901 43.1165 44.6958 42.9198 45.0441 42.5266C45.4036 42.1333 45.5834 41.6165 45.5834 40.976V34.0996H49.3081V41.0266Z" fill="#D9D9D9"/>
<path d="M32.1057 34.0996C32.8248 34.0996 33.4653 34.2681 34.0271 34.6052C34.5889 34.9311 35.0271 35.3861 35.3417 35.9704C35.6563 36.5434 35.8136 37.1895 35.8136 37.9086V38.1277C35.8136 38.8468 35.6563 39.4985 35.3417 40.0828C35.0271 40.667 34.5889 41.1277 34.0271 41.4648C33.4653 41.7906 32.8248 41.9535 32.1057 41.9535H29.3248V45.6951H25.6001V34.0996H32.1057ZM29.3248 39.2401H30.8585C31.2518 39.2401 31.5439 39.1389 31.7349 38.9367C31.9372 38.7344 32.0383 38.4592 32.0383 38.1108V37.976C32.0383 37.6165 31.9372 37.3412 31.7349 37.1502C31.5439 36.9479 31.2518 36.8468 30.8585 36.8468H29.3248V39.2401Z" fill="#D9D9D9"/>
<path d="M161.295 37.1675V45.7967H157.57V37.1675H153.761V34.2012H165.087V37.1675H161.295Z" fill="#D9D9D9"/>
<path d="M148.401 45.7967V41.3978H144.306V45.7967H140.581V34.2012H144.306V38.4315H148.401V34.2012H152.126V45.7967H148.401Z" fill="#D9D9D9"/>
<path d="M132.373 34C133.485 34 134.485 34.1685 135.373 34.5056C136.261 34.8427 136.963 35.3427 137.48 36.0056C138.008 36.6573 138.272 37.4551 138.272 38.3989H134.716C134.716 37.9157 134.502 37.5281 134.075 37.236C133.648 36.9326 133.131 36.7809 132.525 36.7809C131.648 36.7809 130.985 37.0169 130.536 37.4888C130.086 37.9494 129.862 38.6067 129.862 39.4607V40.5393C129.862 41.3933 130.086 42.0562 130.536 42.5281C130.985 42.9888 131.648 43.2191 132.525 43.2191C133.131 43.2191 133.648 43.0787 134.075 42.7978C134.502 42.5056 134.716 42.1348 134.716 41.6854H132.086V39.3258H138.272V45.7978H136.35L135.98 44.6517C134.924 45.5506 133.542 46 131.834 46C129.912 46 128.468 45.5 127.502 44.5C126.536 43.4888 126.053 41.9888 126.053 40C126.053 38.0337 126.598 36.5449 127.688 35.5337C128.789 34.5112 130.35 34 132.373 34Z" fill="#D9D9D9"/>
<path d="M120.159 45.7967V34.2012H123.884V45.7967H120.159Z" fill="#D9D9D9"/>
<path d="M114.244 45.7967L109.373 40.1675V45.7967H105.951V34.2012H109.204L114.075 39.9147V34.2012H117.496V45.7967H114.244Z" fill="#D9D9D9"/>
</svg>
